<?xml version="1.0" encoding="utf-8"?>
<!-- Generator: Adobe Illustrator 24.1.1, SVG Export Plug-In . SVG Version: 6.00 Build 0)  -->
<svg version="1.1" id="Ñëîé_1" xmlns="http://www.w3.org/2000/svg" xmlns:xlink="http://www.w3.org/1999/xlink" x="0px" y="0px"
	 viewBox="0 0 500 337.8" style="enable-background:new 0 0 500 337.8;" xml:space="preserve">
<style type="text/css">
	.st0{fill:#191919;}
</style>
<g>
	<g>
		<path class="st0" d="M17.5,104.8c-12.9,0-17.1,4.1-17.4,16.9C-0.2,135.9,0,150.1,0,164.3c0,14.5,0,29.1,0,43.6
			c0,5.5,0.6,10.9,5.8,14.4c4.7,3.1,17,3.7,26.3,2.2c4.8-0.8,8.3-4.9,8.3-9.7V115c0-4.9-3.6-9.1-8.5-9.8
			C27.2,104.6,22.4,104.8,17.5,104.8z"/>
		<path class="st0" d="M237.4,123.5c1.2-21.1-3.6-26.1-25.2-26.4c-2.7,0-5.4,0-8.1,0c-10.8,0-21.6,0.4-32.4-0.1
			c-12.4-0.5-15-4.8-9.9-15.8c2.1-4.6,4.4-9.2,7.2-13.3c9.9-14.2,14.1-29.6,12.2-46.9c-1.4-12.5-7.5-20.3-17.9-21
			c-10.7-0.6-17,5.6-18.8,19.3C143,30,140,40.4,132.9,48.2c-19.6,21.4-39.5,42.6-61.5,61.7c-4.1,3.6-9.6,6.3-14.6,6.5
			c-0.5,0-1,0.5-1,1v94.2c0,1.2,1.1,2.1,2.3,2c6.1-0.7,12.3,1.2,19.5,5.5c12.2,7.2,24.7,14,38.9,16.5c30.1,5.4,60.3,6.3,90.7,3.9
			c12.1-1,14.1-3.1,14.6-15.6c0.2-5-3-11.3,0.9-14.6c9.6-8.1,7.1-18.2,6.4-28.1c-0.2-3.4-1.6-6.8,2.3-9c6-3.3,6.1-9,6.4-14.9
			c1-15.8-5.2-15.8-5.1-24.3C232.9,130.1,237.1,128.8,237.4,123.5z"/>
	</g>
	<g>
		<path class="st0" d="M482.5,233c12.9,0,17.1-4.1,17.4-16.9c0.3-14.2,0.1-28.4,0.1-42.6c0-14.5,0-29.1,0-43.6
			c0-5.5-0.6-10.9-5.8-14.4c-4.7-3.1-17-3.7-26.3-2.2c-4.8,0.8-8.3,4.9-8.3,9.7v99.8c0,4.9,3.6,9.1,8.5,9.8
			C472.8,233.3,477.6,233,482.5,233z"/>
		<path class="st0" d="M262.6,214.3c-1.2,21.1,3.6,26.1,25.2,26.4c2.7,0,5.4,0,8.1,0c10.8,0,21.6-0.4,32.4,0.1
			c12.4,0.5,15,4.8,9.9,15.8c-2.1,4.6-4.4,9.2-7.2,13.3c-9.9,14.2-14.1,29.6-12.2,46.9c1.4,12.5,7.5,20.3,17.9,21
			c10.7,0.6,17-5.6,18.8-19.3c1.4-10.6,4.4-21.1,11.5-28.8c19.6-21.4,39.5-42.6,61.5-61.7c4-3.5,9.3-6.1,14.2-6.5
			c0.8-0.1,1.4-0.7,1.4-1.5v-94.6c0-0.8-0.7-1.3-1.4-1.2c-6.4,0.9-12.8-0.9-20.4-5.4c-12.2-7.2-24.7-14-38.9-16.5
			c-30.1-5.4-60.3-6.3-90.7-3.9c-12.1,1-14.1,3.1-14.6,15.6c-0.2,5,3,11.3-0.9,14.6c-9.6,8.1-7.1,18.2-6.4,28.1
			c0.2,3.4,1.6,6.8-2.3,9c-6,3.3-6.1,9-6.4,14.9c-1,15.8,5.2,15.8,5.1,24.3C267.1,207.7,262.9,209.1,262.6,214.3z"/>
	</g>
</g>
</svg>
