{
	"name": "HYB - Clicklist",
	"subName": "",
	"type": "template",
	"tags": [
		"image-large",
		"text-medium",
		"text-large"
	],
	"components": {

		"preview": {
			"_examples": [
				{
					"title": "NONE",
					"_url": "narrative-1"
				}
			]
		},
		"description": {
			"body": "DESCRIPTION TBA.",
			"_examples": [
			]
		},
		"modularity": {
			"body": "MODULARITY TBA.",
			"_parents": {
				"_includeTags": [],
				"_excludeTags": [],
				"_includePages": [
					"activator"
				],
				"_excludePages": []
			}
		},

		"word": {
			"_items": [
				{
					"_header": {
						"_isEnabled": 	true,
						"tn": 			"",
						"cost":			true,
						"notes": 		"{{#w-yellow}}{{#id-img}}{{/id-img}}{{/w-yellow}}{{#w-debug}}Image MUST be decorative. Please try to avoid images which are too 'noisy'.{{/w-debug}}",
						"map":			true
					},
	
					"_comment": 	"",
					"title":		"Title",
					"body":			"{{#id-standup-text}}{{/id-standup-text}}",
					"instruction":	"Click on the icons to XXXXXXXXXXXXXX.",
					"content":		"",

					"_items": [
						{
							"_comment": "",
							"_header":	"Reveals",
							"title": 	" ",
							"body": 	"<ul><li>XXXXXXXXXXXXXXXXXXXXXX</li><li>XXXXXXXXXXXXXXXXXXXXXX</li><li>XXXXXXXXXXXXXXXXXXXXXX</li><li>XXXXXXXXXXXXXXXXXXXXXX</li></ul>",
							"instruction": 	"",
							"content": ""
						},
						{
							"_comment": "[OPTIONAL] If you add an OnCompletePopup extra, it will appear under the bulletpoints.",
							"_header":	"",
							"title": 	" ",
							"body": 	"{{#w-green}}{{#w-yellow}}OnCompletePopup{{/w-yellow}}<p>TextTextTextTextTextTextTextTextTextTextTextTextText</p>{{/w-green}}",
							"instruction": 	"",
							"content": ""
						}
					]
				}
			]
		},
		
		"developer": {
			"body": "<p>Most times, you'll use the first layout. If you have the space for it (and it looks good), feel free to try the second one.</p><p>If there are so many items that the first layout starts to overflow, try increasing columns with the <code>_itemSizing._cols</code> value.</p>",
			"json": {
				"components": [
					{
						"_desc": "Default",
						"_items": [
							{
								"_id": "",
								"_parentId": "b-X",
								"_component": "hyb-clicklist",
								"_classes": "",

								"_background": {
									"_isEnabled": 	true,
									"src": 			"course/en/images/b-X/pic-0.jpg",
									"color": 		"#ffffff"
								},

								"title": "XXX",
								"body": "<<<XXX>>>",
								"instruction": "Click on the icons to XXX.",
								"_invertColor": false,

								"_grid": {
									"_areas": [
										["", "", ""],
										["s40", "w50", ""],
										["", "", ""]
									],
									"_customs": [
									
									]
								},

								
								"_ordered": false,
								"_itemSizing": {
									"_cols": 1
								},
								"_items": [
									{
										"body": 	"<<<XXX>>>"
									},
									{
										"body": 	"<<<XXX>>>"
									},
									{
										"body": 	"<<<XXX>>>"
									},
									{
										"body": 	"<<<XXX>>>"
									}
								],
								
								"<<<~": "",
								"_layout": "full",
								"_type": "component",
								"~>>>": ""
							}
						]
					}
				],
				"properties": {
					"_items": {
						"_header": ""
					},
					"_ordered": {
						"_header": "Items",
						"_desc": "Set to true to have numbers instead of bulletpoints."
					},
					"_itemSizing._cols": {
						"_desc": "How many columns you want the items to sit in (default: 1)."
					},


					"_grid": {
						"_variations": [
							{
								"title": "Common",
								"src": "item0.svg",
								"_content": {
									"_areas": [
										["", "", ""],
										["s40", "w50", ""],
										["", "", ""]
									],
									"_customs": [
									
									]
								}
							},
							{
								"title": "Rarely fits",
								"src": "item1.svg",
								"_content": {
									"_areas": [
										["s50", "", ""],
										["w50", "w", ""],
										["", "", ""]
									],
									"_customs": [
									
									]
								}
							},
							{
								"title": "Very rare",
								"src": "item2.svg",
								"_content": {
									"_areas": [
										["", "s100", ""],
										["", "w", ""],
										["", "", ""]
									],
									"_customs": [
									
									]
								}
							}
						]
					}
				}
			}
		}
	}
}