{
	"name": "HYB - YT - DragSort",
	"subName": "",
	"type": "template",
	"tags": [
		"image-large",
		"text-medium",
		"text-large"
	],
	"components": {

		"preview": {
			"_examples": [
				{
					"title": "NONE",
					"_url": "narrative-1"
				}
			]
		},
		"description": {
			"body": "DESCRIPTION TBA.",
			"_examples": [
			]
		},
		"modularity": {
			"body": "MODULARITY TBA.",
			"_parents": {
				"_includeTags": [],
				"_excludeTags": [],
				"_includePages": [
					"activator"
				],
				"_excludePages": []
			}
		},

		"word": {
			"_items": [
				{
					"_header": {
						"_isEnabled": 	true,
						"tn": 			"",
						"notes": 		""
					},
	
					"_comment": 	"",
					"title":		"Title",
					"body":			"WORD TEMPLATE TBA.",
					"instruction":	"",
					"content":		""
				}
			]
		},
		
		"developer": {
			"body": "<p><strong>Note:</strong> This, and all other YTs, will only work if the first component in their block is a {{{guidelink \"hyb-yourTurn\"}}}.</p><p>You <strong>will</strong> need to tweak the <code>_optionSizing</code> and <code>_itemSizing</code> values for most blocks made with this template.</p><p><strong>Note:</strong> DragSort uses the exact same component as {{{guidelink \"hyb-dragLabel\"}}}; with the only difference being that multiple <code>_items</code> have the same <code>_optionsCorrect</code> value.</p><p><strong>Note:</strong> DragSort has a unique layout if it detects a <code>_grid._areas</code> area using <code>\"xw\"</code> combined (the default layout below uses this).</p>",
			"json": {
				"components": [
					{
						"_desc": "Default layout",
						"_items": [
							{
								"_id": 			"",
								"_parentId": 	"b-X",
								"_component": 	"hyb-draglabel",
								"_classes": 	"",

								"_background":	{
									"_isEnabled": true,
									"src": "",
									"opacity":		1,
									"_offset": 		0
								},

								"body": "<<<XXX>>>",
								"instruction": "Click and drag each X to the correct Y, then click submit.",
								"_invertColor": false,

								"_optionSizing": {
									"_cols": 0
								},
								"_options": [
									{
										"text": "OPTION 1"
									},
									{
										"text": "OPTION 2"
									}
								],

								"_itemSizing": {
									"_cols": 0
								},
								"_items": [
									{
										"text": "XXX1",
										"_optionsCorrect": [0]
									},
									{
										"text": "XXX2",
										"_optionsCorrect": [0]
									},
									{
										"text": "XXX3",
										"_optionsCorrect": [0]
									},
									{
										"text": "XXX4",
										"_optionsCorrect": [1]
									}
								],
								"_feedback": {
									"_correct": {
										"title": 	"",
										"body": "<<<XXX>>>"
									},
									"_incorrect": {
										"title": 		"",
										"body": "<<<XXX>>>",
										"instruction": 	"Have another look at the options and try again."
									},
									"<<<~": "",
									"_partlyCorrect": {
										"title": "",
										"body": "",
										"instruction": ""
									},
									"~>>>": ""
								},
								"_grid": {
									"_areas": [
										["", "s80", ""],
										["", "xw80", ""],
										["", "", ""]
									],
									"_customs": [
									
									]
								},
								"<<<~": "",
								"_isRandom": 				true,
								"_attempts": 				999,
								"_shouldDisplayAttempts": 	false,
								"_questionWeight": 			1,
								"_canShowModelAnswer": 		false,
								"_canShowFeedback": 		true,
								"_canShowMarking": 			true,
								"_recordInteraction": 		true,
								"_layout": 		"full",
								"_type": 					"component",
								"~>>>": ""
							}
						]
					}
				],
				"properties": {
					"body": {
						"_header": "Standup"
					},
					"_optionSizing": {
						"_header": "Options (drops)",
						"_desc": "Settings for the options defined in here."
					},
					"_optionSizing._cols": {
						"_isOptional": true,
						"_desc": "Set this to a number if you want to limit the amount of options there are per-row."
					},
					"_itemSizing._cols": {
						"_isOptional": true,
						"_desc": "If you set this to <code>0</code>, all the draggables will sit in one row. Otherwise, you can specify how many columns they sit in by providing a number."
					},
					"_options": {
						"_header": "Options",
						"_desc": "An array of settings for the options (droppables)."
					},
					"_options.text": {
						"_desc": "The text to show beside/above the droppable."
					},
					"_items._optionsCorrect": {
						"_desc": "Specify which <code>\"_options\"</code> option's index is the correct one for this item."
					}
				}
			}
		}
	}
}