<?xml version="1.0" encoding="utf-8"?>
<!-- Generator: Adobe Illustrator 25.0.0, SVG Export Plug-In . SVG Version: 6.00 Build 0)  -->
<svg version="1.1" id="Ñëîé_1" xmlns="http://www.w3.org/2000/svg" xmlns:xlink="http://www.w3.org/1999/xlink" x="0px" y="0px"
	 viewBox="0 0 932.6 1326.69" style="enable-background:new 0 0 932.6 1326.69;" xml:space="preserve">
<style type="text/css">
	.st0{fill:url(#SVGID_1_);}
	.st1{opacity:0.7;}
	.st2{fill:#424C4F;}
	.st3{fill:#1D1D1B;}
</style>
<g>
	<radialGradient id="SVGID_1_" cx="3198.6128" cy="1650.3036" r="1250" gradientUnits="userSpaceOnUse">
		<stop  offset="0" style="stop-color:#FFFFFF"/>
		<stop  offset="1" style="stop-color:#EDEDED"/>
	</radialGradient>
	<rect x="1948.61" y="400.3" class="st0" width="2500" height="2500"/>
	<g class="st1">
		<path d="M2295.46,2751.19v-53.69h7.1v47.35h26.44v6.34H2295.46z"/>
		<path d="M2334.17,2731.74c0-7.2,2-12.53,6.01-16c3.34-2.88,7.42-4.32,12.23-4.32c5.35,0,9.72,1.75,13.11,5.26
			c3.39,3.5,5.09,8.34,5.09,14.52c0,5.01-0.75,8.94-2.25,11.81c-1.5,2.87-3.69,5.1-6.55,6.68c-2.87,1.59-6,2.38-9.39,2.38
			c-5.44,0-9.85-1.75-13.2-5.24C2335.85,2743.34,2334.17,2738.31,2334.17,2731.74z M2340.95,2731.74c0,4.98,1.09,8.71,3.26,11.19
			c2.17,2.48,4.91,3.72,8.2,3.72c3.27,0,5.99-1.25,8.17-3.74c2.17-2.49,3.26-6.29,3.26-11.39c0-4.81-1.09-8.45-3.28-10.93
			c-2.19-2.48-4.9-3.72-8.15-3.72c-3.3,0-6.03,1.23-8.2,3.7C2342.03,2723.04,2340.95,2726.76,2340.95,2731.74z"/>
		<path d="M2378.26,2751.19v-38.89h5.93v5.9c1.51-2.76,2.91-4.58,4.19-5.46c1.28-0.88,2.69-1.32,4.23-1.32
			c2.22,0,4.48,0.71,6.77,2.12l-2.27,6.12c-1.61-0.95-3.22-1.43-4.83-1.43c-1.44,0-2.73,0.43-3.88,1.3
			c-1.15,0.87-1.97,2.07-2.45,3.61c-0.73,2.34-1.1,4.91-1.1,7.69v20.36H2378.26z"/>
		<path d="M2429.94,2738.66l6.81,0.84c-1.07,3.98-3.06,7.07-5.97,9.27c-2.91,2.2-6.62,3.3-11.13,3.3c-5.69,0-10.2-1.75-13.53-5.26
			c-3.33-3.5-5-8.42-5-14.74c0-6.54,1.68-11.62,5.05-15.23s7.74-5.42,13.11-5.42c5.2,0,9.45,1.77,12.74,5.31s4.94,8.52,4.94,14.94
			c0,0.39-0.01,0.98-0.04,1.76h-29c0.24,4.27,1.45,7.54,3.63,9.81c2.17,2.27,4.88,3.41,8.13,3.41c2.42,0,4.48-0.63,6.19-1.9
			C2427.58,2743.47,2428.93,2741.44,2429.94,2738.66z M2408.29,2728h21.72c-0.29-3.27-1.12-5.72-2.49-7.36
			c-2.1-2.54-4.82-3.81-8.17-3.81c-3.03,0-5.57,1.01-7.64,3.04C2409.65,2721.9,2408.51,2724.61,2408.29,2728z"/>
		<path d="M2445.02,2751.19v-38.89h5.9v5.46c1.22-1.9,2.84-3.44,4.87-4.6c2.03-1.16,4.33-1.74,6.92-1.74c2.88,0,5.24,0.6,7.09,1.79
			s3.14,2.87,3.9,5.02c3.08-4.54,7.08-6.81,12.01-6.81c3.86,0,6.82,1.07,8.9,3.21c2.07,2.14,3.11,5.43,3.11,9.87v26.7h-6.56v-24.5
			c0-2.64-0.21-4.54-0.64-5.7c-0.43-1.16-1.2-2.09-2.33-2.8c-1.12-0.71-2.44-1.06-3.96-1.06c-2.73,0-5,0.91-6.81,2.73
			c-1.81,1.82-2.71,4.73-2.71,8.73v22.6h-6.59v-25.27c0-2.93-0.54-5.13-1.61-6.59c-1.07-1.46-2.83-2.2-5.27-2.2
			c-1.86,0-3.57,0.49-5.15,1.46c-1.57,0.98-2.72,2.4-3.42,4.29c-0.71,1.88-1.06,4.59-1.06,8.13v20.18H2445.02z"/>
		<path d="M2528.37,2705.08v-7.58h6.59v7.58H2528.37z M2528.37,2751.19v-38.89h6.59v38.89H2528.37z"/>
		<path d="M2545,2766.09v-53.8h6.01v5.05c1.42-1.98,3.02-3.46,4.8-4.45c1.78-0.99,3.94-1.48,6.48-1.48c3.32,0,6.25,0.86,8.79,2.56
			c2.54,1.71,4.46,4.12,5.75,7.23c1.29,3.11,1.94,6.52,1.94,10.23c0,3.98-0.71,7.56-2.14,10.75c-1.43,3.19-3.5,5.63-6.23,7.32
			c-2.72,1.7-5.58,2.54-8.59,2.54c-2.2,0-4.17-0.46-5.91-1.39c-1.75-0.93-3.18-2.1-4.3-3.52v18.93H2545z M2550.97,2731.96
			c0,5,1.01,8.7,3.04,11.1c2.03,2.39,4.48,3.59,7.36,3.59c2.93,0,5.44-1.24,7.53-3.72c2.09-2.48,3.13-6.32,3.13-11.52
			c0-4.96-1.02-8.67-3.06-11.13c-2.04-2.47-4.47-3.7-7.31-3.7c-2.81,0-5.29,1.31-7.45,3.94
			C2552.05,2723.14,2550.97,2726.96,2550.97,2731.96z"/>
		<path d="M2584.07,2739.58l6.52-1.03c0.37,2.61,1.39,4.61,3.06,6.01c1.67,1.39,4.01,2.09,7.01,2.09c3.03,0,5.27-0.62,6.74-1.85
			s2.2-2.68,2.2-4.34c0-1.49-0.65-2.66-1.94-3.52c-0.9-0.59-3.15-1.33-6.74-2.23c-4.83-1.22-8.18-2.28-10.05-3.17
			c-1.87-0.89-3.28-2.12-4.25-3.7c-0.96-1.58-1.45-3.31-1.45-5.22c0-1.73,0.4-3.34,1.19-4.82c0.79-1.48,1.87-2.7,3.24-3.68
			c1.03-0.76,2.42-1.4,4.19-1.92c1.77-0.52,3.67-0.79,5.69-0.79c3.05,0,5.73,0.44,8.04,1.32c2.31,0.88,4.01,2.07,5.11,3.57
			c1.1,1.5,1.85,3.51,2.27,6.03l-6.45,0.88c-0.29-2-1.14-3.56-2.54-4.69c-1.4-1.12-3.39-1.69-5.95-1.69c-3.03,0-5.19,0.5-6.48,1.5
			c-1.29,1-1.94,2.17-1.94,3.52c0,0.86,0.27,1.62,0.81,2.31c0.54,0.71,1.38,1.29,2.53,1.76c0.66,0.24,2.6,0.81,5.82,1.69
			c4.66,1.24,7.92,2.26,9.76,3.06c1.84,0.79,3.29,1.95,4.34,3.46c1.05,1.51,1.57,3.39,1.57,5.64c0,2.2-0.64,4.27-1.92,6.21
			c-1.28,1.94-3.13,3.44-5.55,4.5s-5.15,1.59-8.2,1.59c-5.05,0-8.91-1.05-11.55-3.15C2586.5,2746.82,2584.81,2743.7,2584.07,2739.58
			z"/>
		<path d="M2649.7,2751.19v-5.71c-3.03,4.39-7.14,6.59-12.34,6.59c-2.29,0-4.44-0.44-6.43-1.32s-3.47-1.98-4.43-3.31
			c-0.96-1.33-1.64-2.96-2.03-4.89c-0.27-1.29-0.4-3.35-0.4-6.15v-24.1h6.59v21.57c0,3.44,0.13,5.76,0.4,6.96
			c0.42,1.73,1.29,3.1,2.64,4.08c1.34,0.99,3,1.48,4.98,1.48s3.83-0.51,5.57-1.52c1.73-1.01,2.96-2.39,3.68-4.14
			c0.72-1.75,1.08-4.28,1.08-7.6v-20.84h6.59v38.89H2649.7z"/>
		<path d="M2665.92,2751.19v-38.89h5.9v5.46c1.22-1.9,2.84-3.44,4.87-4.6c2.03-1.16,4.33-1.74,6.92-1.74c2.88,0,5.24,0.6,7.09,1.79
			s3.14,2.87,3.9,5.02c3.08-4.54,7.08-6.81,12.01-6.81c3.86,0,6.82,1.07,8.9,3.21c2.07,2.14,3.11,5.43,3.11,9.87v26.7h-6.56v-24.5
			c0-2.64-0.21-4.54-0.64-5.7c-0.43-1.16-1.2-2.09-2.33-2.8c-1.12-0.71-2.44-1.06-3.96-1.06c-2.73,0-5,0.91-6.81,2.73
			c-1.81,1.82-2.71,4.73-2.71,8.73v22.6h-6.59v-25.27c0-2.93-0.54-5.13-1.61-6.59c-1.07-1.46-2.83-2.2-5.27-2.2
			c-1.86,0-3.57,0.49-5.15,1.46c-1.57,0.98-2.72,2.4-3.42,4.29c-0.71,1.88-1.06,4.59-1.06,8.13v20.18H2665.92z"/>
		<path d="M2774.47,2751.19v-4.91c-2.47,3.86-6.09,5.79-10.88,5.79c-3.1,0-5.95-0.86-8.55-2.56c-2.6-1.71-4.61-4.1-6.04-7.16
			c-1.43-3.06-2.14-6.59-2.14-10.57c0-3.88,0.65-7.4,1.94-10.56c1.29-3.16,3.23-5.59,5.82-7.27c2.59-1.69,5.48-2.53,8.68-2.53
			c2.34,0,4.43,0.49,6.26,1.48c1.83,0.99,3.32,2.28,4.47,3.86v-19.26h6.56v53.69H2774.47z M2753.63,2731.78
			c0,4.98,1.05,8.7,3.15,11.17c2.1,2.47,4.58,3.7,7.43,3.7c2.88,0,5.33-1.18,7.34-3.54c2.01-2.36,3.02-5.95,3.02-10.79
			c0-5.32-1.03-9.23-3.08-11.72s-4.58-3.73-7.58-3.73c-2.93,0-5.38,1.2-7.34,3.59C2754.61,2722.85,2753.63,2726.63,2753.63,2731.78z
			"/>
		<path d="M2788.49,2731.74c0-7.2,2-12.53,6.01-16c3.34-2.88,7.42-4.32,12.23-4.32c5.35,0,9.72,1.75,13.11,5.26
			c3.39,3.5,5.09,8.34,5.09,14.52c0,5.01-0.75,8.94-2.25,11.81c-1.5,2.87-3.69,5.1-6.55,6.68c-2.87,1.59-6,2.38-9.39,2.38
			c-5.44,0-9.85-1.75-13.2-5.24C2790.17,2743.34,2788.49,2738.31,2788.49,2731.74z M2795.27,2731.74c0,4.98,1.09,8.71,3.26,11.19
			c2.17,2.48,4.91,3.72,8.2,3.72c3.27,0,5.99-1.25,8.17-3.74c2.17-2.49,3.26-6.29,3.26-11.39c0-4.81-1.09-8.45-3.28-10.93
			c-2.19-2.48-4.9-3.72-8.15-3.72c-3.3,0-6.03,1.23-8.2,3.7C2796.35,2723.04,2795.27,2726.76,2795.27,2731.74z"/>
		<path d="M2832.51,2751.19v-53.69h6.59v53.69H2832.51z"/>
		<path d="M2846.87,2731.74c0-7.2,2-12.53,6.01-16c3.34-2.88,7.42-4.32,12.23-4.32c5.35,0,9.72,1.75,13.11,5.26
			s5.09,8.34,5.09,14.52c0,5.01-0.75,8.94-2.25,11.81c-1.5,2.87-3.69,5.1-6.55,6.68c-2.87,1.59-6,2.38-9.39,2.38
			c-5.44,0-9.85-1.75-13.2-5.24C2848.55,2743.34,2846.87,2738.31,2846.87,2731.74z M2853.64,2731.74c0,4.98,1.09,8.71,3.26,11.19
			c2.17,2.48,4.91,3.72,8.2,3.72c3.27,0,5.99-1.25,8.17-3.74c2.17-2.49,3.26-6.29,3.26-11.39c0-4.81-1.09-8.45-3.28-10.93
			c-2.19-2.48-4.9-3.72-8.15-3.72c-3.3,0-6.03,1.23-8.2,3.7C2854.73,2723.04,2853.64,2726.76,2853.64,2731.74z"/>
		<path d="M2890.96,2751.19v-38.89h5.93v5.9c1.51-2.76,2.91-4.58,4.19-5.46c1.28-0.88,2.69-1.32,4.23-1.32
			c2.22,0,4.48,0.71,6.77,2.12l-2.27,6.12c-1.61-0.95-3.22-1.43-4.83-1.43c-1.44,0-2.73,0.43-3.88,1.3
			c-1.15,0.87-1.97,2.07-2.45,3.61c-0.73,2.34-1.1,4.91-1.1,7.69v20.36H2890.96z"/>
		<path d="M2934.21,2739.58l6.52-1.03c0.37,2.61,1.38,4.61,3.06,6.01c1.67,1.39,4.01,2.09,7.01,2.09c3.03,0,5.27-0.62,6.74-1.85
			s2.2-2.68,2.2-4.34c0-1.49-0.65-2.66-1.94-3.52c-0.9-0.59-3.15-1.33-6.74-2.23c-4.83-1.22-8.18-2.28-10.05-3.17
			c-1.87-0.89-3.28-2.12-4.25-3.7c-0.96-1.58-1.45-3.31-1.45-5.22c0-1.73,0.4-3.34,1.19-4.82s1.87-2.7,3.24-3.68
			c1.03-0.76,2.42-1.4,4.19-1.92c1.77-0.52,3.67-0.79,5.69-0.79c3.05,0,5.73,0.44,8.04,1.32c2.31,0.88,4.01,2.07,5.11,3.57
			c1.1,1.5,1.86,3.51,2.27,6.03l-6.45,0.88c-0.29-2-1.14-3.56-2.55-4.69c-1.4-1.12-3.39-1.69-5.95-1.69c-3.03,0-5.19,0.5-6.48,1.5
			s-1.94,2.17-1.94,3.52c0,0.86,0.27,1.62,0.81,2.31c0.54,0.71,1.38,1.29,2.53,1.76c0.66,0.24,2.6,0.81,5.82,1.69
			c4.66,1.24,7.92,2.26,9.76,3.06c1.84,0.79,3.29,1.95,4.34,3.46s1.58,3.39,1.58,5.64c0,2.2-0.64,4.27-1.92,6.21
			c-1.28,1.94-3.13,3.44-5.55,4.5c-2.42,1.06-5.15,1.59-8.2,1.59c-5.05,0-8.91-1.05-11.55-3.15S2934.94,2743.7,2934.21,2739.58z"/>
		<path d="M2974.38,2705.08v-7.58h6.59v7.58H2974.38z M2974.38,2751.19v-38.89h6.59v38.89H2974.38z"/>
		<path d="M3005.4,2745.29l0.95,5.82c-1.86,0.39-3.52,0.59-4.98,0.59c-2.39,0-4.25-0.38-5.57-1.13s-2.25-1.75-2.78-2.98
			s-0.81-3.83-0.81-7.78v-22.38h-4.83v-5.13h4.83v-9.63l6.55-3.96v13.59h6.63v5.13h-6.63v22.74c0,1.88,0.12,3.09,0.35,3.62
			c0.23,0.54,0.61,0.96,1.13,1.28c0.53,0.32,1.28,0.48,2.25,0.48C3003.24,2745.55,3004.2,2745.46,3005.4,2745.29z"/>
		<path d="M3058.06,2746.39c-2.44,2.08-4.79,3.54-7.05,4.39c-2.26,0.86-4.68,1.28-7.27,1.28c-4.27,0-7.56-1.04-9.85-3.13
			c-2.29-2.09-3.44-4.76-3.44-8c0-1.9,0.43-3.64,1.3-5.22s2-2.84,3.41-3.79c1.4-0.95,2.98-1.67,4.74-2.16
			c1.29-0.34,3.25-0.67,5.86-0.99c5.32-0.63,9.24-1.39,11.76-2.27c0.02-0.9,0.04-1.48,0.04-1.72c0-2.69-0.62-4.58-1.87-5.68
			c-1.68-1.49-4.19-2.23-7.51-2.23c-3.1,0-5.39,0.54-6.87,1.63c-1.48,1.09-2.57,3.01-3.28,5.77l-6.45-0.88
			c0.59-2.76,1.55-4.99,2.89-6.68c1.34-1.7,3.28-3,5.82-3.92c2.54-0.91,5.48-1.37,8.83-1.37c3.32,0,6.02,0.39,8.09,1.17
			c2.07,0.78,3.6,1.76,4.58,2.95c0.98,1.18,1.66,2.68,2.05,4.48c0.22,1.12,0.33,3.15,0.33,6.08v8.79c0,6.13,0.14,10,0.42,11.63
			c0.28,1.62,0.84,3.18,1.67,4.67h-6.88C3058.7,2749.82,3058.26,2748.22,3058.06,2746.39z M3057.51,2731.67
			c-2.39,0.98-5.98,1.81-10.77,2.49c-2.71,0.39-4.63,0.83-5.75,1.32s-1.99,1.2-2.6,2.14s-0.92,1.98-0.92,3.13
			c0,1.76,0.67,3.22,2,4.39c1.33,1.17,3.28,1.76,5.84,1.76c2.54,0,4.8-0.55,6.78-1.67c1.98-1.11,3.43-2.63,4.36-4.56
			c0.71-1.49,1.06-3.69,1.06-6.59V2731.67z"/>
		<path d="M3074.39,2751.19v-38.89h5.9v5.46c1.22-1.9,2.84-3.44,4.87-4.6c2.03-1.16,4.33-1.74,6.92-1.74c2.88,0,5.24,0.6,7.09,1.79
			s3.14,2.87,3.9,5.02c3.08-4.54,7.08-6.81,12.01-6.81c3.86,0,6.82,1.07,8.9,3.21c2.07,2.14,3.11,5.43,3.11,9.87v26.7h-6.56v-24.5
			c0-2.64-0.21-4.54-0.64-5.7c-0.43-1.16-1.2-2.09-2.33-2.8s-2.44-1.06-3.96-1.06c-2.73,0-5,0.91-6.81,2.73s-2.71,4.73-2.71,8.73
			v22.6h-6.59v-25.27c0-2.93-0.54-5.13-1.61-6.59s-2.83-2.2-5.27-2.2c-1.86,0-3.57,0.49-5.15,1.46c-1.57,0.98-2.72,2.4-3.42,4.29
			s-1.06,4.59-1.06,8.13v20.18H3074.39z"/>
		<path d="M3163.49,2738.66l6.81,0.84c-1.07,3.98-3.06,7.07-5.97,9.27c-2.91,2.2-6.62,3.3-11.13,3.3c-5.69,0-10.2-1.75-13.53-5.26
			c-3.33-3.5-5-8.42-5-14.74c0-6.54,1.68-11.62,5.05-15.23s7.74-5.42,13.11-5.42c5.2,0,9.45,1.77,12.74,5.31
			c3.29,3.54,4.94,8.52,4.94,14.94c0,0.39-0.01,0.98-0.04,1.76h-29c0.24,4.27,1.45,7.54,3.63,9.81c2.17,2.27,4.88,3.41,8.13,3.41
			c2.42,0,4.48-0.63,6.19-1.9C3161.14,2743.47,3162.49,2741.44,3163.49,2738.66z M3141.85,2728h21.72
			c-0.29-3.27-1.12-5.72-2.49-7.36c-2.1-2.54-4.82-3.81-8.17-3.81c-3.03,0-5.57,1.01-7.63,3.04
			C3143.21,2721.9,3142.07,2724.61,3141.85,2728z"/>
		<path d="M3192.97,2745.29l0.95,5.82c-1.86,0.39-3.52,0.59-4.98,0.59c-2.39,0-4.25-0.38-5.57-1.13s-2.25-1.75-2.78-2.98
			s-0.81-3.83-0.81-7.78v-22.38h-4.83v-5.13h4.83v-9.63l6.55-3.96v13.59h6.63v5.13h-6.63v22.74c0,1.88,0.12,3.09,0.35,3.62
			c0.23,0.54,0.61,0.96,1.13,1.28c0.53,0.32,1.28,0.48,2.25,0.48C3190.81,2745.55,3191.78,2745.46,3192.97,2745.29z"/>
		<path d="M3201.14,2751.19v-7.51h7.51v7.51c0,2.76-0.49,4.99-1.46,6.68c-0.98,1.7-2.53,3.01-4.65,3.94l-1.83-2.82
			c1.39-0.61,2.42-1.51,3.08-2.69c0.66-1.18,1.03-2.89,1.1-5.11H3201.14z"/>
		<path d="M3245.63,2736.94l6.48,0.84c-0.71,4.47-2.52,7.96-5.44,10.49c-2.92,2.53-6.5,3.79-10.75,3.79c-5.32,0-9.6-1.74-12.84-5.22
			s-4.85-8.46-4.85-14.96c0-4.2,0.7-7.87,2.09-11.02c1.39-3.15,3.51-5.51,6.35-7.09c2.84-1.58,5.94-2.36,9.28-2.36
			c4.22,0,7.68,1.07,10.36,3.21s4.41,5.17,5.16,9.1l-6.41,0.99c-0.61-2.61-1.69-4.58-3.24-5.89s-3.42-1.98-5.62-1.98
			c-3.32,0-6.02,1.19-8.09,3.57c-2.07,2.38-3.11,6.15-3.11,11.3c0,5.22,1,9.02,3,11.39s4.62,3.55,7.84,3.55
			c2.59,0,4.75-0.79,6.48-2.38C3244.07,2742.68,3245.17,2740.24,3245.63,2736.94z"/>
		<path d="M3255.3,2731.74c0-7.2,2-12.53,6.01-16c3.34-2.88,7.42-4.32,12.23-4.32c5.35,0,9.72,1.75,13.11,5.26
			c3.39,3.5,5.09,8.34,5.09,14.52c0,5.01-0.75,8.94-2.25,11.81s-3.69,5.1-6.55,6.68c-2.87,1.59-6,2.38-9.39,2.38
			c-5.44,0-9.85-1.75-13.2-5.24C3256.98,2743.34,3255.3,2738.31,3255.3,2731.74z M3262.08,2731.74c0,4.98,1.09,8.71,3.26,11.19
			c2.17,2.48,4.91,3.72,8.2,3.72c3.27,0,5.99-1.25,8.17-3.74c2.17-2.49,3.26-6.29,3.26-11.39c0-4.81-1.09-8.45-3.28-10.93
			s-4.9-3.72-8.15-3.72c-3.29,0-6.03,1.23-8.2,3.7C3263.16,2723.04,3262.08,2726.76,3262.08,2731.74z"/>
		<path d="M3299.47,2751.19v-38.89h5.93v5.53c2.86-4.27,6.98-6.41,12.38-6.41c2.34,0,4.5,0.42,6.46,1.26s3.44,1.95,4.41,3.31
			s1.66,2.99,2.05,4.87c0.24,1.22,0.37,3.36,0.37,6.41v23.91h-6.59v-23.66c0-2.69-0.26-4.69-0.77-6.02
			c-0.51-1.33-1.42-2.39-2.73-3.19c-1.31-0.79-2.84-1.19-4.6-1.19c-2.81,0-5.23,0.89-7.27,2.67c-2.04,1.78-3.06,5.16-3.06,10.14
			v21.24H3299.47z"/>
		<path d="M3338.54,2739.58l6.52-1.03c0.37,2.61,1.38,4.61,3.06,6.01c1.67,1.39,4.01,2.09,7.01,2.09c3.03,0,5.27-0.62,6.74-1.85
			s2.2-2.68,2.2-4.34c0-1.49-0.65-2.66-1.94-3.52c-0.9-0.59-3.15-1.33-6.74-2.23c-4.83-1.22-8.19-2.28-10.05-3.17
			c-1.87-0.89-3.28-2.12-4.25-3.7c-0.96-1.58-1.45-3.31-1.45-5.22c0-1.73,0.4-3.34,1.19-4.82s1.87-2.7,3.24-3.68
			c1.03-0.76,2.42-1.4,4.19-1.92c1.77-0.52,3.67-0.79,5.7-0.79c3.05,0,5.73,0.44,8.04,1.32c2.31,0.88,4.01,2.07,5.11,3.57
			c1.1,1.5,1.86,3.51,2.27,6.03l-6.45,0.88c-0.29-2-1.14-3.56-2.55-4.69c-1.4-1.12-3.39-1.69-5.95-1.69c-3.03,0-5.19,0.5-6.48,1.5
			c-1.29,1-1.94,2.17-1.94,3.52c0,0.86,0.27,1.62,0.81,2.31c0.54,0.71,1.38,1.29,2.53,1.76c0.66,0.24,2.6,0.81,5.82,1.69
			c4.66,1.24,7.91,2.26,9.76,3.06c1.84,0.79,3.29,1.95,4.34,3.46c1.05,1.51,1.58,3.39,1.58,5.64c0,2.2-0.64,4.27-1.92,6.21
			s-3.13,3.44-5.55,4.5c-2.42,1.06-5.15,1.59-8.2,1.59c-5.05,0-8.91-1.05-11.55-3.15
			C3340.96,2746.82,3339.27,2743.7,3338.54,2739.58z"/>
		<path d="M3405.3,2738.66l6.81,0.84c-1.07,3.98-3.06,7.07-5.97,9.27c-2.91,2.2-6.62,3.3-11.13,3.3c-5.69,0-10.2-1.75-13.53-5.26
			c-3.33-3.5-5-8.42-5-14.74c0-6.54,1.69-11.62,5.05-15.23s7.74-5.42,13.11-5.42c5.2,0,9.45,1.77,12.74,5.31
			c3.3,3.54,4.94,8.52,4.94,14.94c0,0.39-0.01,0.98-0.04,1.76h-29c0.24,4.27,1.45,7.54,3.62,9.81c2.17,2.27,4.88,3.41,8.13,3.41
			c2.42,0,4.48-0.63,6.19-1.9S3404.3,2741.44,3405.3,2738.66z M3383.66,2728h21.72c-0.29-3.27-1.12-5.72-2.49-7.36
			c-2.1-2.54-4.82-3.81-8.17-3.81c-3.03,0-5.57,1.01-7.64,3.04C3385.02,2721.9,3383.88,2724.61,3383.66,2728z"/>
		<path d="M3445.77,2736.94l6.48,0.84c-0.71,4.47-2.52,7.96-5.44,10.49c-2.92,2.53-6.5,3.79-10.75,3.79c-5.32,0-9.6-1.74-12.84-5.22
			s-4.85-8.46-4.85-14.96c0-4.2,0.7-7.87,2.09-11.02c1.39-3.15,3.51-5.51,6.35-7.09c2.84-1.58,5.94-2.36,9.28-2.36
			c4.22,0,7.68,1.07,10.36,3.21s4.41,5.17,5.16,9.1l-6.41,0.99c-0.61-2.61-1.69-4.58-3.24-5.89s-3.42-1.98-5.62-1.98
			c-3.32,0-6.02,1.19-8.09,3.57c-2.07,2.38-3.11,6.15-3.11,11.3c0,5.22,1,9.02,3,11.39s4.62,3.55,7.84,3.55
			c2.59,0,4.75-0.79,6.48-2.38C3444.21,2742.68,3445.3,2740.24,3445.77,2736.94z"/>
		<path d="M3472.28,2745.29l0.95,5.82c-1.86,0.39-3.52,0.59-4.98,0.59c-2.39,0-4.25-0.38-5.57-1.13s-2.25-1.75-2.78-2.98
			s-0.8-3.83-0.8-7.78v-22.38h-4.83v-5.13h4.83v-9.63l6.55-3.96v13.59h6.63v5.13h-6.63v22.74c0,1.88,0.12,3.09,0.35,3.62
			s0.61,0.96,1.13,1.28c0.53,0.32,1.28,0.48,2.25,0.48C3470.12,2745.55,3471.09,2745.46,3472.28,2745.29z"/>
		<path d="M3505.35,2738.66l6.81,0.84c-1.07,3.98-3.06,7.07-5.97,9.27c-2.91,2.2-6.62,3.3-11.13,3.3c-5.69,0-10.2-1.75-13.53-5.26
			s-5-8.42-5-14.74c0-6.54,1.69-11.62,5.05-15.23s7.74-5.42,13.11-5.42c5.2,0,9.45,1.77,12.74,5.31c3.3,3.54,4.95,8.52,4.95,14.94
			c0,0.39-0.01,0.98-0.04,1.76h-29c0.24,4.27,1.45,7.54,3.62,9.81c2.17,2.27,4.88,3.41,8.13,3.41c2.42,0,4.48-0.63,6.19-1.9
			S3504.35,2741.44,3505.35,2738.66z M3483.71,2728h21.72c-0.29-3.27-1.12-5.72-2.49-7.36c-2.1-2.54-4.82-3.81-8.17-3.81
			c-3.03,0-5.57,1.01-7.63,3.04C3485.07,2721.9,3483.93,2724.61,3483.71,2728z"/>
		<path d="M3534.83,2745.29l0.95,5.82c-1.86,0.39-3.52,0.59-4.98,0.59c-2.39,0-4.25-0.38-5.57-1.13s-2.25-1.75-2.78-2.98
			s-0.81-3.83-0.81-7.78v-22.38h-4.83v-5.13h4.83v-9.63l6.55-3.96v13.59h6.63v5.13h-6.63v22.74c0,1.88,0.12,3.09,0.35,3.62
			c0.23,0.54,0.61,0.96,1.13,1.28c0.53,0.32,1.28,0.48,2.25,0.48C3532.67,2745.55,3533.64,2745.46,3534.83,2745.29z"/>
		<path d="M3566.77,2751.19v-5.71c-3.03,4.39-7.14,6.59-12.34,6.59c-2.29,0-4.44-0.44-6.43-1.32s-3.47-1.98-4.43-3.31
			s-1.64-2.96-2.03-4.89c-0.27-1.29-0.4-3.35-0.4-6.15v-24.1h6.59v21.57c0,3.44,0.13,5.76,0.4,6.96c0.41,1.73,1.29,3.1,2.64,4.08
			c1.34,0.99,3,1.48,4.98,1.48c1.98,0,3.83-0.51,5.57-1.52c1.73-1.01,2.96-2.39,3.68-4.14c0.72-1.75,1.08-4.28,1.08-7.6v-20.84h6.59
			v38.89H3566.77z"/>
		<path d="M3582.92,2751.19v-38.89h5.93v5.9c1.51-2.76,2.91-4.58,4.19-5.46c1.28-0.88,2.69-1.32,4.23-1.32
			c2.22,0,4.48,0.71,6.78,2.12l-2.27,6.12c-1.61-0.95-3.22-1.43-4.83-1.43c-1.44,0-2.73,0.43-3.88,1.3
			c-1.15,0.87-1.97,2.07-2.46,3.61c-0.73,2.34-1.1,4.91-1.1,7.69v20.36H3582.92z"/>
		<path d="M3654.18,2746.39c-2.44,2.08-4.79,3.54-7.05,4.39c-2.26,0.86-4.68,1.28-7.27,1.28c-4.27,0-7.56-1.04-9.85-3.13
			c-2.29-2.09-3.44-4.76-3.44-8c0-1.9,0.43-3.64,1.3-5.22c0.87-1.57,2-2.84,3.41-3.79c1.4-0.95,2.98-1.67,4.74-2.16
			c1.29-0.34,3.25-0.67,5.86-0.99c5.32-0.63,9.24-1.39,11.76-2.27c0.02-0.9,0.04-1.48,0.04-1.72c0-2.69-0.62-4.58-1.87-5.68
			c-1.68-1.49-4.19-2.23-7.51-2.23c-3.1,0-5.39,0.54-6.87,1.63c-1.48,1.09-2.57,3.01-3.28,5.77l-6.45-0.88
			c0.59-2.76,1.55-4.99,2.89-6.68c1.34-1.7,3.28-3,5.82-3.92c2.54-0.91,5.48-1.37,8.83-1.37c3.32,0,6.02,0.39,8.09,1.17
			c2.07,0.78,3.6,1.76,4.58,2.95c0.98,1.18,1.66,2.68,2.05,4.48c0.22,1.12,0.33,3.15,0.33,6.08v8.79c0,6.13,0.14,10,0.42,11.63
			c0.28,1.62,0.84,3.18,1.67,4.67h-6.88C3654.81,2749.82,3654.37,2748.22,3654.18,2746.39z M3653.63,2731.67
			c-2.39,0.98-5.98,1.81-10.77,2.49c-2.71,0.39-4.62,0.83-5.75,1.32s-1.99,1.2-2.6,2.14c-0.61,0.94-0.91,1.98-0.91,3.13
			c0,1.76,0.66,3.22,2,4.39c1.33,1.17,3.28,1.76,5.84,1.76c2.54,0,4.8-0.55,6.78-1.67c1.98-1.11,3.43-2.63,4.36-4.56
			c0.71-1.49,1.06-3.69,1.06-6.59V2731.67z"/>
		<path d="M3695.75,2751.19v-4.91c-2.47,3.86-6.09,5.79-10.88,5.79c-3.1,0-5.95-0.86-8.55-2.56s-4.62-4.1-6.04-7.16
			c-1.43-3.06-2.14-6.59-2.14-10.57c0-3.88,0.65-7.4,1.94-10.56c1.29-3.16,3.23-5.59,5.82-7.27c2.59-1.69,5.48-2.53,8.68-2.53
			c2.34,0,4.43,0.49,6.26,1.48c1.83,0.99,3.32,2.28,4.47,3.86v-19.26h6.55v53.69H3695.75z M3674.91,2731.78
			c0,4.98,1.05,8.7,3.15,11.17s4.58,3.7,7.44,3.7c2.88,0,5.33-1.18,7.34-3.54c2.01-2.36,3.02-5.95,3.02-10.79
			c0-5.32-1.03-9.23-3.08-11.72s-4.58-3.73-7.58-3.73c-2.93,0-5.38,1.2-7.34,3.59C3675.89,2722.85,3674.91,2726.63,3674.91,2731.78z
			"/>
		<path d="M3712.26,2705.08v-7.58h6.59v7.58H3712.26z M3712.26,2751.19v-38.89h6.59v38.89H3712.26z"/>
		<path d="M3728.89,2766.09v-53.8h6.01v5.05c1.42-1.98,3.02-3.46,4.8-4.45c1.78-0.99,3.94-1.48,6.48-1.48
			c3.32,0,6.25,0.86,8.79,2.56s4.46,4.12,5.75,7.23c1.29,3.11,1.94,6.52,1.94,10.23c0,3.98-0.71,7.56-2.14,10.75
			c-1.43,3.19-3.5,5.63-6.22,7.32c-2.72,1.7-5.59,2.54-8.59,2.54c-2.2,0-4.17-0.46-5.91-1.39c-1.75-0.93-3.18-2.1-4.3-3.52v18.93
			H3728.89z M3734.86,2731.96c0,5,1.01,8.7,3.04,11.1c2.03,2.39,4.48,3.59,7.36,3.59c2.93,0,5.44-1.24,7.53-3.72
			c2.09-2.48,3.13-6.32,3.13-11.52c0-4.96-1.02-8.67-3.06-11.13c-2.04-2.47-4.47-3.7-7.3-3.7c-2.81,0-5.29,1.31-7.45,3.94
			C3735.94,2723.14,3734.86,2726.96,3734.86,2731.96z"/>
		<path d="M3770.63,2705.08v-7.58h6.59v7.58H3770.63z M3770.63,2751.19v-38.89h6.59v38.89H3770.63z"/>
		<path d="M3784.62,2739.58l6.52-1.03c0.37,2.61,1.39,4.61,3.06,6.01c1.67,1.39,4.01,2.09,7.01,2.09c3.03,0,5.27-0.62,6.74-1.85
			s2.2-2.68,2.2-4.34c0-1.49-0.65-2.66-1.94-3.52c-0.9-0.59-3.15-1.33-6.74-2.23c-4.83-1.22-8.19-2.28-10.05-3.17
			c-1.87-0.89-3.28-2.12-4.25-3.7c-0.96-1.58-1.45-3.31-1.45-5.22c0-1.73,0.4-3.34,1.19-4.82s1.87-2.7,3.24-3.68
			c1.03-0.76,2.42-1.4,4.19-1.92c1.77-0.52,3.67-0.79,5.7-0.79c3.05,0,5.73,0.44,8.04,1.32c2.31,0.88,4.01,2.07,5.11,3.57
			c1.1,1.5,1.86,3.51,2.27,6.03l-6.45,0.88c-0.29-2-1.14-3.56-2.54-4.69c-1.4-1.12-3.39-1.69-5.95-1.69c-3.03,0-5.19,0.5-6.48,1.5
			c-1.29,1-1.94,2.17-1.94,3.52c0,0.86,0.27,1.62,0.8,2.31c0.54,0.71,1.38,1.29,2.53,1.76c0.66,0.24,2.6,0.81,5.82,1.69
			c4.66,1.24,7.92,2.26,9.76,3.06c1.84,0.79,3.29,1.95,4.34,3.46c1.05,1.51,1.57,3.39,1.57,5.64c0,2.2-0.64,4.27-1.92,6.21
			s-3.13,3.44-5.55,4.5c-2.42,1.06-5.15,1.59-8.2,1.59c-5.05,0-8.9-1.05-11.55-3.15C3787.05,2746.82,3785.36,2743.7,3784.62,2739.58
			z"/>
		<path d="M3824.8,2705.08v-7.58h6.59v7.58H3824.8z M3824.8,2751.19v-38.89h6.59v38.89H3824.8z"/>
		<path d="M3866.8,2736.94l6.48,0.84c-0.71,4.47-2.52,7.96-5.44,10.49c-2.92,2.53-6.5,3.79-10.75,3.79c-5.32,0-9.6-1.74-12.83-5.22
			c-3.24-3.48-4.85-8.46-4.85-14.96c0-4.2,0.7-7.87,2.09-11.02c1.39-3.15,3.51-5.51,6.35-7.09c2.84-1.58,5.94-2.36,9.28-2.36
			c4.22,0,7.68,1.07,10.36,3.21s4.41,5.17,5.16,9.1l-6.41,0.99c-0.61-2.61-1.69-4.58-3.24-5.89c-1.55-1.32-3.43-1.98-5.62-1.98
			c-3.32,0-6.02,1.19-8.09,3.57c-2.08,2.38-3.11,6.15-3.11,11.3c0,5.22,1,9.02,3,11.39s4.62,3.55,7.84,3.55
			c2.59,0,4.75-0.79,6.48-2.38C3865.24,2742.68,3866.34,2740.24,3866.8,2736.94z"/>
		<path d="M3878.96,2705.08v-7.58h6.59v7.58H3878.96z M3878.96,2751.19v-38.89h6.59v38.89H3878.96z"/>
		<path d="M3895.59,2751.19v-38.89h5.93v5.53c2.86-4.27,6.98-6.41,12.38-6.41c2.34,0,4.5,0.42,6.46,1.26s3.44,1.95,4.41,3.31
			s1.66,2.99,2.05,4.87c0.24,1.22,0.37,3.36,0.37,6.41v23.91h-6.59v-23.66c0-2.69-0.26-4.69-0.77-6.02
			c-0.51-1.33-1.42-2.39-2.73-3.19c-1.31-0.79-2.84-1.19-4.6-1.19c-2.81,0-5.23,0.89-7.27,2.67c-2.04,1.78-3.06,5.16-3.06,10.14
			v21.24H3895.59z"/>
		<path d="M3936.09,2754.41l6.41,0.95c0.27,1.98,1.01,3.42,2.23,4.32c1.63,1.22,3.87,1.83,6.7,1.83c3.05,0,5.41-0.61,7.07-1.83
			c1.66-1.22,2.78-2.93,3.37-5.13c0.34-1.34,0.5-4.16,0.47-8.46c-2.88,3.39-6.47,5.09-10.77,5.09c-5.35,0-9.48-1.93-12.41-5.79
			s-4.39-8.48-4.39-13.88c0-3.71,0.67-7.13,2.01-10.27c1.34-3.14,3.29-5.56,5.84-7.27c2.55-1.71,5.55-2.56,8.99-2.56
			c4.59,0,8.37,1.86,11.35,5.57v-4.69h6.08v33.62c0,6.05-0.62,10.35-1.85,12.87c-1.23,2.53-3.19,4.52-5.86,5.99s-5.96,2.2-9.87,2.2
			c-4.64,0-8.39-1.04-11.24-3.13C3937.37,2761.75,3935.99,2758.61,3936.09,2754.41z M3941.54,2731.04c0,5.1,1.01,8.83,3.04,11.17
			c2.03,2.34,4.56,3.52,7.62,3.52c3.03,0,5.57-1.17,7.62-3.5c2.05-2.33,3.08-5.99,3.08-10.97c0-4.76-1.06-8.35-3.17-10.77
			c-2.11-2.42-4.66-3.62-7.64-3.62c-2.93,0-5.42,1.19-7.47,3.57S3941.54,2726.36,3941.54,2731.04z"/>
		<path d="M4026.47,2738.66l6.81,0.84c-1.07,3.98-3.06,7.07-5.97,9.27c-2.91,2.2-6.62,3.3-11.13,3.3c-5.69,0-10.2-1.75-13.53-5.26
			s-5-8.42-5-14.74c0-6.54,1.69-11.62,5.05-15.23s7.74-5.42,13.11-5.42c5.2,0,9.45,1.77,12.74,5.31c3.3,3.54,4.95,8.52,4.95,14.94
			c0,0.39-0.01,0.98-0.04,1.76h-29c0.24,4.27,1.45,7.54,3.62,9.81c2.17,2.27,4.88,3.41,8.13,3.41c2.42,0,4.48-0.63,6.19-1.9
			S4025.47,2741.44,4026.47,2738.66z M4004.83,2728h21.72c-0.29-3.27-1.12-5.72-2.49-7.36c-2.1-2.54-4.82-3.81-8.17-3.81
			c-3.03,0-5.57,1.01-7.63,3.04C4006.19,2721.9,4005.05,2724.61,4004.83,2728z"/>
		<path d="M4041.41,2751.19v-53.69h6.59v53.69H4041.41z"/>
		<path d="M4058.26,2705.08v-7.58h6.59v7.58H4058.26z M4058.26,2751.19v-38.89h6.59v38.89H4058.26z"/>
		<path d="M4089.27,2745.29l0.95,5.82c-1.86,0.39-3.52,0.59-4.98,0.59c-2.39,0-4.25-0.38-5.57-1.13s-2.25-1.75-2.78-2.98
			s-0.81-3.83-0.81-7.78v-22.38h-4.83v-5.13h4.83v-9.63l6.55-3.96v13.59h6.63v5.13h-6.63v22.74c0,1.88,0.12,3.09,0.35,3.62
			c0.23,0.54,0.61,0.96,1.13,1.28c0.53,0.32,1.28,0.48,2.25,0.48C4087.11,2745.55,4088.08,2745.46,4089.27,2745.29z"/>
		<path d="M4097.44,2751.19v-7.51h7.51v7.51c0,2.76-0.49,4.99-1.46,6.68c-0.98,1.7-2.53,3.01-4.65,3.94l-1.83-2.82
			c1.39-0.61,2.42-1.51,3.08-2.69c0.66-1.18,1.03-2.89,1.1-5.11H4097.44z"/>
		<path d="M2292.28,2829.58l6.52-1.03c0.37,2.61,1.39,4.62,3.06,6.01c1.67,1.39,4.01,2.09,7.01,2.09c3.03,0,5.27-0.62,6.74-1.85
			s2.2-2.68,2.2-4.34c0-1.49-0.65-2.66-1.94-3.52c-0.9-0.59-3.15-1.33-6.74-2.23c-4.83-1.22-8.18-2.28-10.05-3.17
			c-1.87-0.89-3.28-2.12-4.25-3.7c-0.96-1.58-1.45-3.31-1.45-5.22c0-1.73,0.4-3.34,1.19-4.82c0.79-1.48,1.87-2.7,3.24-3.68
			c1.03-0.76,2.42-1.4,4.19-1.92c1.77-0.52,3.67-0.79,5.69-0.79c3.05,0,5.73,0.44,8.04,1.32c2.31,0.88,4.01,2.07,5.11,3.57
			c1.1,1.5,1.85,3.51,2.27,6.03l-6.45,0.88c-0.29-2-1.14-3.56-2.54-4.69c-1.4-1.12-3.39-1.69-5.95-1.69c-3.03,0-5.19,0.5-6.48,1.5
			c-1.29,1-1.94,2.17-1.94,3.52c0,0.86,0.27,1.62,0.81,2.31c0.54,0.71,1.38,1.29,2.53,1.76c0.66,0.24,2.6,0.81,5.82,1.69
			c4.66,1.24,7.92,2.26,9.76,3.06c1.84,0.79,3.29,1.95,4.34,3.46c1.05,1.52,1.57,3.39,1.57,5.64c0,2.2-0.64,4.27-1.92,6.21
			c-1.28,1.94-3.13,3.44-5.55,4.5s-5.15,1.59-8.2,1.59c-5.05,0-8.91-1.05-11.55-3.15C2294.7,2836.81,2293.01,2833.7,2292.28,2829.58
			z"/>
		<path d="M2359.04,2828.66l6.81,0.84c-1.07,3.98-3.06,7.07-5.97,9.26c-2.91,2.2-6.62,3.3-11.13,3.3c-5.69,0-10.2-1.75-13.53-5.26
			c-3.33-3.5-5-8.42-5-14.74c0-6.54,1.68-11.62,5.05-15.23c3.37-3.61,7.74-5.42,13.11-5.42c5.2,0,9.45,1.77,12.74,5.31
			c3.3,3.54,4.94,8.52,4.94,14.94c0,0.39-0.01,0.98-0.04,1.76h-29c0.24,4.27,1.45,7.54,3.63,9.81c2.17,2.27,4.88,3.41,8.13,3.41
			c2.42,0,4.48-0.63,6.19-1.9C2356.68,2833.47,2358.04,2831.44,2359.04,2828.66z M2337.39,2818h21.72
			c-0.29-3.27-1.12-5.72-2.49-7.36c-2.1-2.54-4.82-3.81-8.17-3.81c-3.03,0-5.57,1.01-7.64,3.04
			C2338.76,2811.9,2337.61,2814.61,2337.39,2818z"/>
		<path d="M2399.36,2841.19v-4.91c-2.47,3.86-6.09,5.79-10.88,5.79c-3.1,0-5.95-0.86-8.55-2.56c-2.6-1.71-4.61-4.09-6.04-7.16
			c-1.43-3.06-2.14-6.59-2.14-10.57c0-3.88,0.65-7.4,1.94-10.56c1.29-3.16,3.23-5.58,5.82-7.27c2.59-1.68,5.48-2.53,8.68-2.53
			c2.34,0,4.43,0.49,6.26,1.48c1.83,0.99,3.32,2.28,4.47,3.86v-19.26h6.56v53.69H2399.36z M2378.52,2821.78
			c0,4.98,1.05,8.71,3.15,11.17c2.1,2.47,4.58,3.7,7.43,3.7c2.88,0,5.33-1.18,7.34-3.54c2.01-2.36,3.02-5.95,3.02-10.78
			c0-5.32-1.03-9.23-3.08-11.72c-2.05-2.49-4.58-3.74-7.58-3.74c-2.93,0-5.38,1.2-7.34,3.59
			C2379.5,2812.85,2378.52,2816.62,2378.52,2821.78z"/>
		<path d="M2461.91,2841.19v-4.91c-2.47,3.86-6.09,5.79-10.88,5.79c-3.1,0-5.95-0.86-8.55-2.56c-2.6-1.71-4.61-4.09-6.04-7.16
			c-1.43-3.06-2.14-6.59-2.14-10.57c0-3.88,0.65-7.4,1.94-10.56c1.29-3.16,3.23-5.58,5.82-7.27c2.59-1.68,5.48-2.53,8.68-2.53
			c2.34,0,4.43,0.49,6.26,1.48c1.83,0.99,3.32,2.28,4.47,3.86v-19.26h6.56v53.69H2461.91z M2441.07,2821.78
			c0,4.98,1.05,8.71,3.15,11.17c2.1,2.47,4.58,3.7,7.43,3.7c2.88,0,5.33-1.18,7.34-3.54c2.01-2.36,3.02-5.95,3.02-10.78
			c0-5.32-1.03-9.23-3.08-11.72c-2.05-2.49-4.58-3.74-7.58-3.74c-2.93,0-5.38,1.2-7.34,3.59
			C2442.05,2812.85,2441.07,2816.62,2441.07,2821.78z"/>
		<path d="M2475.93,2821.74c0-7.2,2-12.54,6.01-16c3.34-2.88,7.42-4.32,12.23-4.32c5.35,0,9.72,1.75,13.11,5.26
			c3.39,3.5,5.09,8.34,5.09,14.52c0,5.01-0.75,8.94-2.25,11.81c-1.5,2.87-3.69,5.1-6.56,6.68c-2.87,1.59-6,2.38-9.39,2.38
			c-5.44,0-9.85-1.75-13.2-5.24C2477.61,2833.34,2475.93,2828.31,2475.93,2821.74z M2482.71,2821.74c0,4.98,1.09,8.71,3.26,11.19
			c2.17,2.48,4.91,3.72,8.2,3.72c3.27,0,5.99-1.25,8.17-3.74c2.17-2.49,3.26-6.29,3.26-11.39c0-4.81-1.09-8.45-3.28-10.93
			c-2.19-2.48-4.9-3.72-8.15-3.72c-3.3,0-6.03,1.23-8.2,3.7C2483.79,2813.04,2482.71,2816.76,2482.71,2821.74z"/>
		<path d="M2567.56,2828.66l6.81,0.84c-1.07,3.98-3.06,7.07-5.97,9.26c-2.91,2.2-6.62,3.3-11.13,3.3c-5.69,0-10.2-1.75-13.53-5.26
			c-3.33-3.5-5-8.42-5-14.74c0-6.54,1.68-11.62,5.05-15.23c3.37-3.61,7.74-5.42,13.11-5.42c5.2,0,9.45,1.77,12.74,5.31
			c3.3,3.54,4.94,8.52,4.94,14.94c0,0.39-0.01,0.98-0.04,1.76h-29c0.24,4.27,1.45,7.54,3.63,9.81c2.17,2.27,4.88,3.41,8.13,3.41
			c2.42,0,4.48-0.63,6.19-1.9C2565.2,2833.47,2566.56,2831.44,2567.56,2828.66z M2545.92,2818h21.72c-0.29-3.27-1.12-5.72-2.49-7.36
			c-2.1-2.54-4.82-3.81-8.17-3.81c-3.03,0-5.57,1.01-7.64,3.04C2547.28,2811.9,2546.13,2814.61,2545.92,2818z"/>
		<path d="M2582.68,2795.08v-7.58h6.59v7.58H2582.68z M2582.68,2841.19v-38.89h6.59v38.89H2582.68z"/>
		<path d="M2624.8,2841.19v-5.71c-3.03,4.39-7.14,6.59-12.34,6.59c-2.29,0-4.44-0.44-6.43-1.32s-3.47-1.98-4.43-3.31
			c-0.96-1.33-1.64-2.96-2.03-4.89c-0.27-1.29-0.4-3.35-0.4-6.15v-24.1h6.59v21.57c0,3.44,0.13,5.76,0.4,6.96
			c0.42,1.73,1.29,3.09,2.64,4.08c1.34,0.99,3,1.48,4.98,1.48s3.83-0.51,5.57-1.52c1.73-1.01,2.96-2.39,3.68-4.14
			s1.08-4.28,1.08-7.6v-20.84h6.59v38.89H2624.8z"/>
		<path d="M2638.38,2829.58l6.52-1.03c0.37,2.61,1.39,4.62,3.06,6.01c1.67,1.39,4.01,2.09,7.01,2.09c3.03,0,5.27-0.62,6.74-1.85
			s2.2-2.68,2.2-4.34c0-1.49-0.65-2.66-1.94-3.52c-0.9-0.59-3.15-1.33-6.74-2.23c-4.83-1.22-8.19-2.28-10.05-3.17
			c-1.87-0.89-3.28-2.12-4.25-3.7c-0.96-1.58-1.45-3.31-1.45-5.22c0-1.73,0.4-3.34,1.19-4.82c0.79-1.48,1.87-2.7,3.24-3.68
			c1.03-0.76,2.42-1.4,4.19-1.92c1.77-0.52,3.67-0.79,5.69-0.79c3.05,0,5.73,0.44,8.04,1.32c2.31,0.88,4.01,2.07,5.11,3.57
			c1.1,1.5,1.85,3.51,2.27,6.03l-6.45,0.88c-0.29-2-1.14-3.56-2.55-4.69s-3.39-1.69-5.95-1.69c-3.03,0-5.19,0.5-6.48,1.5
			c-1.29,1-1.94,2.17-1.94,3.52c0,0.86,0.27,1.62,0.81,2.31c0.54,0.71,1.38,1.29,2.53,1.76c0.66,0.24,2.6,0.81,5.82,1.69
			c4.66,1.24,7.92,2.26,9.76,3.06c1.84,0.79,3.29,1.95,4.34,3.46c1.05,1.52,1.57,3.39,1.57,5.64c0,2.2-0.64,4.27-1.92,6.21
			c-1.28,1.94-3.13,3.44-5.55,4.5s-5.15,1.59-8.2,1.59c-5.05,0-8.91-1.05-11.55-3.15
			C2640.81,2836.81,2639.12,2833.7,2638.38,2829.58z"/>
		<path d="M2678.52,2841.19v-38.89h5.9v5.46c1.22-1.9,2.84-3.44,4.87-4.6c2.03-1.16,4.33-1.74,6.92-1.74c2.88,0,5.24,0.6,7.09,1.79
			c1.84,1.2,3.14,2.87,3.9,5.02c3.08-4.54,7.08-6.81,12.01-6.81c3.86,0,6.82,1.07,8.9,3.21c2.07,2.14,3.11,5.43,3.11,9.87v26.7
			h-6.56v-24.5c0-2.64-0.21-4.54-0.64-5.7c-0.43-1.16-1.2-2.09-2.33-2.8c-1.12-0.71-2.44-1.06-3.96-1.06c-2.73,0-5,0.91-6.81,2.73
			c-1.81,1.82-2.71,4.73-2.71,8.73v22.6h-6.59v-25.27c0-2.93-0.54-5.13-1.61-6.59c-1.07-1.46-2.83-2.2-5.27-2.2
			c-1.86,0-3.57,0.49-5.15,1.47c-1.57,0.98-2.72,2.41-3.42,4.28c-0.71,1.88-1.06,4.59-1.06,8.13v20.18H2678.52z"/>
		<path d="M2738.54,2821.74c0-7.2,2-12.54,6.01-16c3.34-2.88,7.42-4.32,12.23-4.32c5.35,0,9.72,1.75,13.11,5.26
			c3.39,3.5,5.09,8.34,5.09,14.52c0,5.01-0.75,8.94-2.25,11.81c-1.5,2.87-3.69,5.1-6.55,6.68c-2.87,1.59-6,2.38-9.39,2.38
			c-5.44,0-9.85-1.75-13.2-5.24C2740.22,2833.34,2738.54,2828.31,2738.54,2821.74z M2745.32,2821.74c0,4.98,1.09,8.71,3.26,11.19
			c2.17,2.48,4.91,3.72,8.2,3.72c3.27,0,5.99-1.25,8.17-3.74c2.17-2.49,3.26-6.29,3.26-11.39c0-4.81-1.09-8.45-3.28-10.93
			c-2.19-2.48-4.9-3.72-8.15-3.72c-3.3,0-6.03,1.23-8.2,3.7C2746.4,2813.04,2745.32,2816.76,2745.32,2821.74z"/>
		<path d="M2807.94,2841.19v-4.91c-2.47,3.86-6.09,5.79-10.88,5.79c-3.1,0-5.95-0.86-8.55-2.56c-2.6-1.71-4.61-4.09-6.04-7.16
			c-1.43-3.06-2.14-6.59-2.14-10.57c0-3.88,0.65-7.4,1.94-10.56c1.29-3.16,3.23-5.58,5.82-7.27c2.59-1.68,5.48-2.53,8.68-2.53
			c2.34,0,4.43,0.49,6.26,1.48c1.83,0.99,3.32,2.28,4.47,3.86v-19.26h6.56v53.69H2807.94z M2787.1,2821.78
			c0,4.98,1.05,8.71,3.15,11.17c2.1,2.47,4.58,3.7,7.43,3.7c2.88,0,5.33-1.18,7.34-3.54c2.01-2.36,3.02-5.95,3.02-10.78
			c0-5.32-1.03-9.23-3.08-11.72c-2.05-2.49-4.58-3.74-7.58-3.74c-2.93,0-5.38,1.2-7.34,3.59
			C2788.08,2812.85,2787.1,2816.62,2787.1,2821.78z"/>
		<path d="M2859.65,2835.29l0.95,5.82c-1.86,0.39-3.52,0.59-4.98,0.59c-2.39,0-4.25-0.38-5.57-1.13c-1.32-0.76-2.25-1.75-2.78-2.98
			c-0.54-1.23-0.81-3.83-0.81-7.78v-22.38h-4.83v-5.13h4.83v-9.63l6.56-3.96v13.59h6.63v5.13h-6.63v22.74
			c0,1.88,0.12,3.09,0.35,3.62c0.23,0.54,0.61,0.96,1.14,1.28c0.52,0.32,1.28,0.47,2.25,0.47
			C2857.49,2835.54,2858.45,2835.46,2859.65,2835.29z"/>
		<path d="M2892.72,2828.66l6.81,0.84c-1.07,3.98-3.06,7.07-5.97,9.26c-2.91,2.2-6.62,3.3-11.13,3.3c-5.69,0-10.2-1.75-13.53-5.26
			c-3.33-3.5-5-8.42-5-14.74c0-6.54,1.68-11.62,5.05-15.23c3.37-3.61,7.74-5.42,13.11-5.42c5.2,0,9.45,1.77,12.74,5.31
			c3.3,3.54,4.94,8.52,4.94,14.94c0,0.39-0.01,0.98-0.04,1.76h-29c0.24,4.27,1.45,7.54,3.63,9.81c2.17,2.27,4.88,3.41,8.13,3.41
			c2.42,0,4.48-0.63,6.19-1.9S2891.72,2831.44,2892.72,2828.66z M2871.07,2818h21.72c-0.29-3.27-1.12-5.72-2.49-7.36
			c-2.1-2.54-4.82-3.81-8.17-3.81c-3.03,0-5.57,1.01-7.64,3.04C2872.43,2811.9,2871.29,2814.61,2871.07,2818z"/>
		<path d="M2907.8,2841.19v-38.89h5.9v5.46c1.22-1.9,2.84-3.44,4.87-4.6c2.03-1.16,4.33-1.74,6.92-1.74c2.88,0,5.24,0.6,7.09,1.79
			c1.84,1.2,3.14,2.87,3.9,5.02c3.08-4.54,7.08-6.81,12.01-6.81c3.86,0,6.82,1.07,8.9,3.21c2.07,2.14,3.11,5.43,3.11,9.87v26.7
			h-6.56v-24.5c0-2.64-0.21-4.54-0.64-5.7c-0.43-1.16-1.2-2.09-2.33-2.8c-1.12-0.71-2.44-1.06-3.96-1.06c-2.73,0-5,0.91-6.81,2.73
			c-1.81,1.82-2.71,4.73-2.71,8.73v22.6h-6.59v-25.27c0-2.93-0.54-5.13-1.61-6.59s-2.83-2.2-5.27-2.2c-1.86,0-3.57,0.49-5.15,1.47
			c-1.57,0.98-2.72,2.41-3.42,4.28c-0.71,1.88-1.06,4.59-1.06,8.13v20.18H2907.8z"/>
		<path d="M2970.28,2856.09v-53.8h6.01v5.05c1.42-1.98,3.02-3.46,4.8-4.45c1.78-0.99,3.94-1.48,6.48-1.48
			c3.32,0,6.25,0.86,8.79,2.56s4.46,4.12,5.75,7.23c1.29,3.11,1.94,6.53,1.94,10.24c0,3.98-0.71,7.56-2.14,10.75
			c-1.43,3.19-3.5,5.63-6.23,7.32c-2.72,1.7-5.58,2.54-8.59,2.54c-2.2,0-4.17-0.46-5.91-1.39c-1.75-0.93-3.18-2.1-4.3-3.52v18.93
			H2970.28z M2976.25,2821.96c0,5.01,1.01,8.7,3.04,11.1c2.03,2.39,4.48,3.59,7.36,3.59c2.93,0,5.44-1.24,7.53-3.72
			c2.09-2.48,3.13-6.32,3.13-11.52c0-4.96-1.02-8.67-3.06-11.13s-4.47-3.7-7.31-3.7c-2.81,0-5.29,1.31-7.45,3.94
			C2977.33,2813.14,2976.25,2816.96,2976.25,2821.96z"/>
		<path d="M3009.54,2821.74c0-7.2,2-12.54,6.01-16c3.34-2.88,7.42-4.32,12.23-4.32c5.35,0,9.72,1.75,13.11,5.26
			s5.09,8.34,5.09,14.52c0,5.01-0.75,8.94-2.25,11.81c-1.5,2.87-3.69,5.1-6.55,6.68c-2.87,1.59-6,2.38-9.39,2.38
			c-5.44,0-9.85-1.75-13.2-5.24C3011.22,2833.34,3009.54,2828.31,3009.54,2821.74z M3016.31,2821.74c0,4.98,1.09,8.71,3.26,11.19
			s4.91,3.72,8.2,3.72c3.27,0,5.99-1.25,8.17-3.74c2.17-2.49,3.26-6.29,3.26-11.39c0-4.81-1.09-8.45-3.28-10.93
			c-2.19-2.48-4.9-3.72-8.15-3.72c-3.3,0-6.03,1.23-8.2,3.7S3016.31,2816.76,3016.31,2821.74z"/>
		<path d="M3053.63,2841.19v-38.89h5.93v5.9c1.51-2.76,2.91-4.58,4.19-5.46c1.28-0.88,2.69-1.32,4.23-1.32
			c2.22,0,4.48,0.71,6.77,2.12l-2.27,6.12c-1.61-0.95-3.22-1.43-4.83-1.43c-1.44,0-2.73,0.43-3.88,1.3
			c-1.15,0.87-1.97,2.07-2.45,3.61c-0.73,2.34-1.1,4.91-1.1,7.69v20.36H3053.63z"/>
		<path d="M3099.55,2795.08v-7.58h6.59v7.58H3099.55z M3099.55,2841.19v-38.89h6.59v38.89H3099.55z"/>
		<path d="M3116.18,2841.19v-38.89h5.93v5.53c2.86-4.27,6.98-6.41,12.38-6.41c2.34,0,4.5,0.42,6.46,1.26s3.44,1.95,4.41,3.31
			s1.66,2.99,2.05,4.87c0.24,1.22,0.37,3.36,0.37,6.41v23.91h-6.59v-23.66c0-2.69-0.26-4.69-0.77-6.02
			c-0.51-1.33-1.42-2.39-2.73-3.19c-1.31-0.79-2.84-1.19-4.6-1.19c-2.81,0-5.23,0.89-7.27,2.67c-2.04,1.78-3.06,5.16-3.06,10.14
			v21.24H3116.18z"/>
		<path d="M3183.27,2826.94l6.48,0.84c-0.71,4.47-2.52,7.96-5.44,10.49c-2.92,2.53-6.5,3.79-10.75,3.79c-5.32,0-9.6-1.74-12.83-5.22
			c-3.24-3.48-4.85-8.47-4.85-14.96c0-4.2,0.7-7.88,2.09-11.02c1.39-3.15,3.51-5.51,6.35-7.09c2.84-1.58,5.94-2.36,9.28-2.36
			c4.22,0,7.68,1.07,10.36,3.21c2.69,2.14,4.41,5.17,5.16,9.1l-6.41,0.99c-0.61-2.61-1.69-4.58-3.24-5.9
			c-1.55-1.32-3.42-1.98-5.62-1.98c-3.32,0-6.02,1.19-8.09,3.57c-2.08,2.38-3.11,6.15-3.11,11.3c0,5.22,1,9.02,3,11.39
			c2,2.37,4.62,3.55,7.84,3.55c2.59,0,4.75-0.79,6.48-2.38C3181.71,2832.68,3182.8,2830.24,3183.27,2826.94z"/>
		<path d="M3195.43,2795.08v-7.58h6.59v7.58H3195.43z M3195.43,2841.19v-38.89h6.59v38.89H3195.43z"/>
		<path d="M3237.28,2841.19v-4.91c-2.47,3.86-6.09,5.79-10.88,5.79c-3.1,0-5.95-0.86-8.55-2.56c-2.6-1.71-4.62-4.09-6.04-7.16
			s-2.14-6.59-2.14-10.57c0-3.88,0.65-7.4,1.94-10.56c1.29-3.16,3.23-5.58,5.82-7.27c2.59-1.68,5.48-2.53,8.68-2.53
			c2.34,0,4.43,0.49,6.26,1.48c1.83,0.99,3.32,2.28,4.47,3.86v-19.26h6.55v53.69H3237.28z M3216.45,2821.78
			c0,4.98,1.05,8.71,3.15,11.17c2.1,2.47,4.58,3.7,7.43,3.7c2.88,0,5.33-1.18,7.34-3.54c2.01-2.36,3.02-5.95,3.02-10.78
			c0-5.32-1.03-9.23-3.08-11.72c-2.05-2.49-4.58-3.74-7.58-3.74c-2.93,0-5.38,1.2-7.34,3.59
			C3217.43,2812.85,3216.45,2816.62,3216.45,2821.78z"/>
		<path d="M3253.8,2795.08v-7.58h6.59v7.58H3253.8z M3253.8,2841.19v-38.89h6.59v38.89H3253.8z"/>
		<path d="M3295.66,2841.19v-4.91c-2.47,3.86-6.09,5.79-10.88,5.79c-3.1,0-5.95-0.86-8.55-2.56c-2.6-1.71-4.62-4.09-6.04-7.16
			s-2.14-6.59-2.14-10.57c0-3.88,0.65-7.4,1.94-10.56c1.29-3.16,3.23-5.58,5.82-7.27c2.59-1.68,5.48-2.53,8.68-2.53
			c2.34,0,4.43,0.49,6.26,1.48c1.83,0.99,3.32,2.28,4.47,3.86v-19.26h6.55v53.69H3295.66z M3274.82,2821.78
			c0,4.98,1.05,8.71,3.15,11.17c2.1,2.47,4.58,3.7,7.43,3.7c2.88,0,5.33-1.18,7.34-3.54c2.01-2.36,3.02-5.95,3.02-10.78
			c0-5.32-1.03-9.23-3.08-11.72c-2.05-2.49-4.58-3.74-7.58-3.74c-2.93,0-5.38,1.2-7.34,3.59
			C3275.8,2812.85,3274.82,2816.62,3274.82,2821.78z"/>
		<path d="M3337.63,2841.19v-5.71c-3.03,4.39-7.14,6.59-12.34,6.59c-2.29,0-4.44-0.44-6.43-1.32c-1.99-0.88-3.47-1.98-4.43-3.31
			s-1.64-2.96-2.03-4.89c-0.27-1.29-0.4-3.35-0.4-6.15v-24.1h6.59v21.57c0,3.44,0.13,5.76,0.4,6.96c0.42,1.73,1.29,3.09,2.64,4.08
			c1.34,0.99,3,1.48,4.98,1.48c1.98,0,3.83-0.51,5.57-1.52c1.73-1.01,2.96-2.39,3.68-4.14c0.72-1.75,1.08-4.28,1.08-7.6v-20.84h6.59
			v38.89H3337.63z"/>
		<path d="M3353.85,2841.19v-38.89h5.93v5.53c2.86-4.27,6.98-6.41,12.38-6.41c2.34,0,4.5,0.42,6.46,1.26s3.44,1.95,4.41,3.31
			s1.66,2.99,2.05,4.87c0.24,1.22,0.37,3.36,0.37,6.41v23.91h-6.59v-23.66c0-2.69-0.26-4.69-0.77-6.02
			c-0.51-1.33-1.42-2.39-2.73-3.19c-1.31-0.79-2.84-1.19-4.6-1.19c-2.81,0-5.23,0.89-7.27,2.67c-2.04,1.78-3.06,5.16-3.06,10.14
			v21.24H3353.85z"/>
		<path d="M3409.95,2835.29l0.95,5.82c-1.86,0.39-3.52,0.59-4.98,0.59c-2.39,0-4.25-0.38-5.57-1.13c-1.32-0.76-2.25-1.75-2.78-2.98
			s-0.81-3.83-0.81-7.78v-22.38h-4.83v-5.13h4.83v-9.63l6.56-3.96v13.59h6.63v5.13h-6.63v22.74c0,1.88,0.12,3.09,0.35,3.62
			c0.23,0.54,0.61,0.96,1.13,1.28c0.53,0.32,1.28,0.47,2.25,0.47C3407.79,2835.54,3408.76,2835.46,3409.95,2835.29z"/>
		<path d="M3462.72,2841.19v-5.71c-3.03,4.39-7.14,6.59-12.34,6.59c-2.29,0-4.44-0.44-6.43-1.32c-1.99-0.88-3.47-1.98-4.43-3.31
			s-1.64-2.96-2.03-4.89c-0.27-1.29-0.4-3.35-0.4-6.15v-24.1h6.59v21.57c0,3.44,0.13,5.76,0.4,6.96c0.42,1.73,1.29,3.09,2.64,4.08
			c1.34,0.99,3,1.48,4.98,1.48c1.98,0,3.83-0.51,5.57-1.52c1.73-1.01,2.96-2.39,3.68-4.14c0.72-1.75,1.08-4.28,1.08-7.6v-20.84h6.59
			v38.89H3462.72z"/>
		<path d="M3493.34,2835.29l0.95,5.82c-1.86,0.39-3.52,0.59-4.98,0.59c-2.39,0-4.25-0.38-5.57-1.13c-1.32-0.76-2.25-1.75-2.78-2.98
			s-0.81-3.83-0.81-7.78v-22.38h-4.83v-5.13h4.83v-9.63l6.55-3.96v13.59h6.63v5.13h-6.63v22.74c0,1.88,0.12,3.09,0.35,3.62
			c0.23,0.54,0.61,0.96,1.13,1.28c0.53,0.32,1.28,0.47,2.25,0.47C3491.18,2835.54,3492.14,2835.46,3493.34,2835.29z"/>
		<path d="M3520.48,2841.19v-53.69h6.59v53.69H3520.48z"/>
		<path d="M3562.66,2836.39c-2.44,2.07-4.79,3.54-7.05,4.39c-2.26,0.85-4.68,1.28-7.27,1.28c-4.27,0-7.56-1.04-9.85-3.13
			c-2.29-2.09-3.44-4.76-3.44-8c0-1.9,0.43-3.64,1.3-5.22c0.87-1.57,2-2.84,3.41-3.79c1.4-0.95,2.98-1.67,4.74-2.16
			c1.29-0.34,3.25-0.67,5.86-0.99c5.32-0.63,9.24-1.39,11.76-2.27c0.02-0.9,0.04-1.48,0.04-1.72c0-2.69-0.62-4.58-1.87-5.68
			c-1.68-1.49-4.19-2.23-7.51-2.23c-3.1,0-5.39,0.54-6.87,1.63c-1.48,1.09-2.57,3.01-3.28,5.77l-6.45-0.88
			c0.59-2.76,1.55-4.99,2.89-6.68c1.34-1.7,3.28-3,5.82-3.92c2.54-0.91,5.48-1.37,8.83-1.37c3.32,0,6.02,0.39,8.09,1.17
			c2.07,0.78,3.6,1.77,4.58,2.95c0.98,1.18,1.66,2.68,2.05,4.49c0.22,1.12,0.33,3.15,0.33,6.08v8.79c0,6.13,0.14,10,0.42,11.63
			c0.28,1.62,0.84,3.18,1.67,4.67h-6.88C3563.3,2839.82,3562.86,2838.22,3562.66,2836.39z M3562.11,2821.67
			c-2.39,0.98-5.98,1.81-10.77,2.49c-2.71,0.39-4.62,0.83-5.75,1.32s-1.99,1.2-2.6,2.14c-0.61,0.94-0.91,1.98-0.91,3.13
			c0,1.76,0.66,3.22,2,4.39c1.33,1.17,3.28,1.76,5.84,1.76c2.54,0,4.8-0.55,6.78-1.67c1.98-1.11,3.43-2.63,4.36-4.56
			c0.71-1.49,1.06-3.69,1.06-6.59V2821.67z"/>
		<path d="M3585.08,2841.19h-6.12v-53.69h6.59v19.15c2.78-3.49,6.33-5.24,10.66-5.24c2.39,0,4.66,0.48,6.79,1.45
			s3.89,2.32,5.27,4.06c1.38,1.75,2.46,3.85,3.24,6.32c0.78,2.46,1.17,5.1,1.17,7.91c0,6.66-1.65,11.82-4.94,15.45
			c-3.29,3.64-7.25,5.46-11.87,5.46c-4.59,0-8.19-1.92-10.8-5.75V2841.19z M3585,2821.45c0,4.66,0.63,8.03,1.9,10.11
			c2.08,3.39,4.88,5.09,8.42,5.09c2.88,0,5.37-1.25,7.47-3.75s3.15-6.23,3.15-11.19c0-5.08-1.01-8.83-3.02-11.24
			c-2.02-2.42-4.45-3.63-7.31-3.63c-2.88,0-5.37,1.25-7.47,3.75C3586.05,2813.09,3585,2816.71,3585,2821.45z"/>
		<path d="M3618.26,2821.74c0-7.2,2-12.54,6.01-16c3.34-2.88,7.42-4.32,12.23-4.32c5.35,0,9.72,1.75,13.11,5.26
			c3.39,3.5,5.09,8.34,5.09,14.52c0,5.01-0.75,8.94-2.25,11.81c-1.5,2.87-3.69,5.1-6.55,6.68c-2.87,1.59-6,2.38-9.39,2.38
			c-5.44,0-9.85-1.75-13.2-5.24C3619.93,2833.34,3618.26,2828.31,3618.26,2821.74z M3625.03,2821.74c0,4.98,1.09,8.71,3.26,11.19
			c2.17,2.48,4.91,3.72,8.2,3.72c3.27,0,5.99-1.25,8.17-3.74c2.17-2.49,3.26-6.29,3.26-11.39c0-4.81-1.09-8.45-3.28-10.93
			c-2.19-2.48-4.9-3.72-8.15-3.72c-3.29,0-6.03,1.23-8.2,3.7C3626.12,2813.04,3625.03,2816.76,3625.03,2821.74z"/>
		<path d="M3662.35,2841.19v-38.89h5.93v5.9c1.51-2.76,2.91-4.58,4.19-5.46c1.28-0.88,2.69-1.32,4.23-1.32
			c2.22,0,4.48,0.71,6.78,2.12l-2.27,6.12c-1.61-0.95-3.22-1.43-4.83-1.43c-1.44,0-2.73,0.43-3.88,1.3
			c-1.15,0.87-1.97,2.07-2.46,3.61c-0.73,2.34-1.1,4.91-1.1,7.69v20.36H3662.35z"/>
		<path d="M3714.02,2828.66l6.81,0.84c-1.07,3.98-3.06,7.07-5.97,9.26c-2.91,2.2-6.62,3.3-11.13,3.3c-5.69,0-10.2-1.75-13.53-5.26
			c-3.33-3.5-5-8.42-5-14.74c0-6.54,1.69-11.62,5.05-15.23c3.37-3.61,7.74-5.42,13.11-5.42c5.2,0,9.45,1.77,12.74,5.31
			c3.3,3.54,4.95,8.52,4.95,14.94c0,0.39-0.01,0.98-0.04,1.76h-29c0.24,4.27,1.45,7.54,3.62,9.81c2.17,2.27,4.88,3.41,8.13,3.41
			c2.42,0,4.48-0.63,6.19-1.9S3713.02,2831.44,3714.02,2828.66z M3692.37,2818h21.72c-0.29-3.27-1.12-5.72-2.49-7.36
			c-2.1-2.54-4.82-3.81-8.17-3.81c-3.03,0-5.57,1.01-7.63,3.04C3693.74,2811.9,3692.6,2814.61,3692.37,2818z"/>
		<path d="M3776.57,2828.66l6.81,0.84c-1.07,3.98-3.06,7.07-5.97,9.26c-2.91,2.2-6.62,3.3-11.13,3.3c-5.69,0-10.2-1.75-13.53-5.26
			c-3.33-3.5-5-8.42-5-14.74c0-6.54,1.69-11.62,5.05-15.23c3.37-3.61,7.74-5.42,13.11-5.42c5.2,0,9.45,1.77,12.74,5.31
			c3.3,3.54,4.95,8.52,4.95,14.94c0,0.39-0.01,0.98-0.04,1.76h-29c0.24,4.27,1.45,7.54,3.62,9.81c2.17,2.27,4.88,3.41,8.13,3.41
			c2.42,0,4.48-0.63,6.19-1.9S3775.57,2831.44,3776.57,2828.66z M3754.92,2818h21.72c-0.29-3.27-1.12-5.72-2.49-7.36
			c-2.1-2.54-4.82-3.81-8.17-3.81c-3.03,0-5.57,1.01-7.63,3.04C3756.28,2811.9,3755.14,2814.61,3754.92,2818z"/>
		<path d="M3806.05,2835.29l0.95,5.82c-1.86,0.39-3.52,0.59-4.98,0.59c-2.39,0-4.25-0.38-5.57-1.13c-1.32-0.76-2.25-1.75-2.78-2.98
			s-0.8-3.83-0.8-7.78v-22.38h-4.83v-5.13h4.83v-9.63l6.55-3.96v13.59h6.63v5.13h-6.63v22.74c0,1.88,0.12,3.09,0.35,3.62
			c0.23,0.54,0.61,0.96,1.13,1.28c0.53,0.32,1.28,0.47,2.25,0.47C3803.89,2835.54,3804.85,2835.46,3806.05,2835.29z"/>
		<path d="M3858.56,2841.19v-4.91c-2.46,3.86-6.09,5.79-10.88,5.79c-3.1,0-5.95-0.86-8.55-2.56c-2.6-1.71-4.61-4.09-6.04-7.16
			c-1.43-3.06-2.14-6.59-2.14-10.57c0-3.88,0.65-7.4,1.94-10.56c1.29-3.16,3.24-5.58,5.82-7.27c2.59-1.68,5.48-2.53,8.68-2.53
			c2.34,0,4.43,0.49,6.26,1.48c1.83,0.99,3.32,2.28,4.47,3.86v-19.26h6.55v53.69H3858.56z M3837.72,2821.78
			c0,4.98,1.05,8.71,3.15,11.17c2.1,2.47,4.58,3.7,7.43,3.7c2.88,0,5.33-1.18,7.34-3.54c2.01-2.36,3.02-5.95,3.02-10.78
			c0-5.32-1.03-9.23-3.08-11.72c-2.05-2.49-4.58-3.74-7.58-3.74c-2.93,0-5.38,1.2-7.34,3.59
			C3838.71,2812.85,3837.72,2816.62,3837.72,2821.78z"/>
		<path d="M3872.59,2821.74c0-7.2,2-12.54,6.01-16c3.35-2.88,7.42-4.32,12.23-4.32c5.35,0,9.72,1.75,13.11,5.26
			c3.39,3.5,5.09,8.34,5.09,14.52c0,5.01-0.75,8.94-2.25,11.81c-1.5,2.87-3.69,5.1-6.55,6.68c-2.87,1.59-6,2.38-9.39,2.38
			c-5.45,0-9.85-1.75-13.2-5.24C3874.27,2833.34,3872.59,2828.31,3872.59,2821.74z M3879.36,2821.74c0,4.98,1.09,8.71,3.26,11.19
			c2.17,2.48,4.91,3.72,8.2,3.72c3.27,0,5.99-1.25,8.17-3.74c2.17-2.49,3.26-6.29,3.26-11.39c0-4.81-1.09-8.45-3.28-10.93
			c-2.19-2.48-4.9-3.72-8.15-3.72c-3.3,0-6.03,1.23-8.2,3.7C3880.45,2813.04,3879.36,2816.76,3879.36,2821.74z"/>
		<path d="M3916.61,2841.19v-53.69h6.59v53.69H3916.61z"/>
		<path d="M3930.96,2821.74c0-7.2,2-12.54,6.01-16c3.35-2.88,7.42-4.32,12.23-4.32c5.35,0,9.72,1.75,13.11,5.26
			c3.39,3.5,5.09,8.34,5.09,14.52c0,5.01-0.75,8.94-2.25,11.81c-1.5,2.87-3.69,5.1-6.55,6.68c-2.87,1.59-6,2.38-9.39,2.38
			c-5.45,0-9.85-1.75-13.2-5.24C3932.64,2833.34,3930.96,2828.31,3930.96,2821.74z M3937.74,2821.74c0,4.98,1.09,8.71,3.26,11.19
			c2.17,2.48,4.91,3.72,8.2,3.72c3.27,0,5.99-1.25,8.17-3.74c2.17-2.49,3.26-6.29,3.26-11.39c0-4.81-1.09-8.45-3.28-10.93
			c-2.19-2.48-4.9-3.72-8.15-3.72c-3.3,0-6.03,1.23-8.2,3.7C3938.82,2813.04,3937.74,2816.76,3937.74,2821.74z"/>
		<path d="M3975.05,2841.19v-38.89h5.93v5.9c1.51-2.76,2.91-4.58,4.19-5.46c1.28-0.88,2.69-1.32,4.23-1.32
			c2.22,0,4.48,0.71,6.78,2.12l-2.27,6.12c-1.61-0.95-3.22-1.43-4.83-1.43c-1.44,0-2.73,0.43-3.88,1.3
			c-1.15,0.87-1.97,2.07-2.46,3.61c-0.73,2.34-1.1,4.91-1.1,7.69v20.36H3975.05z"/>
		<path d="M4026.73,2828.66l6.81,0.84c-1.07,3.98-3.06,7.07-5.97,9.26c-2.9,2.2-6.62,3.3-11.13,3.3c-5.69,0-10.2-1.75-13.53-5.26
			c-3.33-3.5-5-8.42-5-14.74c0-6.54,1.68-11.62,5.05-15.23c3.37-3.61,7.74-5.42,13.11-5.42c5.2,0,9.45,1.77,12.74,5.31
			c3.29,3.54,4.94,8.52,4.94,14.94c0,0.39-0.01,0.98-0.04,1.76h-29c0.24,4.27,1.45,7.54,3.63,9.81c2.17,2.27,4.88,3.41,8.13,3.41
			c2.42,0,4.48-0.63,6.19-1.9S4025.73,2831.44,4026.73,2828.66z M4005.08,2818h21.72c-0.29-3.27-1.12-5.72-2.49-7.36
			c-2.1-2.54-4.82-3.81-8.17-3.81c-3.03,0-5.57,1.01-7.63,3.04C4006.44,2811.9,4005.3,2814.61,4005.08,2818z"/>
	</g>
	<path class="st2" d="M2910.89,2593.76l-9.44,71.35h-28.18l-10.72-71.35h19.57c2.27,19.66,3.9,36.29,4.87,49.89
		c0.96-13.75,1.97-25.96,3.05-36.62l1.29-13.27H2910.89z"/>
	<path class="st2" d="M2953.82,2636.9h-23.05v12.65c0,2.64,0.19,4.35,0.57,5.11c0.38,0.76,1.12,1.15,2.2,1.15
		c1.35,0,2.25-0.51,2.71-1.52c0.46-1.01,0.68-2.97,0.68-5.88v-7.71h16.88v4.32c0,3.61-0.23,6.39-0.68,8.33
		c-0.46,1.94-1.52,4.01-3.19,6.21c-1.68,2.2-3.8,3.86-6.37,4.96c-2.57,1.1-5.79,1.65-9.67,1.65c-3.76,0-7.08-0.54-9.96-1.63
		c-2.88-1.09-5.12-2.58-6.72-4.47c-1.6-1.89-2.71-3.98-3.33-6.26c-0.62-2.28-0.93-5.59-0.93-9.94v-17.06c0-5.11,0.69-9.14,2.07-12.1
		c1.38-2.95,3.64-5.21,6.79-6.79c3.14-1.57,6.76-2.36,10.84-2.36c4.99,0,9.12,0.95,12.36,2.84c3.25,1.9,5.52,4.41,6.83,7.54
		c1.31,3.13,1.96,7.53,1.96,13.2V2636.9z M2935.97,2627.38v-4.27c0-3.03-0.16-4.98-0.48-5.86c-0.32-0.88-0.98-1.32-1.98-1.32
		c-1.23,0-2,0.38-2.29,1.12c-0.29,0.75-0.44,2.77-0.44,6.06v4.27H2935.97z"/>
	<path class="st2" d="M2998.99,2628.71h-16.79v-6.74c0-2.35-0.19-3.94-0.57-4.78c-0.38-0.84-1.09-1.26-2.11-1.26
		c-1.03,0-1.72,0.37-2.07,1.1c-0.35,0.74-0.53,2.38-0.53,4.94v27.59c0,2.09,0.26,3.65,0.79,4.69c0.53,1.04,1.31,1.57,2.34,1.57
		c1.2,0,2.02-0.54,2.45-1.63c0.43-1.09,0.64-3.14,0.64-6.17v-6.96h15.87c-0.03,4.67-0.2,8.18-0.51,10.51
		c-0.31,2.34-1.29,4.73-2.95,7.18c-1.66,2.45-3.83,4.3-6.5,5.55c-2.67,1.25-5.98,1.87-9.92,1.87c-5.02,0-9.01-0.86-11.94-2.58
		c-2.94-1.72-5.02-4.13-6.24-7.23c-1.22-3.1-1.83-7.5-1.83-13.2v-16.61c0-4.96,0.5-8.71,1.5-11.24c1-2.53,3.13-4.78,6.39-6.77
		c3.26-1.98,7.23-2.97,11.9-2.97c4.64,0,8.61,0.98,11.9,2.95c3.29,1.97,5.48,4.45,6.57,7.45
		C2998.45,2618.97,2998.99,2623.21,2998.99,2628.71z"/>
	<path class="st2" d="M3023.05,2598.83v9.21h4.8v9.25h-4.8v31.29c0,3.85,0.2,5.99,0.6,6.43c0.4,0.44,2.05,0.66,4.96,0.66v9.43h-7.18
		c-4.05,0-6.95-0.17-8.68-0.51c-1.73-0.34-3.26-1.12-4.58-2.34c-1.32-1.22-2.15-2.61-2.47-4.19c-0.32-1.57-0.49-5.27-0.49-11.08
		v-29.71h-3.83v-9.25h3.83v-9.21H3023.05z"/>
	<path class="st2" d="M3072.06,2627.16v14.32c0,5.26-0.26,9.12-0.79,11.57c-0.53,2.45-1.66,4.74-3.39,6.87
		c-1.73,2.13-3.96,3.7-6.68,4.72c-2.72,1.01-5.84,1.52-9.36,1.52c-3.94,0-7.27-0.43-10-1.3s-4.86-2.17-6.37-3.92
		c-1.51-1.75-2.59-3.86-3.24-6.35c-0.65-2.48-0.97-6.21-0.97-11.17v-14.99c0-5.44,0.59-9.68,1.76-12.74
		c1.17-3.06,3.29-5.51,6.35-7.36c3.05-1.85,6.96-2.78,11.72-2.78c4,0,7.43,0.6,10.29,1.79c2.86,1.19,5.08,2.74,6.63,4.65
		c1.56,1.91,2.62,3.88,3.19,5.91C3071.78,2619.94,3072.06,2623.02,3072.06,2627.16z M3054.26,2622.76c0-3-0.16-4.88-0.48-5.66
		c-0.32-0.78-1.01-1.17-2.07-1.17c-1.06,0-1.76,0.39-2.12,1.17c-0.35,0.78-0.53,2.67-0.53,5.66v26.4c0,2.76,0.18,4.56,0.53,5.4
		c0.35,0.84,1.04,1.26,2.07,1.26c1.06,0,1.75-0.38,2.09-1.15c0.34-0.76,0.51-2.41,0.51-4.94V2622.76z"/>
	<path class="st2" d="M3095.73,2606.63l-0.71,7.69c2.58-5.51,6.33-8.42,11.24-8.75v20.58c-3.26,0-5.66,0.44-7.18,1.32
		c-1.53,0.88-2.47,2.11-2.82,3.68s-0.53,5.19-0.53,10.86v23.09h-17.81v-58.48H3095.73z"/>
	<path class="st2" d="M3144.47,2593.76v9.3h-18.33v-9.3H3144.47z M3144.47,2606.63v58.48h-18.33v-58.48H3144.47z"/>
	<path class="st2" d="M3169.19,2593.76v71.35h-18.33v-71.35H3169.19z"/>
	<path class="st2" d="M3193.92,2593.76v71.35h-18.33v-71.35H3193.92z"/>
	<path class="st2" d="M3241.08,2606.63v58.48h-18.11l0.31-4.86c-1.23,1.97-2.75,3.45-4.56,4.44c-1.81,0.99-3.89,1.48-6.24,1.48
		c-2.67,0-4.89-0.47-6.66-1.41c-1.76-0.94-3.06-2.19-3.9-3.75c-0.84-1.56-1.36-3.18-1.57-4.87c-0.21-1.69-0.31-5.05-0.31-10.07
		v-39.44h17.8v39.79c0,4.56,0.14,7.26,0.42,8.11c0.28,0.85,1.04,1.28,2.27,1.28c1.32,0,2.11-0.44,2.36-1.32
		c0.25-0.88,0.37-3.72,0.37-8.51v-39.35H3241.08z"/>
	<path class="st2" d="M3283.83,2625.31h-15.78v-3.17c0-2.7-0.15-4.41-0.46-5.13c-0.31-0.72-1.08-1.08-2.31-1.08
		c-1,0-1.75,0.33-2.25,0.99c-0.5,0.66-0.75,1.65-0.75,2.98c0,1.79,0.12,3.11,0.38,3.94c0.25,0.84,1,1.76,2.25,2.76
		c1.25,1,3.81,2.45,7.69,4.36c5.17,2.53,8.56,4.91,10.18,7.14c1.62,2.23,2.42,5.48,2.42,9.74c0,4.76-0.62,8.35-1.85,10.78
		c-1.23,2.42-3.3,4.29-6.19,5.6c-2.89,1.31-6.38,1.96-10.47,1.96c-4.53,0-8.39-0.71-11.61-2.12c-3.22-1.41-5.43-3.32-6.63-5.73
		s-1.81-6.05-1.81-10.93v-2.82h15.78v3.7c0,3.14,0.2,5.19,0.59,6.13c0.4,0.94,1.18,1.41,2.36,1.41c1.26,0,2.14-0.32,2.64-0.95
		c0.5-0.63,0.75-1.96,0.75-3.99c0-2.79-0.32-4.54-0.97-5.24c-0.68-0.71-4.13-2.79-10.36-6.26c-5.23-2.94-8.42-5.6-9.56-8
		c-1.15-2.39-1.72-5.24-1.72-8.53c0-4.67,0.62-8.12,1.85-10.33c1.23-2.22,3.33-3.93,6.28-5.13c2.95-1.21,6.38-1.81,10.29-1.81
		c3.88,0,7.17,0.49,9.89,1.48c2.72,0.99,4.8,2.29,6.26,3.9c1.45,1.62,2.34,3.11,2.64,4.5c0.31,1.38,0.46,3.54,0.46,6.48V2625.31z"/>
	<path class="st2" d="M3308.73,2598.83v9.21h4.8v9.25h-4.8v31.29c0,3.85,0.2,5.99,0.59,6.43c0.4,0.44,2.05,0.66,4.96,0.66v9.43
		h-7.18c-4.06,0-6.95-0.17-8.68-0.51c-1.73-0.34-3.26-1.12-4.58-2.34c-1.32-1.22-2.14-2.61-2.47-4.19
		c-0.33-1.57-0.49-5.27-0.49-11.08v-29.71h-3.83v-9.25h3.83v-9.21H3308.73z"/>
	<path class="st2" d="M3335.26,2606.63l-0.7,7.69c2.58-5.51,6.33-8.42,11.24-8.75v20.58c-3.26,0-5.66,0.44-7.18,1.32
		c-1.53,0.88-2.47,2.11-2.82,3.68s-0.53,5.19-0.53,10.86v23.09h-17.8v-58.48H3335.26z"/>
	<path class="st2" d="M3365.67,2629.28h-16.7v-3.92c0-4.53,0.52-8.01,1.56-10.47s3.14-4.62,6.28-6.5c3.14-1.88,7.23-2.82,12.25-2.82
		c6.02,0,10.56,1.07,13.62,3.2c3.06,2.13,4.89,4.75,5.51,7.84c0.62,3.1,0.93,9.48,0.93,19.15v29.35h-17.32v-5.21
		c-1.09,2.09-2.49,3.66-4.21,4.7c-1.72,1.04-3.77,1.57-6.15,1.57c-3.11,0-5.97-0.87-8.57-2.62c-2.6-1.75-3.9-5.58-3.9-11.48v-4.8
		c0-4.38,0.69-7.36,2.07-8.95c1.38-1.59,4.8-3.44,10.27-5.55c5.85-2.29,8.98-3.83,9.39-4.63c0.41-0.79,0.62-2.41,0.62-4.85
		c0-3.05-0.23-5.05-0.68-5.97c-0.46-0.92-1.21-1.39-2.27-1.39c-1.21,0-1.96,0.39-2.25,1.17c-0.29,0.78-0.44,2.8-0.44,6.06V2629.28z
		 M3371.31,2637.3c-2.85,2.09-4.5,3.83-4.96,5.24c-0.46,1.41-0.68,3.44-0.68,6.08c0,3.03,0.2,4.98,0.59,5.86
		c0.4,0.88,1.18,1.32,2.36,1.32c1.12,0,1.84-0.34,2.18-1.04c0.34-0.69,0.51-2.5,0.51-5.44V2637.3z"/>
	<path class="st2" d="M3414.01,2598.83v9.21h4.8v9.25h-4.8v31.29c0,3.85,0.2,5.99,0.6,6.43c0.4,0.44,2.05,0.66,4.96,0.66v9.43h-7.18
		c-4.05,0-6.95-0.17-8.68-0.51c-1.73-0.34-3.26-1.12-4.58-2.34c-1.32-1.22-2.15-2.61-2.47-4.19c-0.32-1.57-0.48-5.27-0.48-11.08
		v-29.71h-3.83v-9.25h3.83v-9.21H3414.01z"/>
	<path class="st2" d="M3441.07,2593.76v9.3h-18.33v-9.3H3441.07z M3441.07,2606.63v58.48h-18.33v-58.48H3441.07z"/>
	<path class="st2" d="M3487.74,2627.16v14.32c0,5.26-0.26,9.12-0.79,11.57c-0.53,2.45-1.66,4.74-3.39,6.87
		c-1.73,2.13-3.96,3.7-6.68,4.72c-2.72,1.01-5.84,1.52-9.36,1.52c-3.94,0-7.27-0.43-10-1.3s-4.85-2.17-6.37-3.92
		c-1.51-1.75-2.59-3.86-3.24-6.35c-0.65-2.48-0.97-6.21-0.97-11.17v-14.99c0-5.44,0.59-9.68,1.76-12.74
		c1.17-3.06,3.29-5.51,6.35-7.36c3.05-1.85,6.96-2.78,11.72-2.78c4,0,7.43,0.6,10.29,1.79c2.86,1.19,5.07,2.74,6.63,4.65
		c1.56,1.91,2.62,3.88,3.19,5.91S3487.74,2623.02,3487.74,2627.16z M3469.94,2622.76c0-3-0.16-4.88-0.48-5.66
		c-0.33-0.78-1.01-1.17-2.07-1.17s-1.76,0.39-2.12,1.17c-0.35,0.78-0.53,2.67-0.53,5.66v26.4c0,2.76,0.18,4.56,0.53,5.4
		c0.35,0.84,1.04,1.26,2.07,1.26c1.06,0,1.76-0.38,2.09-1.15s0.51-2.41,0.51-4.94V2622.76z"/>
	<path class="st2" d="M3511.72,2606.63l-0.31,5.39c1.29-2.15,2.87-3.76,4.74-4.83c1.87-1.08,4.02-1.61,6.46-1.61
		c3.06,0,5.55,0.72,7.49,2.16c1.94,1.44,3.19,3.25,3.75,5.44c0.56,2.19,0.84,5.84,0.84,10.95v40.99h-17.8v-40.5
		c0-4.02-0.13-6.48-0.4-7.36c-0.26-0.88-1-1.32-2.2-1.32c-1.26,0-2.06,0.51-2.38,1.52c-0.33,1.01-0.49,3.72-0.49,8.13v39.53h-17.81
		v-58.48H3511.72z"/>
</g>
<path class="st3" d="M863.63,540.51c0.01,0,0.02,0.01,0.03,0.01V391.69C863.67,175.37,688.3,0,471.97,0h-11.35
	C244.3,0,68.93,175.37,68.93,391.69v148.83c0,0,0.01,0,0.02-0.01C28.46,557.36,0,597.29,0,643.87v570.91
	c0,61.8,50.1,111.91,111.91,111.91h708.78c61.8,0,111.91-50.11,111.91-111.91V643.87C932.6,597.28,904.13,557.35,863.63,540.51z
	 M109.05,532c0.95-0.02,1.91-0.04,2.86-0.04C110.95,531.96,110,531.97,109.05,532z M81.69,536.09c0.01,0,0.01,0,0.02,0
	C81.7,536.09,81.7,536.09,81.69,536.09z M84.32,535.39c0.03-0.01,0.06-0.01,0.09-0.02C84.37,535.38,84.34,535.38,84.32,535.39z
	 M86.97,534.75c0.06-0.01,0.12-0.02,0.17-0.04C87.08,534.73,87.03,534.74,86.97,534.75z M89.64,534.18c0.1-0.02,0.19-0.03,0.29-0.06
	C89.83,534.14,89.74,534.16,89.64,534.18z M92.34,533.67c0.14-0.02,0.28-0.05,0.42-0.07C92.62,533.62,92.48,533.64,92.34,533.67z
	 M95.07,533.22c0.18-0.03,0.37-0.05,0.55-0.08C95.44,533.17,95.25,533.19,95.07,533.22z M97.81,532.84
	c0.25-0.03,0.51-0.06,0.76-0.09C98.32,532.79,98.07,532.81,97.81,532.84z M100.58,532.53c0.33-0.03,0.66-0.06,0.99-0.09
	C101.24,532.47,100.91,532.49,100.58,532.53z M103.38,532.28c0.42-0.03,0.84-0.05,1.26-0.08
	C104.22,532.23,103.8,532.25,103.38,532.28z M106.2,532.1c0.54-0.03,1.09-0.04,1.63-0.06C107.29,532.06,106.74,532.08,106.2,532.1z
	 M531.17,934.76v112.75c0,35.83-29.05,64.87-64.88,64.87c-35.83,0-64.88-29.04-64.88-64.87V934.76
	c-24.67-19.3-40.54-49.32-40.54-83.07c0-58.22,47.2-105.42,105.42-105.42c58.23,0,105.42,47.2,105.42,105.42
	C571.72,885.44,555.85,915.46,531.17,934.76z M199.49,531.96V391.69c0-143.99,117.14-261.13,261.13-261.13h11.35
	c143.99,0,261.13,117.14,261.13,261.13v140.27H199.49z M823.55,532c-0.95-0.02-1.91-0.04-2.87-0.04
	C821.64,531.96,822.6,531.97,823.55,532z M850.91,536.09c-0.02,0-0.03-0.01-0.05-0.01C850.87,536.08,850.89,536.09,850.91,536.09z
	 M848.28,535.39c-0.03-0.01-0.07-0.02-0.1-0.02C848.21,535.38,848.25,535.38,848.28,535.39z M845.63,534.75
	c-0.07-0.01-0.13-0.03-0.2-0.04C845.5,534.73,845.56,534.74,845.63,534.75z M842.95,534.18c-0.1-0.02-0.21-0.04-0.31-0.06
	C842.75,534.14,842.85,534.16,842.95,534.18z M840.26,533.67c-0.15-0.03-0.29-0.05-0.43-0.07
	C839.97,533.62,840.11,533.64,840.26,533.67z M837.53,533.22c-0.2-0.03-0.4-0.05-0.6-0.08
	C837.13,533.17,837.33,533.19,837.53,533.22z M834.78,532.84c-0.26-0.03-0.52-0.06-0.77-0.09
	C834.26,532.78,834.52,532.81,834.78,532.84z M832.01,532.53c-0.33-0.03-0.65-0.06-0.98-0.09
	C831.36,532.47,831.68,532.49,832.01,532.53z M829.21,532.28c-0.42-0.03-0.84-0.05-1.26-0.08
	C828.37,532.23,828.79,532.25,829.21,532.28z M826.4,532.1c-0.55-0.03-1.11-0.04-1.66-0.06C825.29,532.06,825.84,532.08,826.4,532.1
	z"/>
</svg>
