{
	"name": "HYB - YT",
	"subName": "Base",
	"type": "template",
	"tags": [
		"image-large",
		"text-medium",
		"text-large"
	],
	"components": {

		"preview": {
			"_examples": [
				{
					"title": "NONE",
					"_url": "narrative-1"
				}
			]
		},
		"description": {
			"body": "DESCRIPTION TBA.",
			"_examples": [
			]
		},
		"modularity": {
			"body": "MODULARITY TBA.",
			"_parents": {
				"_includeTags": [],
				"_excludeTags": [],
				"_includePages": [
					"activator"
				],
				"_excludePages": []
			}
		},
		
		"developer": {
			"body": "<p>In order to make a YourTurn in Hybrid, you will need to have this be the <strong>first</strong> component in the block. It will <em>automatically</em> nest all other YT components in the block within itself when the content it run.</p><p>In summary, a YourTurn block wil always have exactly <u>one</u> of these.</p>",
			"json": {
				"components": [
					{
						"_desc": "Default (only) layout",
						"_items": [
							{
								"_id": "",
								"_parentId": "b-X",
								"_component": "hyb-yourturn",
								"_classes": "",

								"_background":	{
									"src": "course/en/images/b-X/pic-0.jpg",
									"color": "#ffffff",
									"opacity":		1,
									"_offset": 		0
								},

								"title": "XXX",
								"body": "<<<XXX>>>",
								"instruction": "Click start to begin.",
								"_invertColor": false,

								"_grid": {
									"_areas": [
										["", "", ""],
										["", "", "s30"],
										["", "", ""]
									],
									"_customs": [
									
									]
								},
								
								"<<<~": "",
								"_layout": "full",
								"_type": "component",
								"~>>>": ""
							}
						]
					}
				],
				"properties": {
				}
			}
		}
	}
}