<?xml version="1.0" encoding="utf-8"?>
<!-- Generator: Adobe Illustrator 27.1.0, SVG Export Plug-In . SVG Version: 6.00 Build 0)  -->
<svg version="1.1" id="Layer_1" xmlns="http://www.w3.org/2000/svg" xmlns:xlink="http://www.w3.org/1999/xlink" x="0px" y="0px"
	 viewBox="0 0 1200 608" style="enable-background:new 0 0 1200 608;" xml:space="preserve">
<style type="text/css">
	.st0{fill:#FFFFFF;stroke:#000000;stroke-width:2.8346;stroke-miterlimit:10;}
	.st1{fill:none;stroke:#232323;stroke-width:5.6693;stroke-linecap:round;stroke-linejoin:round;stroke-miterlimit:10;}
</style>
<g>
	<rect x="80.3" y="160.2" class="st0" width="307.9" height="95.4"/>
	<g>
		<path class="st1" d="M107.2,217.9c7.9,0,7.9,10.6,15.9,10.6c7.9,0,7.9-10.6,15.9-10.6c7.9,0,7.9,10.6,15.9,10.6
			c8,0,7.9-10.6,15.9-10.6c7.9,0,7.9,10.6,15.9,10.6c4.3,0,6.3-3.2,8.4-6"/>
		<path class="st1" d="M107.2,185.7c7.9,0,7.9,10.6,15.9,10.6c7.9,0,7.9-10.6,15.9-10.6c7.9,0,7.9,10.6,15.9,10.6
			c8,0,7.9-10.6,15.9-10.6c7.9,0,7.9,10.6,15.9,10.6c7.9,0,7.9-10.6,15.9-10.6c7.9,0,7.9,10.6,15.9,10.6c7.9,0,7.9-10.6,15.9-10.6
			c7.9,0,7.9,10.6,15.9,10.6c7.9,0,7.9-10.6,15.9-10.6c7.9,0,7.9,10.6,15.9,10.6c7.9,0,7.9-10.6,15.9-10.6c7.9,0,7.9,10.6,15.9,10.6
			c7.9,0,7.9-10.6,15.9-10.6c8,0,7.9,10.6,15.9,10.6s7.9-10.6,15.9-10.6"/>
		<path class="st1" d="M336.4,222.6c2.1,2.9,4.1,6,8.4,6c7.9,0,7.9-10.6,15.9-10.6"/>
		<path class="st1" d="M209.6,222.6c2.1,2.9,4.1,6,8.4,6c7.9,0,7.9-10.6,15.9-10.6c7.9,0,7.9,10.6,15.9,10.6
			c7.9,0,7.9-10.6,15.9-10.6c7.9,0,7.9,10.6,15.9,10.6c7.9,0,7.9-10.6,15.9-10.6c7.9,0,7.9,10.6,15.9,10.6c4.3,0,6.3-3.2,8.4-6"/>
	</g>
</g>
<path d="M298.5,364.5c-1.1-5.5-2.8-11.2-9.8-12.7c1.6-1.7,3.3-3,4.2-4.7c0.7-1.1,1.1-2.2,1.3-3.4c1.4-1.6,3.3-4.6,3.2-6.6
	c0-1.2-0.4-2.5-0.1-3.7c0.9-3.8,0.3-7.5-0.9-11.2c-0.1-0.5-0.1-1.2,0-1.7c0-0.8,0.4-1.6,0.1-2.2c-0.7-2.1-1.3-4.2-2.4-6
	c-1.7-3.3-3.8-6-7.6-7.1c-0.4-0.1-0.8-0.4-1.2-0.7c0.3-0.5,0.5-0.9,0.8-1.3c2.5-4.1,4.7-8.3,5.1-13.1c0.3-2.4-0.9-3.4-3.3-2.8
	c-0.5,0.1-1.2,0.5-1.7,0.8c-3.2,2-6.3,3.9-9.6,5.8c-0.4,0.3-1.2,0.3-1.4,0c-3.4-3.4-8-4.6-12.2-6.3c-6.3-2.6-12.7-3.2-19.6-2.4
	c-5.9,0.8-11.6,2.5-16.5,5.9c-1.1,0.8-1.8,0.4-2.8-0.1c-2.9-1.8-5.8-3.7-8.8-5.5c-1.2-0.8-3.2-0.5-3.4,0.4c-0.5,1.6-1.6,3.2-0.8,5.1
	c0.5,1.3,0.7,2.6-0.5,3.8c-0.4,0.4-0.5,1.4-0.4,2.1c0.4,3.3,2.2,5.9,4.2,8.4c0.8,1.1,0.5,1.7-0.3,2.4c-1.4,1.4-3.2,2.8-4.3,4.5
	c-1.2,1.6-2.6,3.5-2.5,5.4c0,1.6-0.3,2.8-0.8,4.2c-0.4,1.1-0.8,2.2-0.9,3.3c-0.3,1.3-0.3,2.8-0.4,4.1c-0.1,1.7-0.3,3.4-0.1,5.1
	c0.1,1.3,0.5,2.6,0.7,3.5c-3.5,1.8-6.8,3.5-10,5.3c-0.8,0.5-1.3,1.4-2.2,1.8c-7,3.9-13.4,8.3-18.2,14.8c-2.8,3.7-4.9,7.6-6.3,11.9
	c-0.3,0.9,0.3,2.2,0.4,3.3c0,0.4,0.1,0.9,0,1.3c-0.8,2-1.7,3.9-2.4,5.9c-0.4,1.2-1.1,2.6-0.9,3.8c0.3,1.4-0.3,2.2-1.3,3
	c-2.8,2.1-5.8,4.1-7.4,7.4c-0.3,0.8-0.3,1.6-0.4,2.5c0.8,0.1,1.7,0.4,2.5,0.1c1.3-0.4,2.5-0.9,3.7-1.4c-1.4,2.6-2.9,5.4-4.3,8
	c-2,3.4-4.1,6.7-5.9,10.2c-2.8,5.4-5.1,10.9-7.7,16.3c-3,6.4-5.9,12.9-8.8,19.3c-1.1,2.4-0.9,2.5,1.4,3.2c0.1,2.2,0.3,4.6,0.4,6.8
	c0.1,1.7,1.4,2.8,3.2,2.2c0.8-0.3,1.4-0.5,2.2-0.8c3.7-1.6,6.6-4.2,9.5-6.7c2-1.7,3.9-2.5,6.6-2.5c5-0.1,10-0.3,14.8-1.8
	c2.1-0.7,4.2-1.4,6.3-2.2c-0.1,2.5,0.4,3.2,2.5,3.4c0.5,0.1,1.1,0.1,1.4,0c4.2-0.4,8.3-1.4,12.2-3.3c0.4-0.1,0.8-0.3,1.3-0.5
	c-0.1,0.4-0.1,0.5-0.3,0.7c-1.1,1.7-0.8,2.1,1.3,2.4c2.5,0.3,4.6-0.4,6.6-2c1.2-0.9,2.6-1.6,3.8-2.2c0,1.2,0,2.1,0,3.2
	c1.1-0.1,2.2,0.1,3.3-0.3c1.4-0.4,2.8-1.3,4.1-2c0.1,1.1,0.3,2.1,0.4,3.3s0.8,1.4,1.8,1.3c2-0.1,3.3-1.2,4.1-2.9
	c0.3-0.7,0.7-1.4,0.9-2.1c0.3,1.7,0.3,3.4,0.3,5c0,2,1.3,2.8,2.9,3.4c2.4,0.9,4.7,1.8,7.1,2.8c4.1,1.4,8,3.3,12.1,4.2
	c3.2,0.8,6.3,1.1,9.3,2.4c0.5,0.3,1.2,0.1,1.7,0.1c0-0.1,0.1-0.4,0.1-0.5c-1.3-1.4-2.8-2.9-4.3-4.6c2.6,0.3,4.5,2,6.7,1.6
	c0.1-0.1,0.3-0.3,0.3-0.5c-1.3-1.2-2.5-2.4-3.9-3.7c0.8-0.5,1.4-0.9,1.8-1.3c0.8,0.8,1.4,1.7,2.2,2c0.4,0.1,1.3-0.8,1.7-1.6
	c0.8-1.4,1.4-3,1.8-4.6c0.3-1.1,0.3-2.4,0-3.4c-0.8-3.5-6.4-5.8-8.9-5.1c0.9-2,2.4-3.8,2.9-5.8c0.7-2.8,3.4-2.6,5-3.9
	c0.3-0.3,0.7-0.4,1.1-0.8c0.9,1.2,1.1,1.2,2.2,0.4c3.9-2.6,7.2-5.9,9.2-10.4c0.5-1.2,0.8-2.8,2.8-2.2c0.3,0,0.7-0.4,0.9-0.7
	c5.1-5.5,8.5-11.8,10-19.3c0.3-1.3,0.4-2.8,0.7-3.5c0.9-0.3,1.6-0.1,1.8-0.5c1.6-1.8,2.9-3.9,3.2-6.6c0.3-3,0.4-6,0.7-9.1
	c0-0.5,0.1-1.3,0.4-1.4c1.8-0.7,2.2-2.2,2.4-3.7C298.6,373.2,299.3,368.7,298.5,364.5z"/>
<g>
	<rect x="456.4" y="158.1" class="st0" width="307.9" height="95.4"/>
	<g>
		<path class="st1" d="M483.4,215.8c7.9,0,7.9,10.6,15.9,10.6c7.9,0,7.9-10.6,15.9-10.6c7.9,0,7.9,10.6,15.9,10.6
			c8,0,7.9-10.6,15.9-10.6c7.9,0,7.9,10.6,15.9,10.6c4.3,0,6.3-3.2,8.4-6"/>
		<path class="st1" d="M483.4,183.5c7.9,0,7.9,10.6,15.9,10.6c7.9,0,7.9-10.6,15.9-10.6c7.9,0,7.9,10.6,15.9,10.6
			c8,0,7.9-10.6,15.9-10.6c7.9,0,7.9,10.6,15.9,10.6c7.9,0,7.9-10.6,15.9-10.6c7.9,0,7.9,10.6,15.9,10.6c7.9,0,7.9-10.6,15.9-10.6
			c7.9,0,7.9,10.6,15.9,10.6c7.9,0,7.9-10.6,15.9-10.6c7.9,0,7.9,10.6,15.9,10.6c7.9,0,7.9-10.6,15.9-10.6s7.9,10.6,15.9,10.6
			c7.9,0,7.9-10.6,15.9-10.6c7.9,0,7.9,10.6,15.9,10.6c8,0,7.9-10.6,15.9-10.6"/>
		<path class="st1" d="M712.4,220.5c2.1,2.9,4.1,6,8.4,6c7.9,0,7.9-10.6,15.9-10.6"/>
		<path class="st1" d="M585.8,220.5c2.1,2.9,4.1,6,8.4,6c7.9,0,7.9-10.6,15.9-10.6c7.9,0,7.9,10.6,15.9,10.6
			c7.9,0,7.9-10.6,15.9-10.6c7.9,0,7.9,10.6,15.9,10.6c7.9,0,7.9-10.6,15.9-10.6s7.9,10.6,15.9,10.6c4.3,0,6.3-3.2,8.4-6"/>
	</g>
</g>
<path d="M674.5,362.3c-1.1-5.5-2.8-11.2-9.8-12.7c1.6-1.7,3.3-3,4.2-4.7c0.7-1.1,1.1-2.2,1.3-3.4c1.4-1.6,3.3-4.6,3.2-6.6
	c0-1.2-0.4-2.5-0.1-3.7c0.9-3.8,0.3-7.5-0.9-11.2c-0.1-0.5-0.1-1.2,0-1.7c0-0.8,0.4-1.6,0.1-2.2c-0.7-2.1-1.3-4.2-2.4-6
	c-1.7-3.3-3.8-6-7.6-7.1c-0.4-0.1-0.8-0.4-1.2-0.7c0.3-0.5,0.5-0.9,0.8-1.3c2.5-4.1,4.7-8.3,5.1-13.1c0.3-2.4-0.9-3.4-3.3-2.8
	c-0.5,0.1-1.2,0.5-1.7,0.8c-3.2,2-6.3,3.9-9.6,5.8c-0.4,0.3-1.2,0.3-1.4,0c-3.4-3.4-8-4.6-12.2-6.3c-6.3-2.6-12.7-3.2-19.6-2.4
	c-5.9,0.8-11.6,2.5-16.5,5.9c-1.1,0.8-1.8,0.4-2.8-0.1c-2.9-1.8-5.8-3.7-8.8-5.5c-1.2-0.8-3.2-0.5-3.4,0.4c-0.5,1.6-1.6,3.2-0.8,5.1
	c0.5,1.3,0.7,2.6-0.5,3.8c-0.4,0.4-0.5,1.4-0.4,2.1c0.4,3.3,2.2,5.9,4.2,8.4c0.8,1.1,0.5,1.7-0.3,2.4c-1.4,1.4-3.2,2.8-4.3,4.5
	c-1.2,1.6-2.6,3.5-2.5,5.4c0,1.6-0.3,2.8-0.8,4.2c-0.4,1.1-0.8,2.2-0.9,3.3c-0.3,1.3-0.3,2.8-0.4,4.1c-0.1,1.7-0.3,3.4-0.1,5.1
	c0.1,1.3,0.5,2.6,0.7,3.5c-3.5,1.8-6.8,3.5-10,5.3c-0.8,0.5-1.3,1.4-2.2,1.8c-7,3.9-13.4,8.3-18.2,14.8c-2.8,3.7-4.9,7.6-6.3,11.9
	c-0.3,0.9,0.3,2.2,0.4,3.3c0,0.4,0.1,0.9,0,1.3c-0.8,2-1.7,3.9-2.4,5.9c-0.4,1.2-1.1,2.6-0.9,3.8c0.3,1.4-0.3,2.2-1.3,3
	c-2.8,2.1-5.8,4.1-7.4,7.4c-0.3,0.8-0.3,1.6-0.4,2.5c0.8,0.1,1.7,0.4,2.5,0.1c1.3-0.4,2.5-0.9,3.7-1.4c-1.4,2.6-2.9,5.4-4.3,8
	c-2,3.4-4.1,6.7-5.9,10.2c-2.8,5.4-5.1,10.9-7.7,16.3c-3,6.4-5.9,12.9-8.8,19.3c-1.1,2.4-0.9,2.5,1.4,3.2c0.1,2.2,0.3,4.6,0.4,6.8
	c0.1,1.7,1.4,2.8,3.2,2.2c0.8-0.3,1.4-0.5,2.2-0.8c3.7-1.6,6.6-4.2,9.5-6.7c2-1.7,3.9-2.5,6.6-2.5c5-0.1,10-0.3,14.8-1.8
	c2.1-0.7,4.2-1.4,6.3-2.2c-0.1,2.5,0.4,3.2,2.5,3.4c0.5,0.1,1.1,0.1,1.4,0c4.2-0.4,8.3-1.4,12.2-3.3c0.4-0.1,0.8-0.3,1.3-0.5
	c-0.1,0.4-0.1,0.5-0.3,0.7c-1.1,1.7-0.8,2.1,1.3,2.4c2.5,0.3,4.6-0.4,6.6-2c1.2-0.9,2.6-1.6,3.8-2.2c0,1.2,0,2.1,0,3.2
	c1.1-0.1,2.2,0.1,3.3-0.3c1.4-0.4,2.8-1.3,4.1-2c0.1,1.1,0.3,2.1,0.4,3.3c0.1,1.2,0.8,1.4,1.8,1.3c2-0.1,3.3-1.2,4.1-2.9
	c0.3-0.7,0.7-1.4,0.9-2.1c0.3,1.7,0.3,3.4,0.3,5c0,2,1.3,2.8,2.9,3.4c2.4,0.9,4.7,1.8,7.1,2.8c4.1,1.4,8,3.3,12.1,4.2
	c3.2,0.8,6.3,1.1,9.3,2.4c0.5,0.3,1.2,0.1,1.7,0.1c0-0.1,0.1-0.4,0.1-0.5c-1.3-1.4-2.8-2.9-4.3-4.6c2.6,0.3,4.5,2,6.7,1.6
	c0.1-0.1,0.3-0.3,0.3-0.5c-1.3-1.2-2.5-2.4-3.9-3.7c0.8-0.5,1.4-0.9,1.8-1.3c0.8,0.8,1.4,1.7,2.2,2c0.4,0.1,1.3-0.8,1.7-1.6
	c0.8-1.4,1.4-3,1.8-4.6c0.3-1.1,0.3-2.4,0-3.4c-0.8-3.5-6.4-5.8-8.9-5.1c0.9-2,2.4-3.8,2.9-5.8c0.7-2.8,3.4-2.6,5-3.9
	c0.3-0.3,0.7-0.4,1.1-0.8c0.9,1.2,1.1,1.2,2.2,0.4c3.9-2.6,7.2-5.9,9.2-10.4c0.5-1.2,0.8-2.8,2.8-2.2c0.3,0,0.7-0.4,0.9-0.7
	c5.1-5.5,8.5-11.8,10-19.3c0.3-1.3,0.4-2.8,0.7-3.5c0.9-0.3,1.6-0.1,1.8-0.5c1.6-1.8,2.9-3.9,3.2-6.6c0.3-3,0.4-6,0.7-9.1
	c0-0.5,0.1-1.3,0.4-1.4c1.8-0.7,2.2-2.2,2.4-3.7C674.8,371.1,675.3,366.6,674.5,362.3z"/>
<g>
	<rect x="811.8" y="158.1" class="st0" width="307.9" height="95.4"/>
	<g>
		<path class="st1" d="M838.7,215.8c7.9,0,7.9,10.6,15.9,10.6c7.9,0,7.9-10.6,15.9-10.6s7.9,10.6,15.9,10.6
			c7.9,0,7.9-10.6,15.9-10.6c8,0,7.9,10.6,15.9,10.6c4.3,0,6.3-3.2,8.4-6"/>
		<path class="st1" d="M838.7,183.5c7.9,0,7.9,10.6,15.9,10.6c7.9,0,7.9-10.6,15.9-10.6s7.9,10.6,15.9,10.6
			c7.9,0,7.9-10.6,15.9-10.6c8,0,7.9,10.6,15.9,10.6c7.9,0,7.9-10.6,15.9-10.6s7.9,10.6,15.9,10.6c7.9,0,7.9-10.6,15.9-10.6
			s7.9,10.6,15.9,10.6c7.9,0,7.9-10.6,15.9-10.6s7.9,10.6,15.9,10.6c7.9,0,7.9-10.6,15.9-10.6c8,0,7.9,10.6,15.9,10.6
			c7.9,0,7.9-10.6,15.9-10.6c7.9,0,7.9,10.6,15.9,10.6c8,0,7.9-10.6,15.9-10.6"/>
		<path class="st1" d="M1068,220.5c2.1,2.9,4.1,6,8.4,6c7.9,0,7.9-10.6,15.9-10.6"/>
		<path class="st1" d="M941.3,220.5c2.1,2.9,4.1,6,8.4,6c7.9,0,7.9-10.6,15.9-10.6s7.9,10.6,15.9,10.6c7.9,0,7.9-10.6,15.9-10.6
			s7.9,10.6,15.9,10.6c7.9,0,7.9-10.6,15.9-10.6c8,0,7.9,10.6,15.9,10.6c4.3,0,6.3-3.2,8.4-6"/>
	</g>
</g>
<path d="M1030,362.3c-1.1-5.5-2.8-11.2-9.8-12.7c1.6-1.7,3.3-3,4.2-4.7c0.7-1.1,1.1-2.2,1.3-3.4c1.4-1.6,3.3-4.6,3.2-6.6
	c0-1.2-0.4-2.5-0.1-3.7c0.9-3.8,0.3-7.5-0.9-11.2c-0.1-0.5-0.1-1.2,0-1.7c0-0.8,0.4-1.6,0.1-2.2c-0.7-2.1-1.3-4.2-2.4-6
	c-1.7-3.3-3.8-6-7.6-7.1c-0.4-0.1-0.8-0.4-1.2-0.7c0.3-0.5,0.5-0.9,0.8-1.3c2.5-4.1,4.7-8.3,5.1-13.1c0.3-2.4-0.9-3.4-3.3-2.8
	c-0.5,0.1-1.2,0.5-1.7,0.8c-3.2,2-6.3,3.9-9.6,5.8c-0.4,0.3-1.2,0.3-1.4,0c-3.4-3.4-8-4.6-12.2-6.3c-6.3-2.6-12.7-3.2-19.6-2.4
	c-5.9,0.8-11.6,2.5-16.5,5.9c-1.1,0.8-1.8,0.4-2.8-0.1c-2.9-1.8-5.8-3.7-8.8-5.5c-1.2-0.8-3.2-0.5-3.4,0.4c-0.5,1.6-1.6,3.2-0.8,5.1
	c0.5,1.3,0.7,2.6-0.5,3.8c-0.4,0.4-0.5,1.4-0.4,2.1c0.4,3.3,2.2,5.9,4.2,8.4c0.8,1.1,0.5,1.7-0.3,2.4c-1.4,1.4-3.2,2.8-4.3,4.5
	c-1.2,1.6-2.6,3.5-2.5,5.4c0,1.6-0.3,2.8-0.8,4.2c-0.4,1.1-0.8,2.2-0.9,3.3c-0.3,1.3-0.3,2.8-0.4,4.1c-0.1,1.7-0.3,3.4-0.1,5.1
	c0.1,1.3,0.5,2.6,0.7,3.5c-3.5,1.8-6.8,3.5-10,5.3c-0.8,0.5-1.3,1.4-2.2,1.8c-7,3.9-13.4,8.3-18.2,14.8c-2.8,3.7-4.9,7.6-6.3,11.9
	c-0.3,0.9,0.3,2.2,0.4,3.3c0,0.4,0.1,0.9,0,1.3c-0.8,2-1.7,3.9-2.4,5.9c-0.4,1.2-1.1,2.6-0.9,3.8c0.3,1.4-0.3,2.2-1.3,3
	c-2.8,2.1-5.8,4.1-7.4,7.4c-0.3,0.8-0.3,1.6-0.4,2.5c0.8,0.1,1.7,0.4,2.5,0.1c1.3-0.4,2.5-0.9,3.7-1.4c-1.4,2.6-2.9,5.4-4.3,8
	c-2,3.4-4.1,6.7-5.9,10.2c-2.8,5.4-5.1,10.9-7.7,16.3c-3,6.4-5.9,12.9-8.8,19.3c-1.1,2.4-0.9,2.5,1.4,3.2c0.1,2.2,0.3,4.6,0.4,6.8
	c0.1,1.7,1.4,2.8,3.2,2.2c0.8-0.3,1.4-0.5,2.2-0.8c3.7-1.6,6.6-4.2,9.5-6.7c2-1.7,3.9-2.5,6.6-2.5c5-0.1,10-0.3,14.8-1.8
	c2.1-0.7,4.2-1.4,6.3-2.2c-0.1,2.5,0.4,3.2,2.5,3.4c0.5,0.1,1.1,0.1,1.4,0c4.2-0.4,8.3-1.4,12.2-3.3c0.4-0.1,0.8-0.3,1.3-0.5
	c-0.1,0.4-0.1,0.5-0.3,0.7c-1.1,1.7-0.8,2.1,1.3,2.4c2.5,0.3,4.6-0.4,6.6-2c1.2-0.9,2.6-1.6,3.8-2.2c0,1.2,0,2.1,0,3.2
	c1.1-0.1,2.2,0.1,3.3-0.3c1.4-0.4,2.8-1.3,4.1-2c0.1,1.1,0.3,2.1,0.4,3.3c0.1,1.2,0.8,1.4,1.8,1.3c2-0.1,3.3-1.2,4.1-2.9
	c0.3-0.7,0.7-1.4,0.9-2.1c0.3,1.7,0.3,3.4,0.3,5c0,2,1.3,2.8,2.9,3.4c2.4,0.9,4.7,1.8,7.1,2.8c4.1,1.4,8,3.3,12.1,4.2
	c3.2,0.8,6.3,1.1,9.3,2.4c0.5,0.3,1.2,0.1,1.7,0.1c0-0.1,0.1-0.4,0.1-0.5c-1.3-1.4-2.8-2.9-4.3-4.6c2.6,0.3,4.5,2,6.7,1.6
	c0.1-0.1,0.3-0.3,0.3-0.5c-1.3-1.2-2.5-2.4-3.9-3.7c0.8-0.5,1.4-0.9,1.8-1.3c0.8,0.8,1.4,1.7,2.2,2c0.4,0.1,1.3-0.8,1.7-1.6
	c0.8-1.4,1.4-3,1.8-4.6c0.3-1.1,0.3-2.4,0-3.4c-0.8-3.5-6.4-5.8-8.9-5.1c0.9-2,2.4-3.8,2.9-5.8c0.7-2.8,3.4-2.6,5-3.9
	c0.3-0.3,0.7-0.4,1.1-0.8c0.9,1.2,1.1,1.2,2.2,0.4c3.9-2.6,7.2-5.9,9.2-10.4c0.5-1.2,0.8-2.8,2.8-2.2c0.3,0,0.7-0.4,0.9-0.7
	c5.1-5.5,8.5-11.8,10-19.3c0.3-1.3,0.4-2.8,0.7-3.5c0.9-0.3,1.6-0.1,1.8-0.5c1.6-1.8,2.9-3.9,3.2-6.6c0.3-3,0.4-6,0.7-9.1
	c0-0.5,0.1-1.3,0.4-1.4c1.8-0.7,2.2-2.2,2.4-3.7C1030.3,371.1,1030.8,366.6,1030,362.3z"/>
</svg>
