{
	"name": "HYB - Fonts (custom/utility)",
	"subName": "",
	"type": "template",
	"tags": [
		"image-large",
		"text-medium",
		"text-large"
	],
	"components": {

		"preview": {
			"_examples": [
				{
					"title": "NONE",
					"_url": "narrative-1"
				}
			]
		},
		"description": {
			"body": "DESCRIPTION TBA.",
			"_examples": [
			]
		},
		"modularity": {
			"body": "MODULARITY TBA.",
			"_parents": {
				"_includeTags": [],
				"_excludeTags": [],
				"_includePages": [
					"activator"
				],
				"_excludePages": []
			}
		},

		"word": {
			"_items": [
				{
					"_header": {
						"_isEnabled": 	true,
						"tn": 			"",
						"notes": 		""
					},
	
					"_comment": 	"",
					"title":		"Title",
					"body":			"WORD TEMPLATE TBA.",
					"instruction":	"",
					"content":		""
				}
			]
		},
		
		"developer": {
			"body": "<p>Sometimes, you may need to tweak the font (text) in Hybrid slightly. For this, we have the following classes available:</p><p>Please note, these are all <strong>customs</strong>. These should <strong><u>only</u></strong> be used when explicitly asked for in the ID / <strong><u>as a last resort</u></strong> when text doesn't fit.</p><table class=\"table--commoncontent\"><tr><th>Class</th><th>Effect</th></tr><tr><td><code>u-font-medium</code></td><td>Makes the font <span style=\"font-size: 15px;\">smaller</span> by 1px.</td></tr><tr><td><code>u-font-small</code></td><td>Makes the font <span style=\"font-size: 14px;\">smaller</span> by 2px.</td></tr><tr><td><code>u-font-cursive</code></td><td>Makes the font appear <span style=\"font-family: cursive;\">cursive</span>. Use to simulate handwritten text.</td></tr></table>",
			"json": {
				"components": [
				],
				"properties": {
					"_background": {
						"_isOptional": false
					},
					"sectionBanner": {
						"_isOptional": false,
						"_desc": "This text will appear in a blue box in the top-left corner of the screen."
					}
				}
			}
		}
	}
}