{
	"name": "HYB - Static",
	"subName": "",
	"type": "template",
	"tags": [
		"image-large",
		"text-medium",
		"text-large"
	],
	"components": {

		"preview": {
			"_examples": [
				{
					"title": "NONE",
					"_url": "narrative-1"
				}
			]
		},
		"description": {
			"body": "DESCRIPTION TBA.",
			"_examples": [
			]
		},
		"modularity": {
			"body": "MODULARITY TBA.",
			"_parents": {
				"_includeTags": [],
				"_excludeTags": [],
				"_includePages": [
					"activator"
				],
				"_excludePages": []
			}
		},

		"word": {
			"_items": [
				{
					"_header": {
						"_isEnabled": 	true,
						"tn": 			"",
						"cost":			true,
						"notes": 		"{{#w-yellow}}{{#id-img}}{{/id-img}}{{/w-yellow}}",
						"map":			true
					},
	
					"_comment": 	"",
					"title":		"Title",
					"body":			"{{#id-standup-text}}{{/id-standup-text}}",
					"instruction":	"",
					"content":		""
				}
			]
		},
		
		"developer": {
			"body": "<p>Standard title + text template. You can give it a background image and/or a graphic if you want (both are optional). Feel free to change the grid layout to suit the content.</p><p>If you ever need a custom reveal in another template, nest this one.</p>",
			"json": {
				"blocks": [
					{
						"_desc": "Define your <u>block</u> with this (<em>use this for all templates unless otherwise specified</em>).",
						"_items": [
							{
								"_id": "b-X",
								"_parentId": "a-X",
								"_classes": "",
								"<<<~": "",
								"_trackingId": 0,
								"_type": "block",
								"~>>>": ""
							}
						]
					}
				],
				"components": [
					{
						"_desc": "Text on with background image.",
						"_items": [
							{
								"_id": "",
								"_parentId": "b-X",
								"_component": "hyb-static",
								"_classes": "",
								
								"_background":	{
									"_isEnabled": true,
									"src": "course/en/images/b-X/pic-0.jpg",
									"color": "#ffffff",
									"body": ""
								},

								"title": "XXX",
								"body": "<<<XXX>>>",
								"_invertColor": false,

								"_grid": {
									"_areas": [
										["", "", ""],
										["s20", "", ""],
										["", "", ""]
									],
									"_customs": [
									
									]
								},
								
								"<<<~": "",
								"_layout": "full",
								"_type": "component",
								"~>>>": ""
							}
						]
					},
					{
						"_desc": "Text with graphic (use if you have an isolated image for standup).",
						"_items": [
							{
								"_id": "",
								"_parentId": "b-X",
								"_component": "hyb-static",
								"_classes": "",

								"title": "XXX",
								"body": "<<<XXX>>>",
								"_invertColor": false,

								"_graphic": {
									"src": 		"course/en/images/b-X/pic-0.jpg",
									"_theme":	""
								},

								"_grid": {
									"_areas": [
										["", "", ""],
										["s35", "w50", ""],
										["", "", ""]
									],
									"_customs": [
									
									]
								},
								
								"<<<~": "",
								"_layout": "full",
								"_type": "component",
								"~>>>": ""
							}
						]
					},
					{
						"_desc": "Text with custom HTML (table/diagram/etc.).",
						"_items": [
							{
								"_id": "",
								"_parentId": "b-X",
								"_component": "hyb-static",
								"_classes": "",

								"title": "XXX",
								"body": "<<<XXX>>>",
								"_invertColor": false,
								
								"_grid": {
									"_areas": [
										["", "", ""],
										["s35", "a50", ""],
										["", "", ""]
									],
									"_customs": [
										{
											"body": "<<<XXX>>>"
										}
									]
								},
								
								"<<<~": "",
								"_layout": "full",
								"_type": "component",
								"~>>>": ""
							}
						]
					}
				],
				"properties": {
					"_graphic": {
						"_header": "Widget",
						"_isOptional": true
					}
				}
			}
		}
	}
}