{
  "_isHidden": true,
  "_isEnabled": false,
  "name":    "YT - Waldo",
  "subName": "",
  "type": "template-yt",
  "tags": [
    "text-small",
    "text-medium",
    "text-large",
    "button",
    "image-large",
    "image-small",
    "activity"
  ],
  "components": {

    "preview": {
      "layouts": [
        {
          "title":      "",
          "hasLabels":  true
        }
      ]
    },

    "description": {
      "body": "A YT version of the Waldo template. User must find X amount of items in a larger image to complete."
    },

    "modularity": {
      "_parents": {
        "_includeTags": [],
        "_excludeTags": [],
        "_includePages": [],
        "_excludePages": []
      }
    },

    "word": { 
    },

    "json": { 
    } 
  }
}