<?xml version="1.0" encoding="utf-8"?>
<!-- Generator: Adobe Illustrator 26.3.1, SVG Export Plug-In . SVG Version: 6.00 Build 0)  -->
<svg version="1.1" id="Layer_1" xmlns="http://www.w3.org/2000/svg" xmlns:xlink="http://www.w3.org/1999/xlink" x="0px" y="0px"
	 viewBox="0 0 1200 608" style="enable-background:new 0 0 1200 608;" xml:space="preserve">
<style type="text/css">
	.st0{opacity:0.8;}
	.st1{clip-path:url(#SVGID_00000016045580262614539950000017618253333263620485_);fill:#FFFFFF;}
	.st2{fill:none;stroke:#000000;stroke-width:4.252;stroke-miterlimit:10;}
	.st3{fill:none;stroke:#232323;stroke-width:5.6693;stroke-linecap:round;stroke-linejoin:round;stroke-miterlimit:10;}
	.st4{fill:#A3A3A3;}
	.st5{clip-path:url(#SVGID_00000013183097294215352830000002887969271746032533_);fill:#DDDDDD;}
	.st6{clip-path:url(#SVGID_00000145751350393151950290000009178129571563316882_);fill:#FFFFFF;}
	.st7{clip-path:url(#SVGID_00000150059960868027523320000002453297384604064409_);fill:#A3A3A3;}
	.st8{clip-path:url(#SVGID_00000005956979503316292240000001231439915001100181_);fill:#BFBFBF;}
	.st9{clip-path:url(#SVGID_00000145770063613778557140000001674559659009802912_);fill:#D1D1D1;}
</style>
<g class="st0">
	<g>
		<g>
			<g>
				<g>
					<g>
						<defs>
							<rect id="SVGID_1_" x="448.7" y="63.5" width="689.8" height="480.1"/>
						</defs>
						<clipPath id="SVGID_00000118378852538259565590000002459836617685055668_">
							<use xlink:href="#SVGID_1_"  style="overflow:visible;"/>
						</clipPath>
						
							<circle style="clip-path:url(#SVGID_00000118378852538259565590000002459836617685055668_);fill:#FFFFFF;" cx="893.8" cy="209" r="49.2"/>
					</g>
				</g>
			</g>
		</g>
	</g>
	<rect x="448.7" y="63.5" class="st2" width="689.8" height="480.1"/>
</g>
<g>
	<g>
		<path class="st3" d="M487.9,368c19.5,0,19.5,10.3,38.7,10.3c19.2,0,19.2-10.3,38.7-10.3s19.5,10.3,38.7,10.3s19.5-10.3,38.7-10.3
			s19.2,10.3,38.7,10.3c10.5,0,15.3-3,20.7-5.9"/>
		<path class="st3" d="M487.9,399.2c19.5,0,19.5,10.3,38.7,10.3c19.2,0,19.2-10.3,38.7-10.3c8.1,0,12.6,1.7,16.8,3.8"/>
		<path class="st3" d="M487.9,461.7c19.5,0,19.5,10.3,38.7,10.3c19.2,0,19.2-10.3,38.7-10.3s19.5,10.3,38.7,10.3
			c2.7,0,5.1-0.2,7.2-0.6"/>
		<path class="st3" d="M487.9,336.6c19.5,0,19.5,10.5,38.7,10.5c19.2,0,19.2-10.5,38.7-10.5s19.5,10.5,38.7,10.5
			s19.5-10.5,38.7-10.5s19.2,10.5,38.7,10.5s19.5-10.5,38.7-10.5c19.5,0,19.5,10.5,38.7,10.5s19.5-10.5,38.7-10.5
			c19.2,0,19.2,10.5,38.7,10.5s19.5-10.5,38.7-10.5c19.5,0,19.5,10.5,38.7,10.5s19.5-10.5,38.7-10.5s19.2,10.5,38.7,10.5
			c19.5,0,19.5-10.5,38.7-10.5c19.5,0,19.5,10.5,38.7,10.5s19.5-10.5,38.7-10.5"/>
		<path class="st3" d="M1047.3,372.4c5.4,2.9,10.2,5.9,20.4,5.9c19.5,0,19.5-10.3,38.7-10.3"/>
		<path class="st3" d="M738,372.4c5.4,2.9,10.2,5.9,20.7,5.9c19.5,0,19.5-10.3,38.7-10.3c19.5,0,19.5,10.3,38.7,10.3
			s19.2-10.3,38.7-10.3c19.5,0,19.5,10.3,38.7,10.3s19.5-10.3,38.7-10.3c19.5,0,19.5,10.3,38.7,10.3c10.5,0,15.3-3,20.4-5.9"/>
		<path class="st3" d="M934.1,403.4c4.2-2.2,9-4.3,17.7-4.3c19.5,0,19.5,10.3,38.7,10.3c19.5,0,19.5-10.3,38.7-10.3
			s19.5,10.3,38.7,10.3c19.2,0,19.2-10.3,38.7-10.3"/>
		<path class="st3" d="M624.8,403.4c4.5-2.2,9.3-4.3,17.7-4.3c19.5,0,19.5,10.3,38.7,10.3c19.5,0,19.5-10.3,38.7-10.3
			c19.2,0,19.5,10.3,38.7,10.3s19.2-10.3,38.7-10.3c19.5,0,19.5,10.3,38.7,10.3c19.5,0,19.5-10.3,38.7-10.3c8.1,0,12.6,1.7,16.8,3.8
			"/>
		<path class="st3" d="M487.9,430.5c19.5,0,19.5,10.3,38.7,10.3c19.2,0,19.2-10.3,38.7-10.3s19.5,10.3,38.7,10.3
			s19.5-10.3,38.7-10.3s19.2,10.3,38.7,10.3s19.5-10.3,38.7-10.3c19.5,0,19.5,10.3,38.7,10.3s19.5-10.3,38.7-10.3
			c19.2,0,19.2,10.3,38.7,10.3s19.5-10.3,38.7-10.3c19.5,0,19.5,10.3,38.7,10.3s19.5-10.3,38.7-10.3s19.2,10.3,38.7,10.3
			c19.5,0,19.5-10.3,38.7-10.3c19.5,0,19.5,10.3,38.7,10.3s19.5-10.3,38.7-10.3"/>
		<path class="st3" d="M487.9,493.1c19.5,0,19.5,10.3,38.7,10.3c19.2,0,19.2-10.3,38.7-10.3s19.5,10.3,38.7,10.3
			s19.5-10.3,38.7-10.3s19.2,10.3,38.7,10.3s19.5-10.3,38.7-10.3c19.5,0,19.5,10.3,38.7,10.3s19.5-10.3,38.7-10.3
			c19.2,0,19.2,10.3,38.7,10.3s19.5-10.3,38.7-10.3c19.5,0,19.5,10.3,38.7,10.3s19.5-10.3,38.7-10.3s19.2,10.3,38.7,10.3
			c19.5,0,19.5-10.3,38.7-10.3c19.5,0,19.5,10.3,38.7,10.3s19.5-10.3,38.7-10.3"/>
		<path class="st3" d="M946.1,462c1.5-0.2,3.6-0.3,5.7-0.3c19.5,0,19.5,10.3,38.7,10.3c19.5,0,19.5-10.3,38.7-10.3
			s19.5,10.3,38.7,10.3c19.2,0,19.2-10.3,38.7-10.3"/>
		<path class="st3" d="M636.8,462c1.8-0.2,3.6-0.3,5.7-0.3c19.5,0,19.5,10.3,38.7,10.3c19.5,0,19.5-10.3,38.7-10.3
			c19.2,0,19.5,10.3,38.7,10.3s19.2-10.3,38.7-10.3c19.5,0,19.5,10.3,38.7,10.3c19.5,0,19.5-10.3,38.7-10.3s19.5,10.3,38.7,10.3
			c2.7,0,5.1-0.2,7.2-0.6"/>
	</g>
</g>
<g>
	<path class="st3" d="M45.5,107c10.9,0,10.9,11,21.7,11c10.9,0,10.9-11,21.7-11c10.9,0,10.9,11,21.7,11s10.9-11,21.7-11
		s10.9,11,21.7,11c5.9,0,8.6-3.2,11.5-6.2"/>
	<path class="st3" d="M45.5,140.2c10.9,0,10.9,11,21.7,11c10.9,0,10.9-11,21.7-11c4.5,0,7.2,1.9,9.4,4.1"/>
	<path class="st3" d="M45.5,206.7c10.9,0,10.9,11,21.7,11c10.9,0,10.9-11,21.7-11c10.9,0,10.9,11,21.7,11c1.5,0,2.9-0.3,4-0.6"/>
	<path class="st3" d="M45.5,73.8c10.9,0,10.9,11,21.7,11c10.9,0,10.9-11,21.7-11c10.9,0,10.9,11,21.7,11s10.9-11,21.7-11
		s10.9,11,21.7,11c10.9,0,10.9-11,21.7-11c10.9,0,10.9,11,21.7,11c10.9,0,10.9-11,21.7-11c10.9,0,10.9,11,21.7,11s10.9-11,21.7-11
		c10.9,0,10.9,11,21.7,11s10.9-11,21.7-11c10.9,0,10.9,11,21.7,11c10.9,0,10.9-11,21.7-11s10.9,11,21.7,11s10.9-11,21.7-11"/>
	<path class="st3" d="M358.9,111.8c2.9,2.9,5.6,6.2,11.5,6.2c10.9,0,10.9-11,21.7-11"/>
	<path class="st3" d="M185.6,111.8c2.9,2.9,5.6,6.2,11.5,6.2c10.9,0,10.9-11,21.7-11c10.9,0,10.9,11,21.7,11c10.9,0,10.9-11,21.7-11
		c10.9,0,10.9,11,21.7,11c10.9,0,10.9-11,21.7-11s10.9,11,21.7,11c5.9,0,8.6-3.2,11.5-6.2"/>
	<path class="st3" d="M295.5,144.8c2.4-2.4,5.1-4.5,9.9-4.5c10.9,0,10.9,11,21.7,11s10.9-11,21.7-11c10.9,0,10.9,11,21.7,11
		s10.9-11,21.7-11"/>
	<path class="st3" d="M122.2,144.8c2.4-2.4,5.1-4.5,9.9-4.5c10.9,0,10.9,11,21.7,11c10.9,0,10.9-11,21.7-11c10.9,0,10.9,11,21.7,11
		c10.9,0,10.9-11,21.7-11c10.9,0,10.9,11,21.7,11c10.9,0,10.9-11,21.7-11c4.5,0,7.2,1.9,9.4,4.1"/>
	<path class="st3" d="M45.5,173.5c10.9,0,10.9,11,21.7,11c10.9,0,10.9-11,21.7-11c10.9,0,10.9,11,21.7,11s10.9-11,21.7-11
		s10.9,11,21.7,11c10.9,0,10.9-11,21.7-11c10.9,0,10.9,11,21.7,11c10.9,0,10.9-11,21.7-11c10.9,0,10.9,11,21.7,11s10.9-11,21.7-11
		c10.9,0,10.9,11,21.7,11s10.9-11,21.7-11c10.9,0,10.9,11,21.7,11c10.9,0,10.9-11,21.7-11s10.9,11,21.7,11s10.9-11,21.7-11"/>
	<path class="st3" d="M45.5,239.9c10.9,0,10.9,11,21.7,11c10.9,0,10.9-11,21.7-11c10.9,0,10.9,11,21.7,11s10.9-11,21.7-11
		s10.9,11,21.7,11c10.9,0,10.9-11,21.7-11c10.9,0,10.9,11,21.7,11c10.9,0,10.9-11,21.7-11c10.9,0,10.9,11,21.7,11s10.9-11,21.7-11
		c10.9,0,10.9,11,21.7,11s10.9-11,21.7-11c10.9,0,10.9,11,21.7,11c10.9,0,10.9-11,21.7-11s10.9,11,21.7,11s10.9-11,21.7-11"/>
	<path class="st3" d="M302.2,207c0.9-0.3,2-0.3,3.2-0.3c10.9,0,10.9,11,21.7,11s10.9-11,21.7-11c10.9,0,10.9,11,21.7,11
		s10.9-11,21.7-11"/>
	<path class="st3" d="M128.9,207c0.9-0.3,2-0.3,3.2-0.3c10.9,0,10.9,11,21.7,11c10.9,0,10.9-11,21.7-11c10.9,0,10.9,11,21.7,11
		c10.9,0,10.9-11,21.7-11c10.9,0,10.9,11,21.7,11c10.9,0,10.9-11,21.7-11c10.9,0,10.9,11,21.7,11c1.5,0,2.9-0.3,4-0.6"/>
</g>
<rect x="42.3" y="288.5" class="st4" width="167" height="69.7"/>
<rect x="225.8" y="288.5" class="st4" width="167" height="69.7"/>
<rect x="42.3" y="378.5" class="st4" width="167" height="69.7"/>
<rect x="225.8" y="378.5" class="st4" width="167" height="69.7"/>
<rect x="42.3" y="463.8" class="st4" width="167" height="69.7"/>
<rect x="225.8" y="463.8" class="st4" width="167" height="69.7"/>
<g class="st0">
	<g>
		<g>
			<g>
				<g>
					<g>
						<defs>
							<rect id="SVGID_00000031190830021856855830000012793797880674754986_" x="635.6" y="84.8" width="306.2" height="213.1"/>
						</defs>
						<clipPath id="SVGID_00000100370420575647549970000014815677089865652923_">
							<use xlink:href="#SVGID_00000031190830021856855830000012793797880674754986_"  style="overflow:visible;"/>
						</clipPath>
						
							<rect x="635.6" y="84.8" style="clip-path:url(#SVGID_00000100370420575647549970000014815677089865652923_);fill:#DDDDDD;" width="306.2" height="213.1"/>
					</g>
				</g>
			</g>
		</g>
	</g>
	<g>
		<g>
			<g>
				<g>
					<g>
						<defs>
							<rect id="SVGID_00000177484187152393109970000002626767158593593020_" x="635.6" y="84.8" width="306.2" height="213.1"/>
						</defs>
						<clipPath id="SVGID_00000111181979324214393190000015610329273118855329_">
							<use xlink:href="#SVGID_00000177484187152393109970000002626767158593593020_"  style="overflow:visible;"/>
						</clipPath>
						
							<circle style="clip-path:url(#SVGID_00000111181979324214393190000015610329273118855329_);fill:#FFFFFF;" cx="833.1" cy="149.4" r="21.8"/>
					</g>
				</g>
			</g>
		</g>
	</g>
	<g>
		<g>
			<g>
				<g>
					<g>
						<defs>
							<rect id="SVGID_00000084519587609302805490000007640728710688986552_" x="635.6" y="84.8" width="306.2" height="213.1"/>
						</defs>
						<clipPath id="SVGID_00000074407026002556302710000013490850316240173716_">
							<use xlink:href="#SVGID_00000084519587609302805490000007640728710688986552_"  style="overflow:visible;"/>
						</clipPath>
						<path style="clip-path:url(#SVGID_00000074407026002556302710000013490850316240173716_);fill:#A3A3A3;" d="M791.7,224.3
							c56.7-32.7,121.8-2.9,150.1,13.5v60.1H635.6v-54.1C676.6,267.6,722,264.5,791.7,224.3z"/>
					</g>
				</g>
			</g>
		</g>
	</g>
	<g>
		<g>
			<g>
				<g>
					<g>
						<defs>
							<rect id="SVGID_00000005971649313089703680000017130920079482834100_" x="635.6" y="84.8" width="306.2" height="213.1"/>
						</defs>
						<clipPath id="SVGID_00000060728480525042995210000011283342533343194007_">
							<use xlink:href="#SVGID_00000005971649313089703680000017130920079482834100_"  style="overflow:visible;"/>
						</clipPath>
						<path style="clip-path:url(#SVGID_00000060728480525042995210000011283342533343194007_);fill:#BFBFBF;" d="M826.5,246.6
							c45.7,22,82.9,33.5,115.2,35.9v15.4H635.6v-37.5C665.4,245.7,751.4,210.4,826.5,246.6z"/>
					</g>
				</g>
			</g>
		</g>
	</g>
	<g>
		<g>
			<g>
				<g>
					<g>
						<defs>
							<rect id="SVGID_00000034092105988618724680000002925026942890223246_" x="635.6" y="84.8" width="306.2" height="213.1"/>
						</defs>
						<clipPath id="SVGID_00000016789644425125919560000006569315690780699032_">
							<use xlink:href="#SVGID_00000034092105988618724680000002925026942890223246_"  style="overflow:visible;"/>
						</clipPath>
						<path style="clip-path:url(#SVGID_00000016789644425125919560000006569315690780699032_);fill:#D1D1D1;" d="M822.8,254.7
							c40.4-14.2,83.2-13.6,119-8.3v51.5H635.6v-24.5C683.6,288.1,738.6,284.3,822.8,254.7z"/>
					</g>
				</g>
			</g>
		</g>
	</g>
	<rect x="635.6" y="84.8" class="st2" width="306.2" height="213.1"/>
</g>
</svg>
