<?xml version="1.0" encoding="utf-8"?>
<!-- Generator: Adobe Illustrator 26.3.1, SVG Export Plug-In . SVG Version: 6.00 Build 0)  -->
<svg version="1.1" id="Layer_1" xmlns="http://www.w3.org/2000/svg" xmlns:xlink="http://www.w3.org/1999/xlink" x="0px" y="0px"
	 viewBox="0 0 1200 608" style="enable-background:new 0 0 1200 608;" xml:space="preserve">
<style type="text/css">
	.st0{opacity:0.8;}
	.st1{clip-path:url(#SVGID_00000067938050562029050220000005197533939174115498_);fill:#DDDDDD;}
	.st2{clip-path:url(#SVGID_00000150084705271070548740000014875465097768970390_);fill:#FFFFFF;}
	.st3{clip-path:url(#SVGID_00000096051132081098951330000014802088334809292958_);fill:#A3A3A3;}
	.st4{clip-path:url(#SVGID_00000101099974402675082340000002618344825394779021_);fill:#BFBFBF;}
	.st5{clip-path:url(#SVGID_00000134244930809076579740000012164889044578652351_);fill:#D1D1D1;}
	.st6{fill:none;stroke:#000000;stroke-width:4.252;stroke-miterlimit:10;}
	.st7{fill:none;stroke:#232323;stroke-width:5.6693;stroke-linecap:round;stroke-linejoin:round;stroke-miterlimit:10;}
	.st8{fill:#FFFFFF;stroke:#000000;stroke-width:2.8346;stroke-miterlimit:10;}
</style>
<g class="st0">
	<g>
		<g>
			<g>
				<defs>
					<rect id="SVGID_1_" x="-42.1" y="-106.9" width="1364.6" height="949.7"/>
				</defs>
				<clipPath id="SVGID_00000145775113807787008870000013209866958986320030_">
					<use xlink:href="#SVGID_1_"  style="overflow:visible;"/>
				</clipPath>
				
					<rect x="-42.1" y="-106.9" style="clip-path:url(#SVGID_00000145775113807787008870000013209866958986320030_);fill:#DDDDDD;" width="1364.6" height="949.7"/>
			</g>
		</g>
	</g>
	<g>
		<g>
			<g>
				<defs>
					<rect id="SVGID_00000071547450945237572100000010077081861272232602_" x="-42.1" y="-106.9" width="1364.6" height="949.7"/>
				</defs>
				<clipPath id="SVGID_00000005242537202227411460000006992543655533189786_">
					<use xlink:href="#SVGID_00000071547450945237572100000010077081861272232602_"  style="overflow:visible;"/>
				</clipPath>
				
					<circle style="clip-path:url(#SVGID_00000005242537202227411460000006992543655533189786_);fill:#FFFFFF;" cx="838.2" cy="180.8" r="97.3"/>
			</g>
		</g>
	</g>
	<g>
		<g>
			<g>
				<defs>
					<rect id="SVGID_00000121276728910159344790000018144616735389398149_" x="-42.1" y="-106.9" width="1364.6" height="949.7"/>
				</defs>
				<clipPath id="SVGID_00000095337123986847235060000001568309287452148379_">
					<use xlink:href="#SVGID_00000121276728910159344790000018144616735389398149_"  style="overflow:visible;"/>
				</clipPath>
				<path style="clip-path:url(#SVGID_00000095337123986847235060000001568309287452148379_);fill:#A3A3A3;" d="M653.7,514.8
					c252.6-145.8,542.8-13.1,668.8,60v268H-42.1V601.5C140.6,707.6,343.1,694,653.7,514.8z"/>
			</g>
		</g>
	</g>
	<g>
		<g>
			<g>
				<defs>
					<rect id="SVGID_00000145055828994463691580000001024595437606014620_" x="-42.1" y="-106.9" width="1364.6" height="949.7"/>
				</defs>
				<clipPath id="SVGID_00000059271273832959349790000016230778554087131558_">
					<use xlink:href="#SVGID_00000145055828994463691580000001024595437606014620_"  style="overflow:visible;"/>
				</clipPath>
				<path style="clip-path:url(#SVGID_00000059271273832959349790000016230778554087131558_);fill:#BFBFBF;" d="M808.9,614.1
					c203.9,98.2,369.6,149.2,513.6,160.2v68.4H-42.1v-167C90.7,610.4,474,452.8,808.9,614.1z"/>
			</g>
		</g>
	</g>
	<g>
		<g>
			<g>
				<defs>
					<rect id="SVGID_00000047032372742037609700000012520587268974248108_" x="-42.1" y="-106.9" width="1364.6" height="949.7"/>
				</defs>
				<clipPath id="SVGID_00000119109673619937414680000001554115944288126368_">
					<use xlink:href="#SVGID_00000047032372742037609700000012520587268974248108_"  style="overflow:visible;"/>
				</clipPath>
				<path style="clip-path:url(#SVGID_00000119109673619937414680000001554115944288126368_);fill:#D1D1D1;" d="M792.3,650.5
					c179.9-63.1,371-60.6,530.2-37.2v229.4H-42.1V733.3C172.2,799,417.3,782.1,792.3,650.5z"/>
			</g>
		</g>
	</g>
	<rect x="-42.1" y="-106.9" class="st6" width="1364.6" height="949.7"/>
</g>
<g>
	<path class="st7" d="M67.2,93.9c12.9,0,12.9,11.2,25.8,11.2s12.9-11.2,25.8-11.2s12.9,11.2,25.8,11.2s12.9-11.2,25.8-11.2
		c12.9,0,12.9,11.2,25.8,11.2c7,0,10.2-3.3,13.7-6.3"/>
	<path class="st7" d="M67.2,127.8c12.9,0,12.9,11.2,25.8,11.2s12.9-11.2,25.8-11.2c5.3,0,8.5,2,11.2,4.2"/>
	<path class="st7" d="M67.2,195.6c12.9,0,12.9,11.2,25.8,11.2s12.9-11.2,25.8-11.2s12.9,11.2,25.8,11.2c1.8,0,3.4-0.3,4.8-0.6"/>
	<path class="st7" d="M67.2,60.1c12.9,0,12.9,11.2,25.8,11.2s12.9-11.2,25.8-11.2s12.9,11.2,25.8,11.2s12.9-11.2,25.8-11.2
		c12.9,0,12.9,11.2,25.8,11.2s12.9-11.2,25.8-11.2c12.9,0,12.9,11.2,25.8,11.2s12.9-11.2,25.8-11.2s12.9,11.2,25.8,11.2
		s12.9-11.2,25.8-11.2s12.9,11.2,25.8,11.2s12.9-11.2,25.8-11.2s12.9,11.2,25.8,11.2s12.9-11.2,25.8-11.2s12.9,11.2,25.8,11.2
		s12.9-11.2,25.8-11.2"/>
	<path class="st7" d="M439.8,98.8c3.5,3,6.7,6.3,13.7,6.3c12.9,0,12.9-11.2,25.8-11.2"/>
	<path class="st7" d="M233.8,98.8c3.5,3,6.7,6.3,13.7,6.3c12.9,0,12.9-11.2,25.8-11.2s12.9,11.2,25.8,11.2s12.9-11.2,25.8-11.2
		s12.9,11.2,25.8,11.2s12.9-11.2,25.8-11.2s12.9,11.2,25.8,11.2c7,0,10.2-3.3,13.7-6.3"/>
	<path class="st7" d="M364.4,132.4c2.9-2.5,6.1-4.6,11.8-4.6c12.9,0,12.9,11.2,25.8,11.2s12.9-11.2,25.8-11.2s12.9,11.2,25.8,11.2
		s12.9-11.2,25.8-11.2"/>
	<path class="st7" d="M158.4,132.4c2.9-2.5,6.1-4.6,11.8-4.6c12.9,0,12.9,11.2,25.8,11.2s12.9-11.2,25.8-11.2
		c12.9,0,12.9,11.2,25.8,11.2s12.9-11.2,25.8-11.2s12.9,11.2,25.8,11.2s12.9-11.2,25.8-11.2c5.3,0,8.5,2,11.2,4.2"/>
	<path class="st7" d="M67.2,161.7c12.9,0,12.9,11.2,25.8,11.2s12.9-11.2,25.8-11.2s12.9,11.2,25.8,11.2s12.9-11.2,25.8-11.2
		c12.9,0,12.9,11.2,25.8,11.2s12.9-11.2,25.8-11.2c12.9,0,12.9,11.2,25.8,11.2s12.9-11.2,25.8-11.2s12.9,11.2,25.8,11.2
		s12.9-11.2,25.8-11.2s12.9,11.2,25.8,11.2s12.9-11.2,25.8-11.2s12.9,11.2,25.8,11.2s12.9-11.2,25.8-11.2s12.9,11.2,25.8,11.2
		s12.9-11.2,25.8-11.2"/>
	<path class="st7" d="M67.2,229.5c12.9,0,12.9,11.2,25.8,11.2s12.9-11.2,25.8-11.2s12.9,11.2,25.8,11.2s12.9-11.2,25.8-11.2
		c12.9,0,12.9,11.2,25.8,11.2s12.9-11.2,25.8-11.2c12.9,0,12.9,11.2,25.8,11.2s12.9-11.2,25.8-11.2s12.9,11.2,25.8,11.2
		s12.9-11.2,25.8-11.2s12.9,11.2,25.8,11.2s12.9-11.2,25.8-11.2s12.9,11.2,25.8,11.2s12.9-11.2,25.8-11.2s12.9,11.2,25.8,11.2
		s12.9-11.2,25.8-11.2"/>
	<path class="st7" d="M372.4,195.9c1.1-0.3,2.4-0.3,3.8-0.3c12.9,0,12.9,11.2,25.8,11.2s12.9-11.2,25.8-11.2s12.9,11.2,25.8,11.2
		s12.9-11.2,25.8-11.2"/>
	<path class="st7" d="M166.4,195.9c1.1-0.3,2.4-0.3,3.8-0.3c12.9,0,12.9,11.2,25.8,11.2s12.9-11.2,25.8-11.2
		c12.9,0,12.9,11.2,25.8,11.2s12.9-11.2,25.8-11.2s12.9,11.2,25.8,11.2s12.9-11.2,25.8-11.2s12.9,11.2,25.8,11.2
		c1.8,0,3.4-0.3,4.8-0.6"/>
</g>
<g>
	<rect x="69.9" y="295" class="st8" width="407.4" height="234.6"/>
	<g>
		<path class="st7" d="M112.8,366.6c10,0,10,9.1,20.1,9.1c10,0,10-9.1,20.1-9.1c10,0,10,9.1,20.1,9.1s10-9.1,20.1-9.1
			c10,0,10,9.1,20.1,9.1c5.5,0,7.9-2.6,10.7-5.1"/>
		<path class="st7" d="M112.8,394c10,0,10,9.1,20.1,9.1c10,0,10-9.1,20.1-9.1c4.1,0,6.6,1.6,8.7,3.4"/>
		<path class="st7" d="M112.8,448.9c10,0,10,9.1,20.1,9.1c10,0,10-9.1,20.1-9.1c10,0,10,9.1,20.1,9.1c1.4,0,2.6-0.2,3.7-0.5"/>
		<path class="st7" d="M112.8,339.1c10,0,10,9.1,20.1,9.1c10,0,10-9.1,20.1-9.1c10,0,10,9.1,20.1,9.1s10-9.1,20.1-9.1
			c10,0,10,9.1,20.1,9.1c10,0,10-9.1,20.1-9.1c10,0,10,9.1,20.1,9.1c10,0,10-9.1,20.1-9.1c10,0,10,9.1,20.1,9.1
			c10,0,10-9.1,20.1-9.1c10,0,10,9.1,20.1,9.1c10,0,10-9.1,20.1-9.1c10,0,10,9.1,20.1,9.1c10,0,10-9.1,20.1-9.1
			c10,0,10,9.1,20.1,9.1c10,0,10-9.1,20.1-9.1"/>
		<path class="st7" d="M403,370.5c2.7,2.4,5.2,5.1,10.7,5.1c10,0,10-9.1,20.1-9.1"/>
		<path class="st7" d="M242.6,370.5c2.7,2.4,5.2,5.1,10.7,5.1c10,0,10-9.1,20.1-9.1c10,0,10,9.1,20.1,9.1c10,0,10-9.1,20.1-9.1
			c10,0,10,9.1,20.1,9.1c10,0,10-9.1,20.1-9.1c10,0,10,9.1,20.1,9.1c5.5,0,7.9-2.6,10.7-5.1"/>
		<path class="st7" d="M344.3,397.8c2.3-2,4.8-3.8,9.2-3.8c10,0,10,9.1,20.1,9.1c10,0,10-9.1,20.1-9.1c10,0,10,9.1,20.1,9.1
			c10,0,10-9.1,20.1-9.1"/>
		<path class="st7" d="M183.8,397.8c2.3-2,4.8-3.8,9.2-3.8c10,0,10,9.1,20.1,9.1c10,0,10-9.1,20.1-9.1c10,0,10,9.1,20.1,9.1
			c10,0,10-9.1,20.1-9.1c10,0,10,9.1,20.1,9.1c10,0,10-9.1,20.1-9.1c4.1,0,6.6,1.6,8.7,3.4"/>
		<path class="st7" d="M112.8,421.5c10,0,10,9.1,20.1,9.1c10,0,10-9.1,20.1-9.1c10,0,10,9.1,20.1,9.1s10-9.1,20.1-9.1
			c10,0,10,9.1,20.1,9.1c10,0,10-9.1,20.1-9.1c10,0,10,9.1,20.1,9.1c10,0,10-9.1,20.1-9.1c10,0,10,9.1,20.1,9.1
			c10,0,10-9.1,20.1-9.1c10,0,10,9.1,20.1,9.1c10,0,10-9.1,20.1-9.1c10,0,10,9.1,20.1,9.1c10,0,10-9.1,20.1-9.1
			c10,0,10,9.1,20.1,9.1c10,0,10-9.1,20.1-9.1"/>
		<path class="st7" d="M112.8,476.4c10,0,10,9.1,20.1,9.1c10,0,10-9.1,20.1-9.1c10,0,10,9.1,20.1,9.1s10-9.1,20.1-9.1
			c10,0,10,9.1,20.1,9.1c10,0,10-9.1,20.1-9.1c10,0,10,9.1,20.1,9.1c10,0,10-9.1,20.1-9.1c10,0,10,9.1,20.1,9.1
			c10,0,10-9.1,20.1-9.1c10,0,10,9.1,20.1,9.1c10,0,10-9.1,20.1-9.1c10,0,10,9.1,20.1,9.1c10,0,10-9.1,20.1-9.1
			c10,0,10,9.1,20.1,9.1c10,0,10-9.1,20.1-9.1"/>
		<path class="st7" d="M350.5,449.2c0.9-0.2,1.9-0.3,3-0.3c10,0,10,9.1,20.1,9.1c10,0,10-9.1,20.1-9.1c10,0,10,9.1,20.1,9.1
			c10,0,10-9.1,20.1-9.1"/>
		<path class="st7" d="M190.1,449.2c0.9-0.2,1.9-0.3,3-0.3c10,0,10,9.1,20.1,9.1c10,0,10-9.1,20.1-9.1c10,0,10,9.1,20.1,9.1
			c10,0,10-9.1,20.1-9.1c10,0,10,9.1,20.1,9.1c10,0,10-9.1,20.1-9.1c10,0,10,9.1,20.1,9.1c1.4,0,2.6-0.2,3.7-0.5"/>
	</g>
</g>
</svg>
