<?xml version="1.0" encoding="utf-8"?>
<!-- Generator: Adobe Illustrator 27.2.0, SVG Export Plug-In . SVG Version: 6.00 Build 0)  -->
<svg version="1.1" id="Layer_1" xmlns="http://www.w3.org/2000/svg" xmlns:xlink="http://www.w3.org/1999/xlink" x="0px" y="0px"
	 viewBox="0 0 1200 608" style="enable-background:new 0 0 1200 608;" xml:space="preserve">
<style type="text/css">
	.st0{opacity:0.1;}
	.st1{clip-path:url(#SVGID_00000039102093964987542040000014233200701550845621_);fill:#DDDDDD;}
	.st2{clip-path:url(#SVGID_00000008144783920117875420000011681176469519294370_);fill:#FFFFFF;}
	.st3{clip-path:url(#SVGID_00000181088188179983509380000005310401477407890110_);fill:#A3A3A3;}
	.st4{clip-path:url(#SVGID_00000183959052410399438940000006857586284096396697_);fill:#BFBFBF;}
	.st5{clip-path:url(#SVGID_00000156576522920080119200000000470336301143564942_);fill:#D1D1D1;}
	.st6{fill:none;stroke:#000000;stroke-width:4.252;stroke-miterlimit:10;}
	.st7{fill:none;stroke:#232323;stroke-width:5.6693;stroke-linecap:round;stroke-linejoin:round;stroke-miterlimit:10;}
	.st8{fill:#FFFFFF;stroke:#000000;stroke-width:2.8346;stroke-miterlimit:10;}
</style>
<g class="st0">
	<g>
		<g>
			<g>
				<g>
					<g>
						<g>
							<g>
								<g>
									<defs>
										<rect id="SVGID_1_" x="-171.9" y="-95.5" width="1411.1" height="844.2"/>
									</defs>
									<clipPath id="SVGID_00000000214143019022169630000003464665942529808831_">
										<use xlink:href="#SVGID_1_"  style="overflow:visible;"/>
									</clipPath>
									
										<rect x="-171.9" y="-95.5" style="clip-path:url(#SVGID_00000000214143019022169630000003464665942529808831_);fill:#DDDDDD;" width="1411.1" height="844.2"/>
								</g>
							</g>
						</g>
					</g>
				</g>
			</g>
		</g>
	</g>
	<g>
		<g>
			<g>
				<g>
					<g>
						<g>
							<g>
								<g>
									<defs>
										
											<rect id="SVGID_00000139984156537631435390000015022346428201263006_" x="-171.9" y="-95.5" width="1411.1" height="844.2"/>
									</defs>
									<clipPath id="SVGID_00000068648806262392160670000007492119571074761089_">
										<use xlink:href="#SVGID_00000139984156537631435390000015022346428201263006_"  style="overflow:visible;"/>
									</clipPath>
									
										<ellipse style="clip-path:url(#SVGID_00000068648806262392160670000007492119571074761089_);fill:#FFFFFF;" cx="238.8" cy="160.4" rx="86.9" ry="86.5"/>
								</g>
							</g>
						</g>
					</g>
				</g>
			</g>
		</g>
	</g>
	<g>
		<g>
			<g>
				<g>
					<g>
						<g>
							<g>
								<g>
									<defs>
										
											<rect id="SVGID_00000120516845336035852090000015665755325647714194_" x="-171.9" y="-95.5" width="1411.1" height="844.2"/>
									</defs>
									<clipPath id="SVGID_00000096049125978644275580000013488642149538778040_">
										<use xlink:href="#SVGID_00000120516845336035852090000015665755325647714194_"  style="overflow:visible;"/>
									</clipPath>
									<path style="clip-path:url(#SVGID_00000096049125978644275580000013488642149538778040_);fill:#A3A3A3;" d="M519.6,457.2
										C258.4,327.6-41.6,445.6-172,510.5v238.3h1411.2V534.2C1050.2,628.7,840.9,616.5,519.6,457.2z"/>
								</g>
							</g>
						</g>
					</g>
				</g>
			</g>
		</g>
	</g>
	<g>
		<g>
			<g>
				<g>
					<g>
						<g>
							<g>
								<g>
									<defs>
										
											<rect id="SVGID_00000013174448506579450720000013853748820413197239_" x="-171.9" y="-95.5" width="1411.1" height="844.2"/>
									</defs>
									<clipPath id="SVGID_00000018920800757143413520000008622467907644408251_">
										<use xlink:href="#SVGID_00000013174448506579450720000013853748820413197239_"  style="overflow:visible;"/>
									</clipPath>
									<path style="clip-path:url(#SVGID_00000018920800757143413520000008622467907644408251_);fill:#BFBFBF;" d="M359.4,545.5
										C148.5,632.7-22.7,678.1-171.8,687.9v60.8h1411V600.4C1101.9,542.3,705.6,402.2,359.4,545.5z"/>
								</g>
							</g>
						</g>
					</g>
				</g>
			</g>
		</g>
	</g>
	<g>
		<g>
			<g>
				<g>
					<g>
						<g>
							<g>
								<g>
									<defs>
										
											<rect id="SVGID_00000053505000050740712670000017266880370951515069_" x="-171.9" y="-95.5" width="1411.1" height="844.2"/>
									</defs>
									<clipPath id="SVGID_00000176758124978626574860000004290184952058631861_">
										<use xlink:href="#SVGID_00000053505000050740712670000017266880370951515069_"  style="overflow:visible;"/>
									</clipPath>
									<path style="clip-path:url(#SVGID_00000176758124978626574860000004290184952058631861_);fill:#D1D1D1;" d="M376.3,577.8
										c-186-56.1-383.8-53.8-548.1-33.1v204h1411.1v-97.2C1017.6,709.9,764.2,695,376.3,577.8z"/>
								</g>
							</g>
						</g>
					</g>
				</g>
			</g>
		</g>
	</g>
	<rect x="-171.9" y="-95.5" class="st6" width="1411.1" height="844.2"/>
</g>
<g>
	<path class="st7" d="M664.1,102.7c11.4,0,11.4,9,22.8,9s11.5-9,22.8-9c11.4,0,11.4,9,22.8,9s11.6-9,22.9-9s11.5,9,22.8,9
		c6.2,0,9.1-2.6,12.3-5.1"/>
	<path class="st7" d="M664.1,75.9c11.4,0,11.4,9,22.8,9s11.5-9,22.8-9c11.4,0,11.4,9,22.8,9s11.5-9,22.8-9s11.5,9,22.8,9
		c11.5,0,11.5-9,22.8-9s11.5,9,22.8,9c11.5,0,11.5-9,22.8-9s11.5,9,22.8,9c11.5,0,11.5-9,22.8-9s11.5,9,22.8,9c11.5,0,11.5-9,22.8-9
		s11.5,9,22.8,9c11.5,0,11.5-9,22.8-9s11.5,9,22.8,9c11.5,0,11.5-9,22.8-9"/>
	<path class="st7" d="M994.3,106.7c3.2,2.5,5.9,5.1,12,5.1c11.5,0,11.5-9,22.8-9"/>
	<path class="st7" d="M811.7,106.7c3.2,2.5,5.9,5.1,12,5.1c11.5,0,11.5-9,22.8-9s11.4,9,22.8,9c11.5,0,11.5-9,22.8-9s11.4,9,22.8,9
		s11.5-9,22.8-9s11.4,9,22.8,9c6.2,0,9.1-2.6,12.3-5.1"/>
</g>
<g>
	<path class="st8" d="M821,164.5H597c-7.9,0-14.3,6.4-14.3,14.3v106.9c0,7.9,6.4,14.3,14.3,14.3h89.7l22.3,34.8l23.3-34.8H821
		c7.9,0,14.3-6.4,14.3-14.3V178.8C835.3,170.9,828.9,164.5,821,164.5z"/>
	<g>
		<path class="st7" d="M609.3,227.8c6.2,0,6.2,9,12.4,9c6.3,0,6.3-9,12.4-9c6.2,0,6.2,9,12.4,9c6.3,0,6.3-9,12.5-9s6.3,9,12.4,9
			c3.4,0,5-2.6,6.7-5.1"/>
		<path class="st7" d="M609.3,254.8c6.2,0,6.2,8.8,12.4,8.8c6.3,0,6.3-8.8,12.4-8.8c2.5,0,4.1,1.5,5.4,3.2"/>
		<path class="st7" d="M609.3,200.9c6.2,0,6.2,9,12.4,9c6.3,0,6.3-9,12.4-9c6.2,0,6.2,9,12.4,9c6.3,0,6.3-9,12.4-9
			c6.2,0,6.3,9,12.4,9c6.3,0,6.3-9,12.4-9c6.2,0,6.3,9,12.4,9c6.3,0,6.3-9,12.4-9c6.2,0,6.2,9,12.4,9s6.2-9,12.4-9s6.2,9,12.4,9
			s6.2-9,12.4-9s6.2,9,12.4,9s6.2-9,12.4-9s6.2,9,12.4,9s6.2-9,12.4-9"/>
		<path class="st7" d="M789.3,231.7c1.7,2.5,3.2,5.1,6.6,5.1c6.2,0,6.2-9,12.4-9"/>
		<path class="st7" d="M689.8,231.7c1.7,2.5,3.2,5.1,6.6,5.1c6.3,0,6.3-9,12.4-9c6.2,0,6.2,9,12.4,9c6.3,0,6.3-9,12.4-9
			c6.2,0,6.2,9,12.4,9c6.3,0,6.3-9,12.4-9c6.2,0,6.2,9,12.4,9c3.4,0,5-2.6,6.7-5.1"/>
		<path class="st7" d="M752.8,258.5c1.4-1.9,2.9-3.7,5.7-3.7c6.3,0,6.3,8.8,12.4,8.8c6.2,0,6.3-8.8,12.4-8.8c6.3,0,6.3,8.8,12.4,8.8
			c6.2,0,6.3-8.8,12.4-8.8"/>
		<path class="st7" d="M653.3,258.5c1.4-1.9,2.9-3.7,5.7-3.7c6.3,0,6.3,8.8,12.4,8.8c6.2,0,6.3-8.8,12.4-8.8c6.3,0,6.3,8.8,12.4,8.8
			c6.2,0,6.3-8.8,12.4-8.8c6.3,0,6.3,8.8,12.4,8.8c6.2,0,6.3-8.8,12.4-8.8c2.6,0,4.1,1.5,5.4,3.2"/>
	</g>
</g>
<g>
	<path class="st8" d="M1092.8,164.5h-224c-7.9,0-14.3,6.4-14.3,14.3v106.9c0,7.9,6.4,14.3,14.3,14.3h89.7l22.3,34.8l23.3-34.8h88.7
		c7.9,0,14.3-6.4,14.3-14.3V178.8C1107.1,170.9,1100.7,164.5,1092.8,164.5z"/>
	<g>
		<path class="st7" d="M881.1,227.8c6.2,0,6.2,9,12.4,9c6.3,0,6.3-9,12.4-9c6.2,0,6.2,9,12.4,9c6.3,0,6.3-9,12.5-9s6.3,9,12.4,9
			c3.4,0,5-2.6,6.7-5.1"/>
		<path class="st7" d="M881.1,254.8c6.2,0,6.2,8.8,12.4,8.8c6.3,0,6.3-8.8,12.4-8.8c2.5,0,4.1,1.5,5.4,3.2"/>
		<path class="st7" d="M881.1,200.9c6.2,0,6.2,9,12.4,9c6.3,0,6.3-9,12.4-9c6.2,0,6.2,9,12.4,9c6.3,0,6.3-9,12.4-9
			c6.2,0,6.3,9,12.4,9c6.3,0,6.3-9,12.4-9c6.2,0,6.3,9,12.4,9c6.3,0,6.3-9,12.4-9c6.2,0,6.2,9,12.4,9s6.2-9,12.4-9s6.2,9,12.4,9
			s6.2-9,12.4-9c6.2,0,6.2,9,12.4,9c6.2,0,6.2-9,12.4-9c6.2,0,6.2,9,12.4,9c6.2,0,6.2-9,12.4-9"/>
		<path class="st7" d="M1061.1,231.7c1.7,2.5,3.2,5.1,6.6,5.1c6.2,0,6.2-9,12.4-9"/>
		<path class="st7" d="M961.6,231.7c1.7,2.5,3.2,5.1,6.6,5.1c6.3,0,6.3-9,12.4-9c6.2,0,6.2,9,12.4,9c6.3,0,6.3-9,12.4-9
			c6.2,0,6.2,9,12.4,9c6.3,0,6.3-9,12.4-9c6.2,0,6.2,9,12.4,9c3.4,0,5-2.6,6.7-5.1"/>
		<path class="st7" d="M1024.6,258.5c1.4-1.9,2.9-3.7,5.7-3.7c6.3,0,6.3,8.8,12.4,8.8c6.2,0,6.3-8.8,12.4-8.8
			c6.3,0,6.3,8.8,12.4,8.8c6.2,0,6.3-8.8,12.4-8.8"/>
		<path class="st7" d="M925.1,258.5c1.4-1.9,2.9-3.7,5.7-3.7c6.3,0,6.3,8.8,12.4,8.8c6.2,0,6.3-8.8,12.4-8.8c6.3,0,6.3,8.8,12.4,8.8
			c6.2,0,6.3-8.8,12.4-8.8c6.3,0,6.3,8.8,12.4,8.8c6.2,0,6.3-8.8,12.4-8.8c2.6,0,4.1,1.5,5.4,3.2"/>
	</g>
</g>
<g>
	<path class="st8" d="M821,349.1H597c-7.9,0-14.3,6.4-14.3,14.3v106.9c0,7.9,6.4,14.3,14.3,14.3h89.7l22.3,34.8l23.3-34.8H821
		c7.9,0,14.3-6.4,14.3-14.3V363.4C835.3,355.5,828.9,349.1,821,349.1z"/>
	<g>
		<path class="st7" d="M609.3,412.4c6.2,0,6.2,9,12.4,9c6.3,0,6.3-9,12.4-9c6.2,0,6.2,9,12.4,9c6.3,0,6.3-9,12.5-9s6.3,9,12.4,9
			c3.4,0,5-2.6,6.7-5.1"/>
		<path class="st7" d="M609.3,439.4c6.2,0,6.2,8.8,12.4,8.8c6.3,0,6.3-8.8,12.4-8.8c2.5,0,4.1,1.5,5.4,3.2"/>
		<path class="st7" d="M609.3,385.5c6.2,0,6.2,9,12.4,9c6.3,0,6.3-9,12.4-9c6.2,0,6.2,9,12.4,9c6.3,0,6.3-9,12.4-9
			c6.2,0,6.3,9,12.4,9c6.3,0,6.3-9,12.4-9c6.2,0,6.3,9,12.4,9c6.3,0,6.3-9,12.4-9c6.2,0,6.2,9,12.4,9s6.2-9,12.4-9s6.2,9,12.4,9
			s6.2-9,12.4-9s6.2,9,12.4,9s6.2-9,12.4-9s6.2,9,12.4,9s6.2-9,12.4-9"/>
		<path class="st7" d="M789.3,416.3c1.7,2.5,3.2,5.1,6.6,5.1c6.2,0,6.2-9,12.4-9"/>
		<path class="st7" d="M689.8,416.3c1.7,2.5,3.2,5.1,6.6,5.1c6.3,0,6.3-9,12.4-9c6.2,0,6.2,9,12.4,9c6.3,0,6.3-9,12.4-9
			c6.2,0,6.2,9,12.4,9c6.3,0,6.3-9,12.4-9c6.2,0,6.2,9,12.4,9c3.4,0,5-2.6,6.7-5.1"/>
		<path class="st7" d="M752.8,443.1c1.4-1.9,2.9-3.7,5.7-3.7c6.3,0,6.3,8.8,12.4,8.8c6.2,0,6.3-8.8,12.4-8.8c6.3,0,6.3,8.8,12.4,8.8
			c6.2,0,6.3-8.8,12.4-8.8"/>
		<path class="st7" d="M653.3,443.1c1.4-1.9,2.9-3.7,5.7-3.7c6.3,0,6.3,8.8,12.4,8.8c6.2,0,6.3-8.8,12.4-8.8c6.3,0,6.3,8.8,12.4,8.8
			c6.2,0,6.3-8.8,12.4-8.8c6.3,0,6.3,8.8,12.4,8.8c6.2,0,6.3-8.8,12.4-8.8c2.6,0,4.1,1.5,5.4,3.2"/>
	</g>
</g>
<g>
	<path class="st8" d="M1092.8,349.1h-224c-7.9,0-14.3,6.4-14.3,14.3v106.9c0,7.9,6.4,14.3,14.3,14.3h89.7l22.3,34.8l23.3-34.8h88.7
		c7.9,0,14.3-6.4,14.3-14.3V363.4C1107.1,355.5,1100.7,349.1,1092.8,349.1z"/>
	<g>
		<path class="st7" d="M881.1,412.4c6.2,0,6.2,9,12.4,9c6.3,0,6.3-9,12.4-9c6.2,0,6.2,9,12.4,9c6.3,0,6.3-9,12.5-9s6.3,9,12.4,9
			c3.4,0,5-2.6,6.7-5.1"/>
		<path class="st7" d="M881.1,439.4c6.2,0,6.2,8.8,12.4,8.8c6.3,0,6.3-8.8,12.4-8.8c2.5,0,4.1,1.5,5.4,3.2"/>
		<path class="st7" d="M881.1,385.5c6.2,0,6.2,9,12.4,9c6.3,0,6.3-9,12.4-9c6.2,0,6.2,9,12.4,9c6.3,0,6.3-9,12.4-9
			c6.2,0,6.3,9,12.4,9c6.3,0,6.3-9,12.4-9c6.2,0,6.3,9,12.4,9c6.3,0,6.3-9,12.4-9c6.2,0,6.2,9,12.4,9s6.2-9,12.4-9s6.2,9,12.4,9
			s6.2-9,12.4-9c6.2,0,6.2,9,12.4,9c6.2,0,6.2-9,12.4-9c6.2,0,6.2,9,12.4,9c6.2,0,6.2-9,12.4-9"/>
		<path class="st7" d="M1061.1,416.3c1.7,2.5,3.2,5.1,6.6,5.1c6.2,0,6.2-9,12.4-9"/>
		<path class="st7" d="M961.6,416.3c1.7,2.5,3.2,5.1,6.6,5.1c6.3,0,6.3-9,12.4-9c6.2,0,6.2,9,12.4,9c6.3,0,6.3-9,12.4-9
			c6.2,0,6.2,9,12.4,9c6.3,0,6.3-9,12.4-9c6.2,0,6.2,9,12.4,9c3.4,0,5-2.6,6.7-5.1"/>
		<path class="st7" d="M1024.6,443.1c1.4-1.9,2.9-3.7,5.7-3.7c6.3,0,6.3,8.8,12.4,8.8c6.2,0,6.3-8.8,12.4-8.8
			c6.3,0,6.3,8.8,12.4,8.8c6.2,0,6.3-8.8,12.4-8.8"/>
		<path class="st7" d="M925.1,443.1c1.4-1.9,2.9-3.7,5.7-3.7c6.3,0,6.3,8.8,12.4,8.8c6.2,0,6.3-8.8,12.4-8.8c6.3,0,6.3,8.8,12.4,8.8
			c6.2,0,6.3-8.8,12.4-8.8c6.3,0,6.3,8.8,12.4,8.8c6.2,0,6.3-8.8,12.4-8.8c2.6,0,4.1,1.5,5.4,3.2"/>
	</g>
</g>
</svg>
