<?xml version="1.0" encoding="utf-8"?>
<!-- Generator: Adobe Illustrator 25.0.0, SVG Export Plug-In . SVG Version: 6.00 Build 0)  -->
<svg version="1.1" id="Layer_1" xmlns="http://www.w3.org/2000/svg" xmlns:xlink="http://www.w3.org/1999/xlink" x="0px" y="0px"
	 viewBox="0 0 224.46 154.47" style="enable-background:new 0 0 224.46 154.47;" xml:space="preserve">
<style type="text/css">
	.st0{fill:#1E2631;}
	.st1{fill:#3B4451;}
	.st2{fill:#A7A6A6;}
	.st3{fill:#FFFFFF;}
	.st4{fill:#747474;}
	.st5{fill:#010101;}
</style>
<path class="st0" d="M204.05,0H20.42c-5.06,0-9.15,4.1-9.15,9.15v121.49c0,5.05,4.09,9.15,9.15,9.15h183.63
	c5.05,0,9.15-4.1,9.15-9.15V9.15C213.19,4.09,209.1,0,204.05,0z"/>
<path class="st0" d="M211.11,130.64c0,3.9-3.16,7.07-7.06,7.07H20.42c-3.9,0-7.06-3.17-7.06-7.07V9.15c0-3.9,3.16-7.06,7.06-7.06
	h183.63c3.9,0,7.06,3.16,7.06,7.06V130.64z"/>
<rect x="25.87" y="14.6" class="st1" width="172.73" height="110.59"/>
<rect x="25.87" y="14.6" class="st2" width="172.73" height="13.2"/>
<g>
	<rect x="29.54" y="17.11" class="st3" width="8.17" height="8.17"/>
	<polygon class="st4" points="34.92,18.82 31.55,21.2 34.92,23.57 	"/>
</g>
<g>
	<rect x="41.06" y="17.11" class="st3" width="8.17" height="8.17"/>
	<polygon class="st4" points="43.86,18.82 47.23,21.2 43.86,23.57 	"/>
</g>
<g>
	<rect x="53.86" y="17.11" class="st3" width="104.97" height="8.17"/>
</g>
<g>
	<path class="st3" d="M172.39,21.2c0,2.26-1.83,4.09-4.09,4.09s-4.09-1.83-4.09-4.09c0-2.26,1.83-4.09,4.09-4.09
		S172.39,18.94,172.39,21.2z"/>
	<path class="st3" d="M183.66,21.2c0,2.26-1.83,4.09-4.09,4.09c-2.26,0-4.09-1.83-4.09-4.09c0-2.26,1.83-4.09,4.09-4.09
		C181.83,17.11,183.66,18.94,183.66,21.2z"/>
	<path class="st3" d="M194.92,21.2c0,2.26-1.83,4.09-4.09,4.09c-2.26,0-4.09-1.83-4.09-4.09c0-2.26,1.83-4.09,4.09-4.09
		C193.09,17.11,194.92,18.94,194.92,21.2z"/>
</g>
<g>
	<path class="st0" d="M1.67,139.79L0,145.32c0,5.05,4.09,9.15,9.15,9.15h206.16c5.05,0,9.15-4.1,9.15-9.15l-1.67-5.53H1.67z"/>
	<path class="st4" d="M3.76,139.79l-1.67,5.53c0,3.9,3.16,7.07,7.06,7.07h206.16c3.9,0,7.06-3.17,7.06-7.07l-1.67-5.53H3.76z"/>
	<path class="st0" d="M3.76,139.79l-1.67,5.53c0,3.9,3.16,7.07,7.06,7.07h206.16c3.9,0,7.06-3.17,7.06-7.07l-1.67-5.53H3.76z"/>
	<path class="st5" d="M5.3,141.88l-1.12,3.72c0.15,2.62,2.31,4.69,4.97,4.7h206.16c2.65-0.01,4.82-2.08,4.97-4.7l-1.12-3.72H5.3z"/>
	<path class="st0" d="M5.3,141.88l-1.12,3.72c0.02,0.33,0.07,0.66,0.15,0.97h215.79c0.08-0.31,0.13-0.64,0.15-0.97l-1.12-3.72H5.3z"
		/>
	<path class="st5" d="M74.97,141.88c0.84,2.71,3.36,4.68,6.35,4.68h61.83c2.99,0,5.51-1.97,6.35-4.68H74.97z"/>
</g>
<g>
	<rect x="36.9" y="37.29" class="st3" width="2.85" height="2.85"/>
	<rect x="48.61" y="43.75" class="st3" width="14.52" height="2.85"/>
	<rect x="65.98" y="43.75" class="st3" width="7.26" height="2.85"/>
	<rect x="36.9" y="43.75" class="st3" width="2.85" height="2.85"/>
	<rect x="52.04" y="50.21" class="st3" width="23.64" height="2.85"/>
	<rect x="94.18" y="50.21" class="st3" width="23.64" height="2.85"/>
	<rect x="78.53" y="50.21" class="st3" width="12.79" height="2.85"/>
	<rect x="36.9" y="50.21" class="st3" width="2.85" height="2.85"/>
	<rect x="52.04" y="56.67" class="st3" width="41.61" height="2.85"/>
	<rect x="96.5" y="56.67" class="st3" width="11.4" height="2.85"/>
	<rect x="110.76" y="56.67" class="st3" width="17.75" height="2.85"/>
	<rect x="36.9" y="56.67" class="st3" width="2.85" height="2.85"/>
	<rect x="52.04" y="63.14" class="st3" width="15.12" height="2.85"/>
	<rect x="70.01" y="63.14" class="st3" width="31.38" height="2.85"/>
	<rect x="36.9" y="63.14" class="st3" width="2.85" height="2.85"/>
	<rect x="52.04" y="69.6" class="st3" width="32.78" height="2.85"/>
	<rect x="105.95" y="69.6" class="st3" width="32.78" height="2.85"/>
	<rect x="87.67" y="69.6" class="st3" width="15.43" height="2.85"/>
	<rect x="36.9" y="69.6" class="st3" width="2.85" height="2.85"/>
	<rect x="52.04" y="76.06" class="st3" width="32.31" height="2.85"/>
	<rect x="87.21" y="76.06" class="st3" width="28.6" height="2.85"/>
	<rect x="36.9" y="76.06" class="st3" width="2.85" height="2.85"/>
	<rect x="48.61" y="82.52" class="st3" width="15.91" height="2.85"/>
	<rect x="36.9" y="82.52" class="st3" width="2.85" height="2.85"/>
	<rect x="52.04" y="88.99" class="st3" width="21.47" height="2.85"/>
	<rect x="130.12" y="88.99" class="st3" width="21.47" height="2.85"/>
	<rect x="76.36" y="88.99" class="st3" width="50.9" height="2.85"/>
	<rect x="36.9" y="88.99" class="st3" width="2.85" height="2.85"/>
	<rect x="52.04" y="95.45" class="st3" width="21.01" height="2.85"/>
	<rect x="75.9" y="95.45" class="st3" width="34.95" height="2.85"/>
	<rect x="113.7" y="95.45" class="st3" width="6.13" height="2.85"/>
	<rect x="36.9" y="95.45" class="st3" width="2.85" height="2.85"/>
	<rect x="52.04" y="101.91" class="st3" width="10.32" height="2.85"/>
	<rect x="65.21" y="101.91" class="st3" width="48.74" height="2.85"/>
	<rect x="36.9" y="101.91" class="st3" width="2.85" height="2.85"/>
	<rect x="48.61" y="108.38" class="st3" width="10.18" height="2.85"/>
	<rect x="36.9" y="108.38" class="st3" width="2.85" height="2.85"/>
	<rect x="44.7" y="34.86" class="st3" width="1.39" height="83.96"/>
	<g>
		<g>
			<path class="st3" d="M64.93,118.92c-0.18-0.18-0.18-0.48,0-0.66l0,0l2.06-2.06l-2.06-2.06c-0.18-0.18-0.18-0.48,0-0.66l0,0
				c0.18-0.18,0.48-0.18,0.66,0l0,0l2.39,2.39c0.09,0.09,0.14,0.21,0.14,0.33l0,0c0,0.12-0.05,0.24-0.14,0.33l0,0l-2.39,2.39
				c-0.09,0.09-0.21,0.14-0.33,0.14l0,0C65.14,119.05,65.02,119.01,64.93,118.92L64.93,118.92z"/>
		</g>
		<g>
			<path class="st3" d="M54.1,118.92l-2.39-2.39c-0.18-0.18-0.18-0.48,0-0.66l0,0l2.39-2.39v0c0.18-0.18,0.48-0.18,0.66,0l0,0
				c0.18,0.18,0.18,0.48,0,0.66l0,0l-2.06,2.06l2.06,2.06c0.18,0.18,0.18,0.48,0,0.66l0,0c-0.09,0.09-0.21,0.14-0.33,0.14l0,0
				C54.31,119.05,54.19,119.01,54.1,118.92L54.1,118.92z"/>
		</g>
		<g>
			<path class="st3" d="M57.32,118.66c-0.18-0.18-0.18-0.48,0-0.66l0,0l4.27-4.27c0.18-0.18,0.48-0.18,0.66,0l0,0
				c0.18,0.18,0.18,0.47,0,0.66l0,0l-4.27,4.27c-0.09,0.09-0.21,0.14-0.33,0.14l0,0C57.53,118.8,57.41,118.75,57.32,118.66
				L57.32,118.66z"/>
		</g>
	</g>
	<g>
		<g>
			<path class="st3" d="M64.93,41.57c-0.18-0.18-0.18-0.48,0-0.66l0,0l2.06-2.06l-2.06-2.06v0c-0.18-0.18-0.18-0.48,0-0.66l0,0
				c0.18-0.18,0.48-0.18,0.66,0l0,0l2.39,2.39c0.09,0.09,0.14,0.2,0.14,0.33l0,0c0,0.12-0.05,0.24-0.14,0.33l0,0l-2.39,2.39
				c-0.09,0.09-0.21,0.14-0.33,0.14l0,0C65.14,41.71,65.02,41.66,64.93,41.57L64.93,41.57z"/>
		</g>
		<g>
			<path class="st3" d="M54.1,41.57l-2.39-2.39c-0.18-0.18-0.18-0.48,0-0.66l0,0l2.39-2.39l0,0c0.18-0.18,0.48-0.18,0.66,0l0,0
				c0.18,0.18,0.18,0.48,0,0.66l0,0l-2.06,2.06l2.06,2.06c0.18,0.18,0.18,0.48,0,0.66l0,0c-0.09,0.09-0.21,0.14-0.33,0.14l0,0
				C54.31,41.71,54.19,41.66,54.1,41.57L54.1,41.57z"/>
		</g>
	</g>
</g>
</svg>
