<?xml version="1.0" encoding="utf-8"?>
<!-- Generator: Adobe Illustrator 25.0.0, SVG Export Plug-In . SVG Version: 6.00 Build 0)  -->
<svg version="1.1" id="Layer_1" xmlns="http://www.w3.org/2000/svg" xmlns:xlink="http://www.w3.org/1999/xlink" x="0px" y="0px"
	 viewBox="0 0 232.41 203.91" style="enable-background:new 0 0 232.41 203.91;" xml:space="preserve">
<style type="text/css">
	.st0{fill:#1D1F27;}
</style>
<g id="NewGroup42-0">
	<g>
		<path class="st0" d="M149.47,14.32c4.42,0,8,3.58,8,8s-3.58,8-8,8c-4.42,0-8-3.58-8-8S145.04,14.32,149.47,14.32L149.47,14.32z
			 M184.41,22.31c0,4.42-3.58,8-8,8c-4.42,0-8-3.58-8-8s3.58-8,8-8C180.83,14.32,184.41,17.89,184.41,22.31L184.41,22.31z
			 M211.36,22.31c0,4.42-3.58,8-8,8c-4.42,0-8-3.58-8-8s3.58-8,8-8C207.78,14.32,211.36,17.89,211.36,22.31L211.36,22.31z
			 M9.04,189.46h11.43c-0.57-1.64-0.86-3.33-0.86-5.06c0-2.1,0.4-4.08,1.14-5.89h-9.81V43.79h210.51v134.73h-9.89
			c0.75,1.8,1.15,3.79,1.15,5.89c0,1.73-0.29,3.42-0.88,5.06h11.52c4.99,0,9.04-4.05,9.04-9.04V9.04c0-4.99-4.05-9.04-9.04-9.04
			H9.04C4.05,0,0,4.05,0,9.04v171.38C0,185.41,4.05,189.46,9.04,189.46L9.04,189.46z"/>
		<path class="st0" d="M197.46,58.1H37.47c-3.02,0-5.47,2.45-5.47,5.47c0,3.02,2.45,5.47,5.47,5.47h159.99
			c3.02,0,5.47-2.45,5.47-5.47C202.94,60.55,200.49,58.1,197.46,58.1L197.46,58.1z"/>
		<path class="st0" d="M201.67,129.26c0-3.02-2.45-5.47-5.47-5.47H36.21c-3.02,0-5.47,2.45-5.47,5.47c0,3.02,2.45,5.47,5.47,5.47
			H196.2C199.22,134.73,201.67,132.28,201.67,129.26L201.67,129.26z"/>
		<path class="st0" d="M168.41,80H36.21c-3.02,0-5.47,2.45-5.47,5.47c0,3.02,2.45,5.47,5.47,5.47h132.2c3.02,0,5.47-2.45,5.47-5.47
			C173.89,82.45,171.43,80,168.41,80L168.41,80z"/>
		<path class="st0" d="M61.05,107.36c0,3.02,2.45,5.47,5.47,5.47H196.2c3.02,0,5.47-2.45,5.47-5.47c0-3.02-2.45-5.47-5.47-5.47
			H66.52C63.5,101.89,61.05,104.34,61.05,107.36L61.05,107.36z"/>
		<path class="st0" d="M196.2,90.94c3.02,0,5.47-2.45,5.47-5.47c0-3.02-2.45-5.47-5.47-5.47h-9.26c-3.02,0-5.47,2.45-5.47,5.47
			c0,3.02,2.45,5.47,5.47,5.47H196.2L196.2,90.94z"/>
		<path class="st0" d="M36.21,112.84h9.26c3.02,0,5.47-2.45,5.47-5.47c0-3.02-2.45-5.47-5.47-5.47h-9.26
			c-3.02,0-5.47,2.45-5.47,5.47C30.74,110.39,33.19,112.84,36.21,112.84L36.21,112.84z"/>
		<path class="st0" d="M30.6,184.98c0.08,0.57,0.27,1.15,0.57,1.72c0.4,0.77,1.05,1.35,1.95,1.73l2.39,1.04l13.23,5.78
			c0.25,0.07,0.47,0.12,0.66,0.16c0.46,0.11,0.76,0.16,0.88,0.16c1.1,0,1.98-0.4,2.62-1.21c0.63-0.81,0.95-1.68,0.95-2.61
			c0-0.6-0.2-1.24-0.61-1.91c-0.08-0.13-0.15-0.24-0.24-0.36c-0.18-0.25-0.38-0.46-0.6-0.65c-0.22-0.18-0.46-0.34-0.71-0.46
			l-4.64-1.94l-4.67-1.95l4.49-1.84l5.14-2.11c0.63-0.25,1.1-0.69,1.4-1.31c0.11-0.23,0.2-0.46,0.27-0.69
			c0.12-0.38,0.18-0.76,0.18-1.13c0-0.29-0.06-0.58-0.14-0.88c-0.04-0.15-0.08-0.3-0.14-0.45c-0.19-0.47-0.45-0.89-0.77-1.28
			c-0.16-0.19-0.34-0.36-0.53-0.52c-0.19-0.16-0.4-0.3-0.62-0.43c-0.45-0.25-0.94-0.39-1.5-0.39c-0.25,0-0.77,0.11-1.53,0.32
			l-0.51,0.22l-10.37,4.55l-4.56,2c-1.74,0.77-2.62,2.06-2.62,3.89l0,0l0,0C30.57,184.59,30.58,184.79,30.6,184.98L30.6,184.98z"/>
		<path class="st0" d="M66.6,177.67c0.67-1.68,1.61-3.15,2.8-4.4c1.19-1.25,2.6-2.25,4.24-2.99c1.64-0.75,3.42-1.12,5.33-1.12
			c1.83,0,3.57,0.36,5.23,1.09c1.66,0.72,3.1,1.7,4.34,2.93c1.23,1.24,2.21,2.68,2.93,4.34c0.14,0.33,0.28,0.67,0.38,1
			c0.39,1.1,0.61,2.26,0.68,3.44c-0.01,0.33-0.02,0.65-0.02,0.98c0,0.27,0,0.53,0.01,0.8v0.03c-0.1,1.52-0.44,2.96-1.02,4.33
			c-0.2,0.47-0.42,0.93-0.67,1.36c-0.61,1.1-1.35,2.1-2.23,2.97c-1.23,1.24-2.67,2.2-4.3,2.91c-1.63,0.7-3.41,1.05-5.32,1.05
			c-1.91,0-3.68-0.35-5.3-1.05c-1.62-0.71-3.02-1.67-4.24-2.91c-0.88-0.89-1.62-1.88-2.21-2.97c-0.23-0.42-0.44-0.85-0.62-1.3
			c-0.68-1.62-1.02-3.36-1.02-5.23c0-1.52,0.24-3,0.72-4.42C66.38,178.23,66.49,177.95,66.6,177.67L66.6,177.67z M58.83,189.46
			c0.19,0.57,0.4,1.15,0.65,1.7c1.05,2.37,2.44,4.46,4.18,6.26c0.13,0.13,0.25,0.27,0.39,0.4c1.91,1.89,4.16,3.38,6.75,4.46
			c2.59,1.09,5.36,1.63,8.29,1.63c2.93,0,5.68-0.54,8.26-1.63c2.57-1.09,4.81-2.59,6.72-4.5c0.49-0.48,0.94-0.99,1.38-1.52
			c1.27-1.55,2.32-3.28,3.15-5.21c0.23-0.52,0.43-1.06,0.6-1.6c0.71-2.11,1.06-4.32,1.06-6.65c0-1.47-0.14-2.91-0.42-4.29
			c-0.27-1.34-0.67-2.64-1.2-3.91c-0.82-1.93-1.87-3.67-3.17-5.23c-0.43-0.52-0.88-1.02-1.36-1.49c-1.94-1.92-4.21-3.44-6.82-4.56
			c-2.62-1.13-5.46-1.69-8.51-1.69c-2.97,0-5.73,0.58-8.29,1.73c-2.55,1.15-4.77,2.7-6.67,4.66c-0.47,0.49-0.92,0.99-1.34,1.52
			c-1.26,1.58-2.29,3.33-3.09,5.26c-0.5,1.2-0.88,2.44-1.14,3.71c-0.3,1.43-0.45,2.91-0.45,4.42l0,0l0,0
			C57.8,185.23,58.14,187.4,58.83,189.46L58.83,189.46z"/>
		<path class="st0" d="M134.25,192.44c-1.23,1.24-2.67,2.2-4.3,2.91c-1.63,0.7-3.41,1.05-5.32,1.05c-1.92,0-3.68-0.35-5.3-1.05
			c-1.62-0.71-3.03-1.67-4.24-2.91c-0.87-0.89-1.61-1.88-2.21-2.97c-0.23-0.42-0.44-0.85-0.62-1.3c-0.68-1.62-1.03-3.36-1.03-5.23
			c0-1.52,0.24-3,0.72-4.42c0.08-0.29,0.19-0.56,0.3-0.84c0.67-1.68,1.61-3.15,2.8-4.4c1.19-1.25,2.6-2.25,4.24-2.99
			c1.64-0.75,3.41-1.12,5.33-1.12c1.83,0,3.57,0.36,5.23,1.09c1.65,0.72,3.1,1.7,4.33,2.93c1.24,1.24,2.21,2.68,2.94,4.34
			c0.14,0.33,0.28,0.67,0.38,1c0.47,1.36,0.71,2.8,0.71,4.29c0,1.87-0.35,3.63-1.05,5.29c-0.2,0.47-0.42,0.93-0.67,1.36
			C135.87,190.57,135.13,191.56,134.25,192.44L134.25,192.44z M139.73,197.79c0.96-0.96,1.81-1.99,2.57-3.11
			c0.76-1.12,1.41-2.32,1.96-3.61c0.08-0.17,0.14-0.35,0.21-0.53c0.14-0.35,0.27-0.71,0.38-1.07c0.53-1.58,0.86-3.22,0.99-4.93
			c0.04-0.57,0.07-1.14,0.07-1.73c0-0.74-0.04-1.46-0.11-2.18c-0.04-0.36-0.08-0.71-0.13-1.07c-0.05-0.35-0.12-0.7-0.19-1.05
			c-0.13-0.67-0.3-1.33-0.5-1.98c-0.2-0.65-0.43-1.29-0.7-1.92c-0.54-1.28-1.19-2.49-1.95-3.61c-0.76-1.12-1.62-2.16-2.58-3.11
			c-0.35-0.35-0.72-0.68-1.09-1c-1.68-1.46-3.59-2.64-5.73-3.56c-2.62-1.13-5.46-1.69-8.51-1.69c-2.98,0-5.74,0.58-8.29,1.73
			c-2.54,1.15-4.77,2.7-6.66,4.66c-0.42,0.44-0.83,0.88-1.2,1.36c-1.34,1.63-2.41,3.44-3.23,5.43c-0.5,1.2-0.88,2.44-1.14,3.71
			c-0.3,1.43-0.45,2.91-0.45,4.42c0,2.29,0.34,4.46,1.04,6.53c0.19,0.57,0.4,1.15,0.65,1.7c0.83,1.87,1.87,3.57,3.12,5.09
			c0.45,0.55,0.93,1.07,1.44,1.57c1.91,1.89,4.16,3.38,6.75,4.46c2.59,1.09,5.36,1.63,8.29,1.63c2.93,0,5.68-0.54,8.25-1.63
			c2.11-0.89,4-2.06,5.67-3.52l0,0C139.03,198.47,139.39,198.14,139.73,197.79L139.73,197.79z"/>
		<path class="st0" d="M166.85,178.63c-0.96,0.95-2.15,1.43-3.55,1.43h-6.16v-1.55v-8.46h6.16c1.41,0,2.59,0.49,3.55,1.47
			c0.59,0.6,1,1.27,1.23,2.01c0.14,0.47,0.22,0.97,0.22,1.5c0,1.03-0.24,1.92-0.74,2.7v0.01c-0.17,0.28-0.36,0.53-0.6,0.77
			C166.93,178.56,166.9,178.59,166.85,178.63L166.85,178.63z M172.13,166.23c-1.15-1.15-2.48-2.05-4.02-2.71
			c-1.53-0.66-3.15-0.99-4.85-0.99h-9.11c-1.59,0-2.76,0.41-3.51,1.24c-0.68,0.73-1.02,1.81-1.02,3.23v11.52v10.95v9.73
			c0,1.25,0.3,2.18,0.89,2.82c0.64,0.67,1.6,1,2.9,1c2.49,0,3.74-1.27,3.74-3.82v-9.73v-1.81h6.07c1.71,0,3.33-0.33,4.87-0.99
			c0.18-0.08,0.35-0.15,0.52-0.24c1.32-0.62,2.49-1.46,3.51-2.47c1.15-1.15,2.05-2.48,2.71-3.98c0.21-0.47,0.39-0.96,0.52-1.46
			c0.32-1.09,0.47-2.23,0.47-3.43c0-1.7-0.33-3.31-0.99-4.84c-0.61-1.44-1.46-2.71-2.51-3.81
			C172.26,166.37,172.19,166.3,172.13,166.23L172.13,166.23z"/>
		<path class="st0" d="M199.1,180.51l-4.54-2l-7.79-3.43l-3.04-1.34c-0.77-0.21-1.27-0.32-1.52-0.32c-0.6,0-1.12,0.13-1.57,0.39
			c-0.22,0.13-0.43,0.27-0.62,0.43c-0.19,0.16-0.37,0.33-0.53,0.52c-0.32,0.39-0.56,0.81-0.73,1.28c-0.06,0.15-0.09,0.3-0.13,0.45
			c-0.08,0.3-0.13,0.6-0.13,0.88c0,0.21,0.01,0.4,0.03,0.59c0.02,0.19,0.05,0.37,0.09,0.54c0.11,0.49,0.32,0.9,0.6,1.23
			c0.29,0.33,0.66,0.58,1.12,0.76l5.16,2.13h0.01l2.2,0.91l2.2,0.91l-6.54,2.75l-2.7,1.14c-0.26,0.12-0.5,0.28-0.72,0.46
			c-0.22,0.19-0.42,0.4-0.6,0.65c-0.09,0.12-0.17,0.24-0.24,0.36c-0.4,0.67-0.61,1.31-0.61,1.91c0,0.36,0.05,0.72,0.15,1.07
			c0.03,0.13,0.08,0.27,0.13,0.4c0.15,0.39,0.37,0.78,0.65,1.15c0.61,0.81,1.47,1.21,2.59,1.21c0.1,0,0.42-0.06,0.97-0.18
			c0.18-0.04,0.39-0.09,0.63-0.14l13.18-5.78l2.38-1.04c0.89-0.38,1.55-0.96,1.98-1.73c0.32-0.57,0.51-1.14,0.59-1.72
			c0.03-0.19,0.04-0.38,0.04-0.57l0,0l0,0C201.77,182.58,200.88,181.28,199.1,180.51L199.1,180.51z"/>
	</g>
</g>
</svg>
