{
  "name":    "Special content",
  "subName": "blockquote / quotebox",
  "type": "extra",
  "tags": [
    "text-medium",
    "text-small",
    "extra-unrestricted"
  ],
  "components": {

    "preview": {
      "layouts": [
        {
          "title":      "",
          "hasLabels":  false
        }
      ]
    },

    "description": {
      "body": "Inline (?) icon that can cause labels / text bubbles to appear over / near an image when clicked. Can be seen as a baby version of the Activator template."
    },

    "modularity": {
      "_parents": {
        "_includeTags": ["all"],
        "_excludeTags": ["extra-unrestricted", "extra-restricted"],
        "_includePages": ["figure", "extraLearning", "resourcePopup", "stickyElement"],
        "_excludePages": ["media"]
      }
    },

    "word": {
      "_items": [
        {
          "_header": {
            "_isEnabled": 	true,
            "tn": 			"{{#w-debug}}Insert template compatible with this extra here{{/w-debug}}",
            "notes": 		""
          },
  
          "_comment": 	"This is an example of just one possible way to use this Extra. Most Extras are flexible, so feel free to come up with your own ways to use them.",

          "title":		"Title",
          "body":			"Sometimes you'll need to put in a large quotebox into your content. This can be done just like this.",
          "instruction":	"",
          "content":		"{{#w-green}}{{#w-yellow}}Quotebox{{/w-yellow}}<br/><br/>This entire bit of text will be placed inside the quotebox. You can make it quite long but it's highly recommended you try to stick to one paragraph max and one sentence min. This quotebox will appear just after the standup text (because that's where this green area has been placed).{{/w-green}}"
        }
      ]
    },

    "developer": {
      	"body": "  <p>This helper creates a large box containing quoted text.</p>",
			"json": {
				"helpers": [
          {
            "_desc": "Generic BlockQuote",
            "_items": [
              {
                "_name": "blockquote",
                "_content": "INSERT QUOTE HTML HERE",
                "_properties": {
                }
              }
            ],
            "properties": {
            },
            "_example": "            <p>Here is how you make a blockquote. Note that it should be inside of a {{{guidelink \"figure\"}}} helper.</p><code class='example'>&lt;p&gt;When reading this literature, make special note of the following paragraph:&lt;/p&gt;<br class=\"br\" /><br class=\"br\" />&lcub;&lcub;#figure&rcub;&rcub;<br class=\"br\" /><span class=\"tab\">&Tab;</span>&lcub;&lcub;#item sizing=\"auto\"&rcub;&rcub;<br class=\"br\" /><span class=\"tab\">&Tab;</span><span class=\"tab\">&Tab;</span><mark >&lcub;&lcub;#blockquote&rcub;&rcub;Eu mollit magna veniam quis cillum quis laborum officia. Consectetur magna voluptate deserunt anim dolor enim eu exercitation deserunt cillum esse sit. Mollit reprehenderit officia adipisicing eiusmod culpa fugiat consequat occaecat enim adipisicing deserunt velit esse. Labore cillum ex occaecat reprehenderit excepteur irure.&lcub;&lcub;/blockquote&rcub;&rcub;</mark><br class=\"br\" /><span class=\"tab\">&Tab;</span>&lcub;&lcub;/item&rcub;&rcub;<br class=\"br\" />&lcub;&lcub;/figure&rcub;&rcub;</code>            "
          }
        ],
        "html": [],
				"blocks": [],
				"components": [],
				"properties": {
          
				}
			}
		}

  }
}